<svg width="53" height="61" viewBox="0 0 53 61" fill="none" xmlns="http://www.w3.org/2000/svg">
<path d="M0.710867 23.1832C0.675979 20.7414 0.55938 18.2029 0.356479 15.5678C0.2916 14.6877 0.257324 14.1246 0.257324 13.8652C0.257324 12.9545 0.408199 12.2945 0.710867 11.8808L1.64366 10.5654C1.64366 11.054 1.6305 11.8106 1.60479 12.8358C1.59561 13.17 1.59163 13.368 1.59163 13.425C1.59163 14.1729 1.61765 15.4138 1.66049 17.1516C1.69079 18.313 1.70823 19.0609 1.70823 19.3951C1.70823 21.0185 1.37557 22.2812 0.710867 23.1832ZM5.49143 13.2579L7.4476 14.0236L6.748 16.0296L4.75297 15.2642L5.49143 13.2579ZM7.38272 18.3791C8.49699 19.7209 9.05397 20.9571 9.05397 22.0832C9.05397 24.1069 8.609 25.6951 7.71507 26.8434C6.82115 27.9919 5.60344 28.5681 4.06163 28.5681C3.76356 28.5681 3.38805 28.4406 2.92166 28.1809L1.47044 27.3628C1.31069 27.2792 1.22898 27.2131 1.22898 27.1692C1.22898 27.1074 1.51788 27.0679 2.09231 27.0414C3.50465 26.9887 4.70094 26.7293 5.68974 26.2672C6.67853 25.8008 7.37384 25.3126 7.76679 24.7935C8.16004 24.2787 8.35438 23.7154 8.35438 23.104C8.35438 22.6114 7.77567 21.639 6.61855 20.187L7.38272 18.3791Z" fill="#C43025"/>
<path fill-rule="evenodd" clip-rule="evenodd" d="M32.291 51.9864C33.5155 52.7564 38.3006 53.5365 40.1032 53.4417C48.8413 52.984 54.2138 36.9412 49.7408 31.4022C49.1361 30.6537 47.1355 28.5567 46.2743 28.2739C45.464 28.913 44.2328 30.4416 44.6067 32.1873C44.9088 33.5974 46.3802 34.5779 47.3608 35.45C50.6056 38.3388 49.9773 39.6763 47.635 43.2284C45.7042 46.1565 44.6309 47.2898 41.3395 48.9887C37.8054 50.8125 33.8463 51.1786 32.784 51.654L32.5205 51.8018C32.4875 51.8218 32.4287 51.8735 32.4033 51.8913C32.3779 51.9087 32.325 51.9505 32.291 51.9864ZM42.2876 18.6941C42.7819 19.3965 44.4993 21.2484 45.4771 21.6303C46.2263 21.2353 48.2584 19.1948 48.4674 18.4911L45.5454 15.5193C44.6162 16.0717 42.6833 17.8255 42.2876 18.6941Z" fill="#211D21"/>
</svg>
