<svg width="125" height="51" viewBox="0 0 125 51" fill="none" xmlns="http://www.w3.org/2000/svg">
<path fill-rule="evenodd" clip-rule="evenodd" d="M71.4611 34.6067C73.5355 34.9773 75.5812 36.6894 76.0176 38.2183C73.4369 39.2715 71.6106 36.8233 71.4611 34.6067ZM24.6269 30.3618C24.9631 29.5665 24.8957 30.0053 26.0332 28.975C27.4049 27.7337 28.8893 26.6081 30.6909 25.8811C33.0234 24.9404 37.3861 26.0281 38.4414 27.8388C37.811 28.4813 36.3225 28.7055 35.3354 28.9931C32.0856 29.9403 27.991 30.3232 24.6269 30.3618ZM73.1607 29.4063C73.2635 28.8641 75.7267 23.9529 76.459 23.7097C76.9727 24.7112 76.9423 26.5202 76.8511 27.6942C75.7588 28.3375 74.5859 29.15 73.1607 29.4063ZM85.4957 24.422C86.0357 24.9067 86.9546 24.9691 87.6804 25.1334C88.0905 25.2033 89.8444 25.435 89.9192 25.4711C94.475 25.8712 98.5828 25.4801 103.001 25.1376C106.668 24.8533 119.318 23.2488 120.865 28.4082C119.598 28.92 116.499 28.9118 114.941 28.9939L103.19 30.0586C101.22 30.0389 99.0085 30.4053 96.9316 30.4727C88.8384 30.734 85.9018 30.8383 77.3565 30.5286C77.7568 27.9004 79.6751 27.1791 78.1833 19.4878C77.7946 18.8774 78.139 19.3415 77.7675 19.1049C76.7097 20.2756 72.7506 26.9507 72.2197 28.2364C71.5613 29.2954 71.3468 30.1811 69.883 30.4127C68.6691 30.6058 67.4083 30.7832 66.0744 30.6362C62.2805 30.2188 62.7522 27.4806 61.009 26.9877C58.808 32.1766 54.4889 32.262 52.4613 30.3059C52.5887 28.4977 55.4176 26.8382 53.5084 24.629C52.5599 23.5323 49.8723 22.0986 47.9244 23.2965L47.2677 23.6506L45.4135 26.563C45.2672 26.8029 45.1809 26.899 45.1349 27.0321C45.1234 27.0641 45.1086 27.1265 45.1012 27.1561L45.1143 27.5513C45.6157 27.7115 48.2721 27.5653 48.4118 29.8319C45.1883 30.7997 41.5284 31.8299 37.7666 31.6303C38.4036 30.812 40.1361 29.9379 41.032 27.6523C41.9928 25.2016 40.6753 24.1386 39.0085 23.1938C34.35 20.555 31.064 22.7082 27.46 25.3257C25.7472 26.8792 24.5949 27.7246 22.6034 29.3414C20.3712 31.1521 17.8784 28.6489 17.114 26.8883C16.7359 26.9105 16.5543 26.9351 16.348 26.9729C15.8022 28.2192 15.3223 28.8542 15.8696 30.623C17.1756 34.8507 18.8465 35.1572 12.3832 38.6537C7.22493 41.4445 3.22147 41.0592 1.9426 39.5328C-0.514044 36.6007 3.49106 29.0679 3.47709 29.0407C1.20208 30.9114 -0.69733 36.1932 0.248672 39.5993C0.830575 41.6951 2.39382 43.2839 4.54966 43.6659C5.63949 43.8582 6.62167 43.8557 7.71562 43.6742C9.58954 43.3636 12.1202 42.3564 13.8437 41.428C17.0877 39.6798 17.8545 36.5169 18.8663 33.3761C20.1057 33.4919 21.0049 33.9717 22.6158 34.0678C26.3316 34.2896 29.9019 33.4467 31.055 33.6735C35.5179 34.5517 38.9838 34.725 43.6218 33.8419C44.7659 33.6242 46.1327 33.2709 47.211 32.9135C48.4323 32.5077 49.4507 31.779 50.4896 31.4939C50.8011 31.9967 50.7862 32.4124 51.2169 32.9875C54.5004 37.3795 58.7299 33.9807 60.6539 30.4481C61.055 30.7504 60.6835 30.2952 61.0739 30.9089C61.5145 31.5999 61.8638 33.441 64.0714 34.1738C66.5839 35.0076 68.6469 33.8312 70.3235 34.1754C70.1214 35.2911 69.4688 35.3281 69.7523 38.657C69.874 38.7112 70.372 39.7842 70.6005 40.158C70.9531 40.7314 71.2745 41.1561 71.757 41.6655C74.1125 44.1482 76.4393 42.2225 77.4132 39.8178C77.5899 39.3816 78.0066 38.0293 78.125 37.8272C78.3239 36.0946 78.2992 35.9935 78.0469 34.3767L88.0215 34.3364C95.3298 34.0662 102.447 33.4533 109.747 32.8412C112.577 32.557 115.54 32.2341 118.349 32.0238C121.844 31.7617 123.233 29.8631 124.812 26.8891C124.282 24.8024 121.248 23.386 119.447 22.5645C114.126 20.1393 99.4006 24.4918 88.8967 22.5719C89.4671 21.2377 93.3161 18.9242 94.6796 18.1774C97.1001 16.8498 103.979 14.3966 105.231 13.3007C105.982 12.6434 106.485 11.7907 106.504 10.6783C102.064 11.048 87.1034 17.6237 85.4957 24.422Z" fill="#211D21"/>
<path fill-rule="evenodd" clip-rule="evenodd" d="M11.2958 10.6939C10.2289 10.546 9.04376 9.87731 7.36792 11.8499C6.76875 12.5547 5.84331 14.2693 5.78906 15.0736C6.9052 13.8996 7.54215 12.4134 9.6125 12.5498C12.3305 13.3689 24.7058 14.2611 24.8151 8.737C23.1475 9.78694 19.707 13.0649 11.2958 10.6939ZM35.1883 13.143L35.2187 13.7493C35.762 13.2719 36.8945 12.1185 37.409 11.8383C38.6838 11.5294 40.4944 13.1906 45.956 12.1341C48.157 11.7093 51.8013 9.55116 51.8686 7.12594C51.2029 7.43567 50.3145 8.36811 49.2682 8.97195C45.4603 11.1688 39.9906 9.6103 37.9392 9.58976C36.9677 10.8492 36.1343 11.7652 35.1883 13.143ZM82.0692 12.5662C83.4402 11.3807 83.0161 10.6422 87.2011 10.6109C89.1655 10.7514 90.9999 10.8484 92.8435 10.4261C94.9105 9.98904 99.8337 7.91627 99.2066 5.12793C98.4874 5.80817 97.3384 7.42414 93.1394 8.29499C90.215 8.90129 87.6433 8.62034 84.7996 8.28022C83.7171 9.22171 82.227 11.1983 82.0692 12.5662Z" fill="#C43025"/>
<path fill-rule="evenodd" clip-rule="evenodd" d="M56.3653 42.7245C57.0302 42.3852 58.3625 41.0231 58.7299 40.3658C58.0666 39.3299 56.9784 38.8476 56.676 38.063C55.9371 38.0203 54.4256 39.739 53.9563 40.3658C54.216 41.0025 55.7168 42.4994 56.3653 42.7245Z" fill="#211D21"/>
<path fill-rule="evenodd" clip-rule="evenodd" d="M61.5227 42.7138C62.1358 42.7458 63.8651 40.9212 64.1199 40.3658C63.8906 40.1251 61.9871 38.031 61.9033 38.0523C61.0148 38.2725 59.934 39.6363 59.2551 40.3001C59.6217 40.9343 60.9967 42.2274 61.5227 42.7138Z" fill="#211D21"/>
</svg>
