<svg width="58" height="51" viewBox="0 0 58 51" fill="none" xmlns="http://www.w3.org/2000/svg">
<path fill-rule="evenodd" clip-rule="evenodd" d="M38.9489 32.6738C39.2069 32.1398 41.3767 29.9906 41.9233 29.3621C44.864 25.9806 46.8497 25.7416 50.3863 27.4718C51.5699 28.051 53.5359 28.9662 53.9205 30.3636C49.5858 31.6575 44.2049 33.2399 38.9489 32.6738ZM37.4283 6.1115C37.1144 7.02013 36.3056 7.52042 35.9687 9.14462C35.7755 10.0722 36.3147 11.6594 36.5612 12.4481C37.1382 17.347 38.0735 21.9822 38.63 27.1094C38.8995 29.593 38.2847 31.3725 36.5982 32.4298C35.9958 32.4487 33.8227 31.8867 33.3147 31.6904C32.1098 31.2246 32.2849 30.339 31.8896 29.1444C31.306 29.4952 30.5532 32.2088 30.1537 32.9343C25.7056 33.8224 26.1832 31.5992 26.1273 29.188C24.7087 29.6785 25.012 32.4101 21.2395 32.2721C18.2371 32.162 18.8091 29.7244 17.739 27.7659C16.3007 28.9095 16.0484 30.9708 16.0862 31.7405C16.3073 32.056 17.9182 36.5179 17.2311 37.6557C15.441 40.6215 6.10999 43.0763 3.14294 40.0636C-0.0147815 36.858 3.51526 32.6812 3.81279 31.0513C1.72271 32.0281 -0.722423 37.8504 0.200566 41.0799C2.08435 47.6778 11.5501 46.3534 15.1813 42.8232C18.0587 40.0267 18.5305 38.2883 19.3483 36.0102C23.5301 36.4768 23.5358 34.7836 24.4662 34.5026C25.0235 35.8475 25.1648 36.6518 27.9897 37.0165C30.5071 37.3419 30.3452 35.8507 31.4803 34.4672C32.0663 34.7047 32.395 35.1746 32.9285 35.4885C37.6009 38.2365 49.0746 35.9362 52.9038 34.2545C54.7235 33.4551 57.0215 30.5 57.0075 28.1857C56.9919 25.5082 50.2129 22.0019 47.4941 22.5942C44.2115 23.309 40.8088 27.8094 39.8036 29.2019C40.3855 22.807 39.7847 20.146 38.9538 13.9581C38.4459 10.1913 40.268 11.5542 40.4201 9.40998C39.5801 8.32636 37.9371 7.62151 37.7398 5.48877L37.4283 6.1115Z" fill="#211D21"/>
<path fill-rule="evenodd" clip-rule="evenodd" d="M8.29688 18.5801C9.75821 17.7988 9.9119 15.1066 11.8401 15.4385C12.8132 15.6069 13.8948 15.8361 14.8778 16.0045C19.7229 16.8417 25.7778 15.5847 27.4068 10.3605L27.1208 10.2249C21.3387 19.0401 9.81985 7.28216 8.29688 18.5801Z" fill="#C43025"/>
</svg>
