<svg width="21" height="51" viewBox="0 0 21 51" fill="none" xmlns="http://www.w3.org/2000/svg">
<path fill-rule="evenodd" clip-rule="evenodd" d="M16.3953 21.351C14.7536 25.1958 15.1408 24.1911 16.8771 27.3902C17.6651 28.8419 18.3124 32.7812 18.2581 34.831C17.5002 35.9754 14.9142 37.4024 13.6675 38.0909C11.1176 39.4982 3.43209 41.6704 2.7375 36.1405C2.45954 33.9297 3.20056 29.5049 4.01243 27.2374C4.23911 26.2967 4.21626 26.1381 3.4874 26.6204C1.69205 29.6322 -0.643038 34.6938 0.164475 39.0307C1.05229 43.7957 6.13136 44.5368 10.818 43.044C14.5111 41.8684 18.2169 39.315 19.419 35.5129C20.4652 32.202 19.9826 28.3391 18.8368 25.0586C18.6854 24.6265 17.1282 20.3536 16.3953 21.351Z" fill="#211D21"/>
<path fill-rule="evenodd" clip-rule="evenodd" d="M9.82176 11.108C5.65146 10.9584 5.648 10.3225 3.71712 12.0585C3.15577 12.5596 2.55858 13.3902 2.36634 14.1551C2.25966 14.579 2.62203 14.2898 2.73882 14.0861C3.03725 13.5636 5.28588 12.1513 6.75806 12.6212C9.918 13.6301 13.7657 13.2439 16.808 11.8284C18.1499 11.2016 19.9266 9.63491 20.0545 8.08301C19.4494 8.27279 18.1462 9.55605 17.0961 10.0128C13.7763 11.4546 12.991 11.2213 9.82176 11.108Z" fill="#C43025"/>
<path fill-rule="evenodd" clip-rule="evenodd" d="M10.9685 22.806C11.8187 22.1011 12.9351 21.0931 13.348 20.1031C12.3057 19.7342 11.781 18.5422 10.7793 18.0714C10.1015 18.4436 8.89145 19.6907 8.46069 20.4054C8.82397 21.1547 10.1096 22.5439 10.9685 22.806Z" fill="#C43025"/>
</svg>
