<svg width="48" height="60" viewBox="0 0 48 60" fill="none" xmlns="http://www.w3.org/2000/svg">
<path fill-rule="evenodd" clip-rule="evenodd" d="M10.1387 31.7933C9.98569 34.4827 12.0409 36.927 12.2194 39.6452C11.0011 40.8735 9.57219 41.6284 7.23648 42.3323C2.68701 43.7024 3.29006 42.6926 1.9853 40.0154C1.19269 42.5418 -0.283881 44.9074 2.00416 47.7087C3.2424 48.488 9.0401 47.8872 11.4955 44.862C12.4345 43.7778 12.3003 43.494 12.7548 41.9687C14.278 44.0361 14.0297 46.1701 17.0959 46.6578C20.0014 47.1201 22.8204 46.0481 25.0996 45.0127C30.3253 42.6393 32.8251 40.4877 39.6814 40.2416L41.2001 35.9337C31.7143 35.9592 19.3496 27.429 18.1191 40.7249C22.2551 37.6032 20.7663 37.0756 27.5761 38.7417C26.1516 40.2161 19.4693 43.7978 16.0095 39.8347C13.9432 37.4691 12.6961 31.0606 11.6097 27.7316C11.5199 27.817 11.398 27.8336 11.3636 28.0076C11.2827 28.4189 10.9091 27.5798 10.1387 31.7933Z" fill="#211D21"/>
<path fill-rule="evenodd" clip-rule="evenodd" d="M45.1035 47.0946C45.1678 45.6923 46.4459 42.626 46.8805 40.308C47.2197 36.6532 45.8684 19.6536 44.4594 17.605C40.6671 22.3939 42.025 22.7952 43.0782 30.9442L44.1745 43.0195C44.1867 43.2933 44.2155 44.7589 44.2344 44.9096C44.4783 46.8629 44.6423 46.6312 45.1035 47.0946ZM40.125 16.2404C39.9986 16.7038 39.5519 17.6227 39.8645 18.0263C41.6116 15.9123 43.8774 16.8578 44.9461 14.0499C42.7057 14.4601 42.0107 15.2826 40.4953 14.2505C39.9876 13.9058 40.0918 13.3615 40.5729 13.2817C41.3744 12.9824 42.3997 13.714 42.4053 13.7107C42.6458 13.5943 42.8033 13.1076 42.9274 11.7342C39.6406 11.2054 36.8537 13.7129 40.125 16.2404ZM34.2563 12.2685C36.8104 11.0269 40.6881 9.47382 42.9928 8.30209C44.1601 7.70791 44.0326 6.79448 44.3752 5.66266C42.7046 6.31116 36.8193 8.75437 35.6587 9.83077C35.0545 10.3917 34.6277 11.1244 34.2563 12.2685Z" fill="#211D21"/>
<path fill-rule="evenodd" clip-rule="evenodd" d="M25.8071 23.9681C26.4479 25.3094 27.613 26.5033 28.8235 27.1984C29.7757 26.684 31.6425 25.101 32.2578 24.4869C31.739 23.3495 30.0762 22.1234 28.8235 21.3076L25.8071 23.9681Z" fill="#211D21"/>
<path fill-rule="evenodd" clip-rule="evenodd" d="M3.6358 17.472L2.9751 19.2324C3.8708 19.8388 7.72854 17.5785 8.83708 17.0297C9.76605 16.5708 11.6351 15.7615 12.5718 15.1829C13.5673 14.5687 13.5695 13.448 13.2059 12.6166C12.778 13.315 5.03811 16.7326 3.6358 17.472Z" fill="#211D21"/>
<path fill-rule="evenodd" clip-rule="evenodd" d="M7.48047 21.2499C8.1722 22.5779 9.26524 23.876 10.5833 24.5722L13.6263 21.7986L10.6831 18.4275C9.17655 19.423 8.73423 20.3187 7.48047 21.2499Z" fill="#211D21"/>
<path fill-rule="evenodd" clip-rule="evenodd" d="M20.4293 16.9998L19.7686 18.7591C20.6654 19.3654 24.5209 17.1051 25.6306 16.5564C26.5595 16.0975 28.4285 15.2882 29.3653 14.7107C30.3607 14.0954 30.3618 12.9747 29.9993 12.1432C29.5714 12.8416 21.8316 16.2593 20.4293 16.9998Z" fill="#211D21"/>
</svg>
