<svg width="57" height="60" viewBox="0 0 57 60" fill="none" xmlns="http://www.w3.org/2000/svg">
<path fill-rule="evenodd" clip-rule="evenodd" d="M42.6775 34.7403C42.6819 34.1906 42.4968 34.456 42.1121 34.475C41.6292 36.8626 41.6972 38.1327 40.814 38.6234C40.4549 38.823 39.6609 38.552 39.2662 37.7613C39.0989 37.429 39.2873 36.3139 39.1524 35.696C38.9684 34.8519 38.0573 36.5893 37.9804 36.7399C36.8886 38.8844 37.1161 40.0898 33.4806 40.2203C31.7577 40.2828 31.6685 39.6393 31.7833 38.9446C31.906 38.2164 32.1 37.5015 32.2573 36.7811C29.7392 38.3257 31.422 39.9873 26.7795 40.188C27.5278 38.3491 29.7046 35.7585 28.6608 33.4345C27.3315 31.455 21.2828 29.8492 18.3432 31.1941C15.5776 32.4576 13.5647 35.4507 11.5061 37.0042C11.8261 32.8446 12.231 30.0923 11.8306 25.6773C11.1303 17.9547 13.8123 22.1255 13.9394 16.8195C10.7957 16.0901 11.699 14.3516 11.0522 13.1985C4.36451 20.0178 15.1828 35.7351 7.99329 41.2641C3.36643 40.4946 3.73221 34.9912 3.48464 30.0019C3.3787 27.824 3.49578 16.7615 1.87766 15.1991C-0.153073 19.3565 1.0502 23.8239 1.42602 28.7574C2.58914 44.0398 0.890731 48.7592 14.5171 45.3724C17.6685 44.5885 20.8936 46.1419 28.5281 43.7287C29.263 44.4089 29.8742 45.0813 30.8812 45.2542C34.559 45.8854 37.2321 42.8265 37.7027 42.5008C40.5096 44.1301 41.5813 44.1156 42.6462 40.8013C43.2518 38.9178 42.9998 37.1759 42.6775 34.7403ZM11.6377 40.8861C12.5254 39.7386 14.8416 37.3053 16.6013 36.4945C19.2922 35.2544 22.2865 35.9503 24.7042 36.9986C24.3853 37.3042 24.4432 37.3075 23.8923 37.6432L23.2846 37.9554C20.8881 39.0661 14.3041 40.8983 11.6377 40.8861Z" fill="#35388A"/>
<path fill-rule="evenodd" clip-rule="evenodd" d="M45.5604 41.853C47.4093 44.439 51.1407 45.8598 53.235 41.0667C53.0332 44.4401 49.4969 47.7132 47.6067 49.1273C44.531 51.429 40.9112 52.1906 36.2163 52.1717C36.9334 53.1653 36.0212 52.3446 37.2545 53.1977C37.6504 53.4731 38.3942 53.7619 38.7823 53.8879C41.6773 54.8358 46.6811 54.6117 49.0854 52.8185C56.4891 47.2995 56.8047 29.7924 50.0824 31.0715C47.0324 31.6514 45.3061 37.7157 45.5604 41.853ZM47.8587 37.9253C48.7698 35.3459 50.8363 36.3987 51.6871 37.9253C50.5274 38.9323 49.3051 39.3438 47.8587 37.9253Z" fill="#35388A"/>
<path fill-rule="evenodd" clip-rule="evenodd" d="M45.6079 23.5952C46.926 23.2852 53.0104 20.3891 54.4858 19.497C55.3267 18.9873 55.8742 18.2915 56.4552 16.6377C54.2327 17.27 49.3103 19.0487 46.8 21.1641C45.8956 21.9269 45.8834 22.8168 45.6079 23.5952Z" fill="#35388A"/>
<path fill-rule="evenodd" clip-rule="evenodd" d="M31.7231 23.5952C33.0413 23.2852 39.1257 20.3891 40.6011 19.497C41.4408 18.9873 41.9883 18.2915 42.5693 16.6377C40.3457 17.27 35.4255 19.0487 32.9153 21.1641C32.0097 21.9269 31.9975 22.8168 31.7231 23.5952Z" fill="#35388A"/>
<path fill-rule="evenodd" clip-rule="evenodd" d="M16.019 17.5253C17.3372 17.2153 23.4205 14.3192 24.8958 13.4271C25.7367 12.9175 26.2842 12.2227 26.8652 10.5677C24.6416 11.2001 19.7203 12.9788 17.2112 15.0943C16.3056 15.857 16.2934 16.747 16.019 17.5253Z" fill="#35388A"/>
<path fill-rule="evenodd" clip-rule="evenodd" d="M16.0093 21.8021C17.3274 21.4909 23.4107 18.5959 24.8872 17.7027C25.728 17.1941 26.2756 16.4983 26.8555 14.8445C24.6329 15.4768 19.7117 17.2544 17.2014 19.3698C16.2959 20.1326 16.2836 21.0226 16.0093 21.8021Z" fill="#35388A"/>
</svg>
