<svg width="53" height="60" viewBox="0 0 53 60" fill="none" xmlns="http://www.w3.org/2000/svg">
<path fill-rule="evenodd" clip-rule="evenodd" d="M26.336 36.2872C24.4163 37.4816 25.3203 40.3342 19.6714 40.652C21.1607 36.0831 21.1119 32.4332 18.2544 29.3207C9.84304 28.0394 10.4323 37.4638 10.8535 41.1449C9.89422 41.6523 8.2674 41.668 7.28114 40.9821C5.58597 39.8034 4.62 33.2328 4.38046 30.9578C3.76366 25.1143 3.43267 18.4132 2.99162 12.4381C0.993226 13.9413 0.903901 16.6836 0.949177 19.2306L2.89828 38.5912C3.17875 41.3735 3.50661 44.2808 6.09705 46.0896C9.16189 48.2296 13.4602 46.1588 14.7969 45.396C16.1849 46.0896 17.9989 46.0439 20.0902 45.6948C23.6498 45.1027 23.9665 43.5827 25.9637 42.0092C31.671 48.3478 48.0897 42.8333 50.1989 39.9316C53.9282 34.7996 51.5952 33.08 47.0899 30.8942C41.4771 28.4855 38.0125 31.4373 35.3093 33.6755C35.5183 29.8014 35.0907 27.4115 34.6667 23.7761C33.9535 17.6571 35.4797 20.3124 35.9013 16.0301C35.076 15.255 34.6612 15.235 34.1248 14.3629L33.5843 12.4727C33.5572 12.302 33.4858 12.2518 33.411 12.1581C28.6025 16.4861 32.7316 22.0364 33.0963 28.8144C33.2497 31.6526 34.0528 35.2613 32.4542 37.4983C30.0728 40.1848 27.0667 38.1986 26.336 36.2872ZM33.2008 39.7587C34.7252 38.3045 36.9281 35.8902 39.3998 35.2468C41.9385 34.5877 44.6366 35.4743 46.749 36.9407C47.3371 37.3489 47.1806 37.2541 47.4905 37.5753C45.7604 38.6369 34.6898 40.6052 33.2008 39.7587ZM17.0496 34.8508C17.8555 37.6064 18.6649 38.6503 15.0198 39.4019C11.85 37.0824 13.9628 34.7494 17.0496 34.8508Z" fill="#35388A"/>
<path fill-rule="evenodd" clip-rule="evenodd" d="M23.1016 51.1135C23.6213 52.2309 25.0216 53.6962 26.4208 54.2293C27.5571 53.2189 28.508 52.629 29.3067 51.0287L26.5355 48.0646C24.9477 48.6746 24.2864 49.6191 23.1016 51.1135Z" fill="#35388A"/>
<path fill-rule="evenodd" clip-rule="evenodd" d="M8.10938 24.3839C9.01657 25.6853 10.2504 26.8094 11.0447 27.5086L14.3592 24.5634C13.6002 23.068 12.6891 22.0085 11.1294 21.3439L8.10938 24.3839Z" fill="#35388A"/>
<path fill-rule="evenodd" clip-rule="evenodd" d="M15.0571 24.3604C16.4582 25.9127 16.6474 26.4558 18.1201 27.2989C19.7393 26.5986 20.7533 25.5436 21.3474 23.853C19.9042 22.9697 19.3948 22.1546 18.1201 21.3651L15.0571 24.3604Z" fill="#35388A"/>
<path fill-rule="evenodd" clip-rule="evenodd" d="M41.7617 18.8381C43.0138 18.5036 47.5144 16.4906 49.9867 14.7855C50.8864 14.1644 50.8085 12.9846 50.9894 12.2318C49.3156 12.8797 47.5339 13.9993 45.6714 14.8881C43.354 15.9933 42.5278 16.3256 41.7617 18.8381Z" fill="#35388A"/>
<path fill-rule="evenodd" clip-rule="evenodd" d="M20.8232 20.1227C22.075 19.7882 26.5759 17.7752 29.0476 16.0701C29.9476 15.449 29.8697 14.2692 30.0501 13.5164C28.3768 14.1643 26.5958 15.284 24.7329 16.1728C22.4152 17.2779 21.5886 17.6102 20.8232 20.1227Z" fill="#35388A"/>
<path fill-rule="evenodd" clip-rule="evenodd" d="M7.04932 18.2035C8.3011 17.869 12.8021 15.8572 15.2744 14.1521C16.174 13.531 16.0962 12.3511 16.2769 11.5984C14.6036 12.2452 12.8215 13.3659 10.959 14.2547C8.64201 15.3598 7.81544 15.6911 7.04932 18.2035Z" fill="#35388A"/>
<path fill-rule="evenodd" clip-rule="evenodd" d="M7.11816 14.461C8.36906 14.1264 12.8708 12.1147 15.3424 10.4085C16.2424 9.78731 16.1641 8.60748 16.3449 7.85474C14.6716 8.50265 12.8902 9.62224 11.0277 10.511C8.70952 11.6173 7.8834 11.9485 7.11816 14.461Z" fill="#35388A"/>
</svg>
