<svg width="65" height="60" viewBox="0 0 65 60" fill="none" xmlns="http://www.w3.org/2000/svg">
<path fill-rule="evenodd" clip-rule="evenodd" d="M23.4022 44.6573C31.2149 47.0694 35.9617 42.829 41.5014 39.9902C46.5989 43.3996 51.713 43.7764 58.6353 41.6592C61.3136 40.839 62.9327 38.6124 63.5604 35.9341C64.5542 31.6854 62.4952 29.9105 62.2254 27.2797C61.442 26.7472 60.8892 26.2407 60.1307 25.6143C58.9408 26.6319 58.1942 28.5577 58.1348 30.5798C59.2927 32.7624 60.7572 32.9514 61.4087 35.6404C57.1968 38.1832 52.7425 39.5373 47.4049 38.1761C48.5152 37.0622 50.2413 36.9338 50.8202 36.6212C51.5953 36.2027 52.4809 33.2736 52.6402 32.5615C49.1821 32.5805 47.2634 33.2034 45.762 33.0227C44.5934 32.8836 42.733 32.2702 37.4464 30.4133C31.8925 28.4626 27.0529 29.8451 25.9997 35.1935C31.4217 33.6885 30.3803 33.7372 35.8166 35.3278C36.8699 35.9412 36.493 35.751 36.8972 36.1671C34.8537 37.6388 31.537 39.6264 28.4343 39.8511C24.1119 40.1637 22.4072 37.1086 20.0736 36.1837C18.1002 41.0613 18.6328 41.0672 21.3135 43.6908C20.8856 46.4964 18.1276 48.9869 15.9949 50.2529C13.2274 51.8958 9.3211 52.9978 7.0957 53.3913C12.9921 57.9978 23.8183 51.9719 23.4022 44.6573Z" fill="#211D21"/>
<path fill-rule="evenodd" clip-rule="evenodd" d="M3.77573 40.3634C3.11358 38.1261 3.81139 36.608 5.17373 35.1077C7.70346 35.6118 10.0335 36.6032 10.887 38.4946C9.09433 40.6142 7.06151 41.2407 3.77573 40.3634ZM6.60859 29.7963C5.05961 33.4982 3.21581 35.7759 1.42016 39.4397C-3.09269 48.6456 11.0023 48.7882 13.771 36.778C14.8064 32.2868 10.4234 30.3788 6.60859 29.7963Z" fill="#211D21"/>
<path fill-rule="evenodd" clip-rule="evenodd" d="M10.27 19.1365C10.9357 20.5107 11.2258 21.2168 13.557 22.9941C14.8397 22.2035 15.9785 21.5628 17.0734 19.8735L13.7163 16.4166C13.4976 16.5604 10.4055 18.9867 10.27 19.1365Z" fill="#211D21"/>
<path fill-rule="evenodd" clip-rule="evenodd" d="M9.42025 19.1306C8.30517 18.6301 6.93926 16.8624 5.90503 16.1171C4.77568 16.9944 3.67488 18.5303 2.83203 19.8736L6.0144 23.1641C7.58953 21.8838 8.34559 20.7105 9.42025 19.1306Z" fill="#211D21"/>
<path fill-rule="evenodd" clip-rule="evenodd" d="M51.9321 21.1431C52.9973 22.2309 53.8366 23.4493 55.4735 24.1626C56.4115 23.4909 58.0246 22.1572 58.5738 20.8043L55.5425 17.824C54.1445 18.4969 52.643 20.1339 51.9321 21.1431Z" fill="#211D21"/>
<path fill-rule="evenodd" clip-rule="evenodd" d="M34.0801 21.149C35.5577 22.742 35.6267 23.2068 37.31 24.2625C38.9065 23.5575 39.7387 22.4662 40.6826 21.2691L38.4512 18.7323C37.3575 17.8086 38.3407 18.4636 37.31 17.9798L34.0801 21.149Z" fill="#211D21"/>
<path fill-rule="evenodd" clip-rule="evenodd" d="M32.7427 52.7837C34.9621 52.0752 39.3321 49.8272 41.5991 48.6015C42.6488 48.0345 43.3882 47.0371 43.8209 45.569C41.1426 46.5414 36.5063 48.6645 34.0907 50.1778C32.9887 50.8697 33.1385 51.9789 32.7427 52.7837Z" fill="#211D21"/>
<path fill-rule="evenodd" clip-rule="evenodd" d="M49.7529 15.3883C51.9736 14.6798 56.3423 12.4307 58.6105 11.205C59.659 10.638 60.3985 9.6406 60.8312 8.17365C58.1528 9.14607 53.5166 11.2692 51.1022 12.7825C49.999 13.4744 50.1488 14.5824 49.7529 15.3883Z" fill="#211D21"/>
<path fill-rule="evenodd" clip-rule="evenodd" d="M3.99561 14.171C6.21625 13.4625 10.585 11.2133 12.8532 9.98768C13.9017 9.42182 14.6411 8.42322 15.0738 6.95627C12.3955 7.92869 7.75928 10.0519 5.34486 11.5652C4.24168 12.2571 4.39147 13.365 3.99561 14.171Z" fill="#211D21"/>
<path fill-rule="evenodd" clip-rule="evenodd" d="M2.98145 10.2147C5.2009 9.50619 9.56967 7.25824 11.8379 6.03261C12.8864 5.46556 13.6258 4.46814 14.0585 3C11.3814 3.97242 6.74513 6.0956 4.32952 7.60892C3.22634 8.30079 3.37612 9.4099 2.98145 10.2147Z" fill="#211D21"/>
<path fill-rule="evenodd" clip-rule="evenodd" d="M18.9907 15.3883C21.2102 14.6798 25.5801 12.4307 27.8471 11.205C28.8968 10.638 29.6362 9.6406 30.069 8.17365C27.3906 9.14607 22.7556 11.2692 20.3388 12.7825C19.2356 13.4744 19.3866 14.5824 18.9907 15.3883Z" fill="#211D21"/>
</svg>
