<svg width="42" height="60" viewBox="0 0 42 60" fill="none" xmlns="http://www.w3.org/2000/svg">
<path fill-rule="evenodd" clip-rule="evenodd" d="M15.4393 18.4908L14.9601 19.306C14.8779 19.6544 14.9062 21.2777 13.9386 21.3512C12.5955 20.996 12.9084 19.7732 12.1166 18.9327C11.8839 20.3207 11.4096 22.5043 12.5506 23.2177C13.9341 24.0831 15.3142 22.453 15.767 21.8445C18.7229 22.6076 19.6395 21.4994 18.8526 18.2815L18.1671 17.501C17.6995 20.1714 16.2719 21.8946 15.4393 18.4908Z" fill="#2198CA"/>
<path fill-rule="evenodd" clip-rule="evenodd" d="M9.47949 16.3928C11.1054 15.7303 16.0383 14.0399 18.3753 13.1145C19.9424 12.4943 19.9926 11.6055 20.1529 10.6296C18.2483 11.2499 14.1137 12.7608 11.0123 14.0599C9.69216 14.6126 9.67481 15.5414 9.47949 16.3928Z" fill="#211D21"/>
<path fill-rule="evenodd" clip-rule="evenodd" d="M30.7305 49.6425C32.3564 48.98 37.2893 47.2896 39.6263 46.3643C41.1938 45.744 41.2436 44.8553 41.4038 43.8794C39.4993 44.4997 35.3651 46.0106 32.2633 47.3096C30.9435 47.8624 30.9258 48.7911 30.7305 49.6425Z" fill="#211D21"/>
<path fill-rule="evenodd" clip-rule="evenodd" d="M30.5869 43.2425C31.6076 43.9556 32.0175 44.0106 33.2079 44.4914C32.783 45.4197 32.6744 45.4955 31.8905 46.1463C32.5862 46.4695 33.4297 45.7979 34.0952 45.5159C34.8535 45.195 35.8173 44.8583 36.5944 44.5789C38.3282 43.9548 39.9741 42.9684 40.4775 41.4518C40.1969 41.4786 34.3648 43.4812 33.1235 40.637C34.6559 39.5567 34.7124 40.8821 35.7943 41.1588C39.1781 38.4153 36.3569 37.1864 34.2396 38.5559C32.7905 39.4933 30.6586 41.2248 30.5869 43.2425Z" fill="#211D21"/>
<path fill-rule="evenodd" clip-rule="evenodd" d="M37.13 37.1502C39.4894 34.9515 38.4513 25.1616 38.0742 22.754C37.2827 17.7088 36.7786 12.9555 36.0765 8C35.1165 8.68137 34.5614 9.42721 33.9064 11.1768C33.4381 12.4294 35.1093 20.0945 35.4238 21.7559C36.4656 27.2555 37.1119 31.1401 37.13 37.1502Z" fill="#211D21"/>
<path fill-rule="evenodd" clip-rule="evenodd" d="M13.1113 48.2911C13.6837 49.2293 15.0231 50.6603 15.9839 51.2081C16.9122 50.724 18.3172 49.2025 18.8779 48.2911C18.5174 47.5385 16.9952 45.9201 15.9839 45.4371C15.0932 46.0317 13.637 47.3869 13.1113 48.2911Z" fill="#211D21"/>
<path fill-rule="evenodd" clip-rule="evenodd" d="M2.64836 34.6087C0.324473 32.0326 3.68793 28.8735 2.86479 27.384C1.52091 29.6133 -0.562774 33.8851 0.141594 37.1144C0.50773 38.7935 1.87687 39.982 2.87385 40.6754C6.70941 43.3421 15.106 42.7071 19.494 41.8183L26.8963 39.8131C29.6304 38.8564 30.7677 34.953 30.6515 32.2931C30.5459 29.8588 29.4162 28.3908 28.1666 26.5243C27.3495 26.6695 28.0362 26.1737 27.3638 27.1393C24.4717 31.2943 28.3389 31.9689 28.023 35.1728C23.3333 37.8625 7.31159 39.7791 2.64836 34.6087Z" fill="#211D21"/>
</svg>
