<svg width="45" height="60" viewBox="0 0 45 60" fill="none" xmlns="http://www.w3.org/2000/svg">
<path fill-rule="evenodd" clip-rule="evenodd" d="M14.4595 23.7747C13.0575 24.7996 11.9606 25.7117 11.4297 26.5718C11.878 27.4659 13.3679 28.93 14.1797 29.5164C15.2031 28.9538 16.4606 27.5371 17.148 26.6653C16.5405 25.809 14.9636 24.3901 14.4595 23.7747Z" fill="#211D21"/>
<path fill-rule="evenodd" clip-rule="evenodd" d="M9.45996 13.9592C10.8774 13.5411 16.3441 11.4049 18.0786 10.5531C19.7555 9.72962 19.8422 9.33068 20.1231 8C18.1156 8.64705 12.6062 10.8243 10.4769 11.9766C9.58212 12.4607 9.65679 13.1576 9.45996 13.9592Z" fill="#211D21"/>
<path fill-rule="evenodd" clip-rule="evenodd" d="M34.6595 12.2812C33.8692 12.7684 33.4016 14.2405 33.0607 15.1251C32.3616 16.9347 33.8318 24.2536 34.2451 26.3086C36.2903 36.4813 35.2704 32.9564 35.9981 41.6075C38.1599 38.6226 37.552 30.7596 36.8442 26.866C36.5298 25.1375 34.6603 12.2835 34.6595 12.2812Z" fill="#211D21"/>
<path fill-rule="evenodd" clip-rule="evenodd" d="M34.2871 46.8669C35.3554 47.9264 35.8109 47.6723 36.7501 48.4411C35.8799 49.2971 35.7946 49.2258 35.3919 50.3763C36.344 50.1093 38.5567 49.0739 39.9956 48.4427C41.9869 47.5686 43.2998 47.0739 43.9296 45.339C41.9315 45.6682 40.8817 46.5961 38.0733 45.6546C36.7615 45.2146 36.8489 45.2907 36.5299 44.3775C38.3361 43.5815 38.1841 44.6584 39.2264 45.0686C42.0616 43.3005 40.7576 40.3662 37.7973 42.2911C36.6872 43.0125 34.5477 45.0045 34.2871 46.8669Z" fill="#211D21"/>
<path fill-rule="evenodd" clip-rule="evenodd" d="M15.8342 15.6975L15.3542 16.5127C15.272 16.8611 15.301 18.4844 14.3331 18.5579C12.9899 18.2027 13.3033 16.9799 12.5111 16.1394C12.2784 17.5274 11.8041 19.711 12.9455 20.4244C14.3282 21.2898 15.709 19.6597 16.1611 19.0511C19.1174 19.8143 20.0336 18.7061 19.2471 15.4882L18.5619 14.7076C18.0944 17.3781 16.6668 19.1013 15.8342 15.6975Z" fill="#2198CA"/>
<path fill-rule="evenodd" clip-rule="evenodd" d="M20.3521 23.7747C18.9501 24.7996 17.8528 25.7117 17.3223 26.5718C17.7706 27.4659 19.2604 28.93 20.0719 29.5164C21.0956 28.9538 22.3535 27.5371 23.0406 26.6653C22.4335 25.809 20.8562 24.3901 20.3521 23.7747Z" fill="#211D21"/>
<path fill-rule="evenodd" clip-rule="evenodd" d="M27.9535 29.7201C27.4694 30.8419 26.0844 32.2517 26.4464 33.8124C26.8427 35.5191 28.1681 35.5888 28.3155 37.9361C22.4249 39.473 18.5826 41.0522 11.4092 40.7928C8.52611 40.6883 5.34925 40.2117 3.67129 38.7694C0.081574 35.6819 3.03216 34.5425 2.74559 31.2917C2.49521 31.4603 -7.73998 46.0842 12.9887 45.3033C17.115 45.1479 21.963 44.1344 25.5946 43.148C28.0783 42.4726 28.6187 42.0496 29.4509 39.6009C30.3815 36.866 31.2137 31.0587 27.9535 29.7201Z" fill="#211D21"/>
<path fill-rule="evenodd" clip-rule="evenodd" d="M35.5273 53.367C36.9444 52.9488 40.2913 51.6856 42.0254 50.8338C43.703 50.0099 43.7897 49.6113 44.0706 48.2806C42.0631 48.9277 38.6732 50.232 36.5439 51.3843C35.6491 51.8688 35.7238 52.5653 35.5273 53.367Z" fill="#211D21"/>
</svg>
