<svg width="41" height="60" viewBox="0 0 41 60" fill="none" xmlns="http://www.w3.org/2000/svg">
<path fill-rule="evenodd" clip-rule="evenodd" d="M8.58452 15.4902C9.15126 15.0611 9.97629 15.3371 10.172 17.0664C9.34394 16.9076 8.67879 16.04 8.58452 15.4902ZM7.97442 14.6607C7.49478 15.5539 6.99102 16.2085 6.88883 17.4095C7.46311 18.2741 7.94425 18.5351 8.53965 18.9838C8.15051 20.1655 3.66261 23.2892 2.4541 23.8812C3.35794 24.1757 3.98765 23.9095 4.97671 23.394C6.02949 22.845 9.1226 20.5045 9.93556 19.6335C10.1203 19.7368 10.8503 19.75 11.6026 19.3522C10.8699 18.6403 10.7629 17.4054 10.7881 17.4008C10.7689 17.1414 11.0709 16.5637 11.1852 16.2281C11.7282 14.6395 12.5735 11.0068 9.4333 13.1471C8.81151 13.5709 8.42916 14.0261 7.97442 14.6607Z" fill="#211D21"/>
<path fill-rule="evenodd" clip-rule="evenodd" d="M30.9074 11.0008C31.4741 10.5717 32.2988 10.8477 32.4948 12.5769C31.6668 12.4182 31.0013 11.5505 30.9074 11.0008ZM30.2973 10.1712C29.8176 11.0645 29.3139 11.7191 29.2117 12.9201C29.786 13.7847 30.2667 14.0456 30.8625 14.4943C30.4737 15.6761 25.9859 18.7997 24.7773 19.3917C25.6808 19.6862 26.3105 19.42 27.2996 18.9046C28.3527 18.3555 31.4455 16.0151 32.2584 15.144C32.4432 15.2473 33.1736 15.2605 33.9255 14.8627C33.1928 14.1508 33.0857 12.9159 33.1106 12.9114C33.0918 12.652 33.3934 12.0743 33.508 11.7387C34.0514 10.1501 34.896 6.5174 31.7562 8.65766C31.1344 9.08148 30.752 9.53661 30.2973 10.1712Z" fill="#211D21"/>
<path fill-rule="evenodd" clip-rule="evenodd" d="M33.735 21.6086C33.5868 22.6885 33.1041 22.8782 32.7776 23.9152C33.6362 23.6075 35.5815 22.2968 36.9205 21.6173C38.5411 20.7953 39.7047 19.925 40.0045 18.2304C38.6105 18.4846 38.5192 19.2112 36.8941 19.0913C35.5958 18.9955 34.658 18.4853 34.5219 17.4114C35.9054 17.0159 35.31 17.6011 36.6286 18.0442C37.5551 17.4284 38.7274 16.2572 37.8948 15.1102C36.4936 13.1784 33.204 17.0664 32.451 18.5125C31.6049 20.1377 32.6475 20.721 33.735 21.6086Z" fill="#211D21"/>
<path fill-rule="evenodd" clip-rule="evenodd" d="M37.1216 53.7058C40.3022 50.348 36.4195 24.6393 36.1043 23.9892C33.1748 25.5646 35.1186 33.8586 35.6073 37.816C36.266 43.1444 36.7928 48.0614 37.1216 53.7058Z" fill="#211D21"/>
<path fill-rule="evenodd" clip-rule="evenodd" d="M18.6637 28.1997C17.4005 28.323 15.6305 30.4516 15.3662 31.0534L18.1803 33.9602L21.1493 31.0786C20.8481 30.3249 19.3386 28.837 18.6637 28.1997Z" fill="#211D21"/>
<path fill-rule="evenodd" clip-rule="evenodd" d="M8.91797 30.7915C9.10914 31.6656 10.9508 33.3914 11.7072 33.8809C12.5722 33.4291 14.1687 31.7014 14.6366 31.0536C14.3089 30.3798 12.5137 28.5004 11.7072 28.1988C11.1815 28.4733 9.37649 30.2821 8.91797 30.7915Z" fill="#211D21"/>
<path fill-rule="evenodd" clip-rule="evenodd" d="M28.2237 42.1484C22.7286 43.7517 18.0477 45.4677 11.3607 45.0959C8.65069 44.9451 5.24197 44.4534 3.59116 43.0096C1.23974 40.9527 1.62285 39.7638 2.43166 37.6017C2.78837 36.6469 2.66092 36.1054 2.36945 35.7261C0.513882 39.2777 -1.71611 44.335 2.04517 47.4443C3.83738 49.0435 6.63713 49.2098 8.99156 49.4609C14.8354 49.6528 18.9304 49.1155 24.1392 47.7641C27.0054 47.0201 28.0408 47.0861 29.1207 44.637C30.7297 40.99 31.132 37.0632 28.1445 33.9938C27.5668 34.5628 27.1841 35.2318 26.7022 36.1537C25.4149 38.6141 28.094 39.6733 28.2237 42.1484Z" fill="#211D21"/>
<path fill-rule="evenodd" clip-rule="evenodd" d="M15.4765 22.0488L14.9965 22.864C14.9143 23.2124 14.9429 24.8357 13.9757 24.9092C12.6326 24.554 12.9456 23.3312 12.1537 22.4907C11.9211 23.8787 11.4467 26.0623 12.5874 26.7757C13.9709 27.6411 15.3513 26.011 15.8034 25.4024C18.76 26.1656 19.6763 25.0574 18.8897 21.8395L18.2042 21.059C17.7367 23.7294 16.3091 25.4526 15.4765 22.0488Z" fill="#2198CA"/>
</svg>
