<svg width="41" height="61" viewBox="0 0 41 61" fill="none" xmlns="http://www.w3.org/2000/svg">
<path fill-rule="evenodd" clip-rule="evenodd" d="M35.1615 24.6923C35.5771 28.7288 36.2558 33.087 36.7709 37.1137C37.1857 40.3546 37.5688 48.1777 38.1125 49.4217C38.1314 49.4651 38.174 49.5454 38.2188 49.5963C39.9138 44.8444 39.0246 36.3554 38.3436 31.2269L37.2411 22.8533C37.1574 21.8337 37.2362 20.8703 36.6442 20.2481C35.6729 21.187 34.9809 22.9864 35.1615 24.6923Z" fill="#211D21"/>
<path fill-rule="evenodd" clip-rule="evenodd" d="M16.6825 18.2964L16.2028 19.1116C16.1206 19.46 16.1497 21.0833 15.1817 21.1569C13.8386 20.8017 14.1519 19.5788 13.3597 18.7383C13.1271 20.1263 12.6527 22.3099 13.7941 23.0234C15.1768 23.8887 16.5573 22.2586 17.0101 21.6501C19.966 22.4132 20.8823 21.305 20.0957 18.0871L19.4106 17.3066C18.943 19.977 17.515 21.7002 16.6825 18.2964Z" fill="#2198CA"/>
<path fill-rule="evenodd" clip-rule="evenodd" d="M27.954 31.5455C27.4699 32.6673 26.0845 34.0772 26.4469 35.6379C26.8432 37.3445 28.1686 37.4143 28.316 39.7615C22.4254 41.2985 18.5834 42.8776 11.4097 42.6182C8.52658 42.5138 5.34975 42.0372 3.67217 40.5949C0.0820769 37.5074 3.03266 36.3679 2.74608 33.1172C2.49571 33.2857 -7.7395 47.9096 12.9892 47.1287C17.1155 46.9734 21.9635 45.9598 25.5951 44.9734C28.0788 44.2981 28.6192 43.875 29.4517 41.4263C30.382 38.6914 31.2145 32.8841 27.954 31.5455Z" fill="#211D21"/>
<path fill-rule="evenodd" clip-rule="evenodd" d="M20.353 25.6002C18.9511 26.625 17.8542 27.5372 17.3232 28.3973C17.7716 29.2913 19.2614 30.7555 20.0728 31.3418C21.0966 30.7792 22.3541 29.3626 23.0415 28.4908C22.4344 27.6345 20.8572 26.2155 20.353 25.6002Z" fill="#211D21"/>
<path fill-rule="evenodd" clip-rule="evenodd" d="M14.4594 25.6002C13.0579 26.625 11.9606 27.5372 11.4297 28.3973C11.878 29.2913 13.3678 30.7555 14.1797 31.3418C15.203 30.7792 16.4606 29.3626 17.148 28.4908C16.5405 27.6345 14.9636 26.2155 14.4594 25.6002Z" fill="#211D21"/>
<path fill-rule="evenodd" clip-rule="evenodd" d="M10.0811 53.3213C11.4981 52.9031 14.845 51.6399 16.5791 50.7881C18.2567 49.9642 18.3434 49.5657 18.6243 48.235C16.6168 48.882 13.227 50.1863 11.0976 51.3387C10.2028 51.8232 10.2775 52.5196 10.0811 53.3213Z" fill="#211D21"/>
<path fill-rule="evenodd" clip-rule="evenodd" d="M10.0811 56.5636C11.4981 56.1454 14.845 54.8822 16.5791 54.0304C18.2567 53.2065 18.3434 52.808 18.6243 51.4773C16.6168 52.1243 13.227 53.4286 11.0976 54.581C10.2028 55.0655 10.2775 55.762 10.0811 56.5636Z" fill="#211D21"/>
<path fill-rule="evenodd" clip-rule="evenodd" d="M31.1631 16.3925C32.2317 17.452 32.6872 17.1979 33.6265 17.9667C32.7562 18.8227 32.671 18.7514 32.2683 19.9019C33.22 19.6349 35.433 18.5995 36.8723 17.9682C38.8632 17.0942 40.1766 16.5995 40.8059 14.8646C38.8082 15.1938 37.7577 16.1217 34.95 15.1802C33.6378 14.7401 33.7253 14.8163 33.4063 13.903C35.2124 13.107 35.0601 14.184 36.1023 14.5942C38.9379 12.8261 37.634 9.89176 34.6736 11.8167C33.5635 12.538 31.424 14.5301 31.1631 16.3925Z" fill="#211D21"/>
<path fill-rule="evenodd" clip-rule="evenodd" d="M31.9396 6.00078C32.5071 5.57167 33.3318 5.84768 33.5271 7.57693C32.699 7.41818 32.0343 6.55055 31.9396 6.00078ZM31.3303 5.17122C30.8499 6.0645 30.3461 6.7191 30.2447 7.92007C30.819 8.78469 31.2997 9.04562 31.8955 9.49434C31.506 10.6761 27.0181 13.7997 25.8096 14.3917C26.713 14.6862 27.3427 14.42 28.3318 13.9046C29.385 13.3555 32.4777 11.0151 33.2914 10.144C33.4762 10.2473 34.2058 10.2605 34.9584 9.86273C34.225 9.15083 34.1187 7.91592 34.1436 7.91139C34.124 7.65197 34.4264 7.07429 34.541 6.7387C35.0836 5.1501 35.929 1.5174 32.7891 3.65766C32.1674 4.08148 31.7843 4.53661 31.3303 5.17122Z" fill="#211D21"/>
</svg>
