<svg width="33" height="60" viewBox="0 0 33 60" fill="none" xmlns="http://www.w3.org/2000/svg">
<path fill-rule="evenodd" clip-rule="evenodd" d="M11.7697 11.4155L11.2897 12.2307C11.2075 12.5791 11.2366 14.2024 10.2686 14.2759C8.9255 13.9207 9.23885 12.6979 8.44662 11.8574C8.21397 13.2454 7.73961 15.429 8.88101 16.1424C10.2637 17.0078 11.6446 15.3777 12.0967 14.7692C15.0529 15.5323 15.9692 14.4241 15.1826 11.2062L14.4975 10.4257C14.0299 13.0961 12.6023 14.8193 11.7697 11.4155Z" fill="#2198CA"/>
<path fill-rule="evenodd" clip-rule="evenodd" d="M0.67178 24.8363C2.05412 23.5256 3.07297 22.7518 8.78747 23.2507C8.39042 23.9298 7.43982 24.5964 6.74186 25.3136C5.99602 26.0802 5.31541 26.6568 4.67627 27.4569C3.26678 29.222 2.29281 30.7925 1.4542 32.6231C-3.749 43.9896 5.17815 56.2202 25.5486 46.2218L27.003 45.1717C18.655 44.8829 7.9055 48.393 3.23473 39.3101C-0.439071 32.1669 6.9847 26.771 12.9232 24.6477C16.4371 23.3906 18.7218 23.6202 19.6433 23.2967C20.5049 22.0369 21.2595 20.8246 22.5943 18.6628C18.5001 18.7224 14.4643 19.0392 10.1834 18.756C5.41269 18.4396 1.46137 19.5724 0.67178 24.8363Z" fill="#211D21"/>
<path fill-rule="evenodd" clip-rule="evenodd" d="M14.585 32.9085C14.8659 33.2618 16.6581 35.1744 17.4669 35.5394C18.4322 35.0643 19.4741 33.7935 20.3059 32.9085C19.9103 31.9376 18.0254 30.323 17.4669 29.9927C16.35 30.5394 14.9266 32.0296 14.585 32.9085Z" fill="#211D21"/>
<path fill-rule="evenodd" clip-rule="evenodd" d="M20.8008 10.8269C23.0749 9.79786 26.0066 8.58257 28.0066 7.09503C28.8852 6.44081 29.174 5.92382 29.3098 5C27.5077 5.8337 23.3852 7.80277 21.5542 8.9419C20.797 9.41286 20.8573 9.97508 20.8008 10.8269Z" fill="#211D21"/>
<path fill-rule="evenodd" clip-rule="evenodd" d="M28.6155 18.1609C27.8252 18.6481 27.3576 20.1201 27.0168 21.0048C26.3177 22.8143 27.7879 30.1333 28.2011 32.1883C30.2464 42.3609 29.2264 38.8361 29.9541 47.4872C32.1159 44.5023 31.5081 36.6392 30.8003 32.7456C30.4858 31.0171 28.6163 18.1632 28.6155 18.1609Z" fill="#211D21"/>
<path fill-rule="evenodd" clip-rule="evenodd" d="M22.5068 14.836C23.5755 15.8956 24.0302 15.6414 24.9695 16.4103C24.1 17.2662 24.014 17.195 23.612 18.3454C24.5638 18.0784 26.776 17.043 28.2153 16.4118C30.207 15.5377 31.5196 15.043 32.1497 13.3081C30.1512 13.6373 29.1014 14.5653 26.293 13.6237C24.9808 13.1837 25.069 13.2599 24.75 12.3466C26.5562 11.5506 26.4039 12.6275 27.4461 13.0378C30.2809 11.2697 28.9777 8.3353 26.0166 10.2603C24.9073 10.9816 22.767 12.9736 22.5068 14.836Z" fill="#211D21"/>
<path fill-rule="evenodd" clip-rule="evenodd" d="M23 54.8269C25.2749 53.7979 28.2058 52.5825 30.2058 51.095C31.0852 50.4408 31.3732 49.9238 31.5097 49C29.7077 49.8337 25.5852 51.8028 23.7541 52.9419C22.997 53.4129 23.0566 53.9751 23 54.8269Z" fill="#211D21"/>
</svg>
