<svg width="357" height="53" viewBox="0 0 357 53" fill="none" xmlns="http://www.w3.org/2000/svg">
<path d="M356.422 41.7267L355.587 43.7356C354.528 44.1264 353.358 44.5722 352.076 45.0749C350.795 45.6326 349.513 46.1354 348.344 46.6371L349.179 44.6281C350.294 44.1264 351.519 43.6797 352.8 43.1219C354.082 42.6192 355.308 42.1724 356.422 41.7267Z" fill="#2B2A29"/>
<path d="M166.188 3.86101C166.188 4.0839 166.188 4.3068 166.188 4.53068C166.132 4.75357 166.132 5.03243 166.076 5.25532C166.02 5.53518 166.02 5.75805 165.908 5.98093C165.852 6.20382 165.797 6.37176 165.741 6.4837C165.407 6.70659 165.017 6.87348 164.516 7.09737C164.07 7.26429 163.513 7.37622 162.899 7.37622C162.566 7.37622 162.231 7.20831 161.896 6.98543C161.563 6.70657 161.396 6.2598 161.396 5.59014C161.396 5.14437 161.451 4.69761 161.674 4.13989C161.841 3.63715 162.008 3.0794 162.287 2.63263C162.51 2.13089 162.789 1.74009 163.011 1.40526C163.29 1.1264 163.513 0.958496 163.68 0.958496C163.902 0.958496 164.182 1.01446 164.46 1.18137C164.739 1.29332 165.017 1.51722 165.295 1.74011C165.519 2.01897 165.741 2.2978 165.908 2.63263C166.132 3.02343 166.188 3.41424 166.188 3.86101ZM165.351 4.97644C165.351 4.36275 165.129 3.91699 164.739 3.52619C164.348 3.13539 163.846 2.80055 163.234 2.63263C163.011 2.91249 162.844 3.19036 162.733 3.35828C162.622 3.52619 162.566 3.74907 162.454 3.91698C162.398 4.13987 162.343 4.3068 162.343 4.47471C162.343 4.58566 162.343 4.69759 162.343 4.8655C162.343 4.97645 162.398 5.14438 162.454 5.25532C162.51 5.42324 162.622 5.53517 162.733 5.59014C162.844 5.70209 163.067 5.75806 163.29 5.75806C163.68 5.75806 164.07 5.64612 164.46 5.47921C164.849 5.31129 165.185 5.14436 165.351 4.97644Z" fill="#2B2A29"/>
<path d="M113.583 12.1548L112.747 14.1638C111.689 14.5546 110.518 15.0004 109.237 15.5021C107.956 16.0608 106.674 16.5626 105.504 17.0653L106.34 15.0563C107.454 14.5546 108.68 14.0518 109.962 13.5501C111.243 13.0473 112.468 12.5456 113.583 12.1548Z" fill="#2B2A29"/>
<path d="M153.289 17.648C153.233 17.4251 153.066 17.2582 152.787 17.1463C152.564 16.9784 152.341 16.8674 152.119 16.7554C151.896 17.4251 151.562 18.0388 151.116 18.4856C150.671 18.9323 150.169 19.3231 149.723 19.601C149.556 19.657 149.332 19.7689 149.054 19.8808C148.776 19.9368 148.441 20.0477 148.107 20.2157C147.717 20.3276 147.383 20.4385 147.049 20.5505C146.714 20.6614 146.436 20.7174 146.213 20.8293L145.935 20.3836C147.438 19.3791 148.665 18.5415 149.5 17.8719C150.335 17.2022 150.948 16.7555 151.172 16.4206C150.948 16.3657 150.726 16.3097 150.447 16.2537C150.225 16.1978 150.001 16.1418 149.723 16.0858C149.332 15.9739 148.998 15.8069 148.72 15.5841C148.441 15.4161 148.33 15.0813 148.33 14.5796C148.33 14.3007 148.385 13.9649 148.553 13.6311C148.665 13.2403 148.832 12.9604 149.054 12.6826C149.332 12.4027 149.556 12.1239 149.89 11.9559C150.225 11.789 150.503 11.6781 150.837 11.6781C151.172 11.6781 151.394 11.789 151.562 12.0119C151.784 12.2918 151.896 12.5706 152.007 12.9055C152.119 13.2963 152.23 13.687 152.23 14.0768C152.286 14.5236 152.341 14.9144 152.341 15.3052C153.01 15.639 153.456 16.1418 153.623 16.7554L153.289 17.648ZM151.394 14.9144C151.394 14.7475 151.394 14.5796 151.283 14.4117C151.228 14.2448 151.172 14.0769 151.06 13.9099C150.948 13.743 150.781 13.5751 150.671 13.4632C150.503 13.3522 150.335 13.2962 150.169 13.2962C149.89 13.2962 149.5 13.4632 149.11 13.743C149.11 13.9649 149.222 14.1888 149.444 14.3007C149.668 14.4117 150.057 14.5236 150.671 14.6915L151.394 14.9144Z" fill="#2B2A29"/>
<path d="M70.5977 17.787L69.7624 19.7959C68.7036 20.1867 67.5331 20.6335 66.2528 21.1352C64.9704 21.6929 63.6901 22.1957 62.5195 22.6974L63.3548 20.6884C64.4695 20.1867 65.6959 19.684 66.9762 19.1822C68.2586 18.6795 69.484 18.1778 70.5977 17.787Z" fill="#2B2A29"/>
<path d="M125.376 18.5685C125.376 18.7914 125.376 19.0153 125.376 19.2381C125.32 19.461 125.32 19.7399 125.264 19.9638C125.209 20.2426 125.209 20.4655 125.098 20.6884C125.042 20.9112 124.986 21.0792 124.93 21.1911C124.596 21.414 124.206 21.5819 123.704 21.8048C123.258 21.9717 122.702 22.0836 122.089 22.0836C121.755 22.0836 121.42 21.9157 121.086 21.6928C120.752 21.414 120.585 20.9672 120.585 20.2976C120.585 19.8518 120.64 19.4051 120.862 18.8474C121.03 18.3446 121.198 17.7869 121.476 17.3402C121.699 16.8384 121.977 16.4476 122.201 16.1128C122.479 15.8339 122.702 15.666 122.868 15.666C123.092 15.666 123.37 15.722 123.649 15.8899C123.927 16.0018 124.206 16.2247 124.484 16.4476C124.707 16.7265 124.93 17.0063 125.098 17.3402C125.32 17.7309 125.376 18.1217 125.376 18.5685ZM124.54 19.6839C124.54 19.0702 124.317 18.6245 123.927 18.2337C123.537 17.8429 123.036 17.5081 122.423 17.3402C122.201 17.62 122.033 17.8988 121.921 18.0657C121.81 18.2337 121.755 18.4565 121.643 18.6244C121.588 18.8473 121.532 19.0153 121.532 19.1822C121.532 19.2931 121.532 19.405 121.532 19.5729C121.532 19.6839 121.588 19.8518 121.643 19.9638C121.699 20.1307 121.81 20.2426 121.921 20.2976C122.033 20.4095 122.255 20.4655 122.479 20.4655C122.868 20.4655 123.258 20.3536 123.649 20.1866C124.039 20.0187 124.373 19.8518 124.54 19.6839Z" fill="#2B2A29"/>
<path d="M174.832 10.5605C174.832 10.8394 174.832 11.3422 174.888 12.0668C174.888 12.7924 174.944 13.685 174.999 14.6894C174.999 15.7499 175.054 16.8663 175.11 18.1497C175.166 19.3771 175.166 20.6604 175.222 21.9997C175.222 23.339 175.278 24.6783 175.278 26.0176C175.334 27.357 175.334 28.5843 175.334 29.8127C175.334 30.8722 175.278 31.8767 175.166 32.7702C174.999 33.7177 174.888 34.5553 174.721 35.2809C174.609 35.9506 174.386 36.7871 174.051 37.7916H173.718C173.718 37.4578 173.718 36.7871 173.718 35.6717C173.662 34.5553 173.662 33.216 173.662 31.5978C173.662 30.0356 173.606 28.4174 173.551 26.7993C173.495 25.1251 173.383 23.5629 173.272 22.0557C173.104 20.5494 172.938 19.1542 172.77 17.8708C172.548 16.6424 172.325 15.583 172.103 14.7454L174.832 10.5605Z" fill="#2B2A29"/>
<path d="M168.091 16.3077C167.812 16.3077 167.478 16.2528 167.199 16.1968C166.92 16.1408 166.642 16.0289 166.363 15.862C166.363 16.3647 166.419 17.0334 166.419 17.815C166.419 18.5965 166.475 19.3772 166.475 20.2697C166.53 21.1073 166.53 21.9998 166.586 22.8924C166.586 23.7859 166.586 24.6235 166.642 25.4041C166.642 26.1857 166.642 26.9103 166.698 27.524C166.698 28.1386 166.698 28.6404 166.698 28.9752C166.698 29.5329 166.698 30.0906 166.642 30.5934C166.642 31.0951 166.586 31.5419 166.475 31.8767C166.196 32.7702 165.806 33.6628 165.304 34.4994C164.803 35.281 164.357 36.0625 163.911 36.7312C163.41 37.122 162.854 37.4019 162.185 37.5688C161.571 37.6807 160.903 37.7917 160.179 37.7917H160.158H160.142H160.137C159.377 37.7867 158.775 37.6787 158.173 37.5688C157.616 37.4019 157.003 37.067 156.446 36.6762C156.446 37.2339 156.446 37.8476 156.334 38.5173C156.279 39.131 156.167 39.7446 156.057 40.3034C155.889 40.8611 155.721 41.3078 155.499 41.6427C155.276 42.0335 154.942 42.2004 154.608 42.2004C154.218 42.2004 153.771 42.1444 153.271 42.0335C152.824 41.9215 152.323 41.7536 151.877 41.5867C151.376 41.3628 150.93 41.085 150.54 40.8051C150.094 40.4703 149.704 40.0805 149.427 39.6897C148.813 38.8521 148.424 38.0715 148.256 37.3459C148.088 36.6203 147.978 36.0066 147.978 35.5038C147.699 35.8946 147.309 36.2295 146.919 36.5643C146.529 36.8991 146.082 37.122 145.637 37.2899C145.303 37.4019 144.858 37.5128 144.412 37.6247C143.91 37.7357 143.465 37.7917 142.963 37.7917H142.942C141.616 37.7887 140.619 37.5108 139.842 37.0111C139.063 36.5083 138.562 35.8387 138.227 35.0581H137.782C137.559 35.8946 137.169 36.5083 136.612 37.0111C136.054 37.5128 135.386 37.7357 134.551 37.7357C133.77 37.7357 133.102 37.5128 132.489 37.0111C131.932 36.5083 131.486 35.8946 131.206 35.0581H130.761C130.483 35.8946 130.093 36.5083 129.592 37.0111C129.09 37.5128 128.421 37.7357 127.586 37.7357C126.694 37.7357 125.97 37.5128 125.413 37.0111C124.8 36.5083 124.41 35.8387 124.187 35.0581H123.797C123.519 35.5598 123.128 35.9506 122.683 36.2854C122.181 36.6762 121.68 36.9551 121.067 37.178C120.454 37.4019 119.841 37.5128 119.118 37.6247C118.465 37.7327 117.814 37.7887 117.112 37.7917H117.09H117.085H117.056H117.033H117.014L117.006 37.7907H116.993H116.98H116.972L116.953 37.7887H116.952L116.931 37.7877H116.927C116.419 37.7657 115.875 37.6557 115.329 37.4578C114.771 37.2899 114.214 36.9551 113.713 36.6203C113.155 36.2295 112.71 35.7827 112.32 35.281C111.93 34.7782 111.651 34.2205 111.485 33.6068H111.205C111.149 33.7188 111.094 33.8857 110.983 34.0536C110.872 34.2765 110.76 34.4994 110.592 34.7222C110.482 34.9461 110.314 35.169 110.202 35.3369C110.036 35.5598 109.924 35.7267 109.869 35.8387C109.255 36.3974 108.531 36.8432 107.695 37.234C106.86 37.6248 105.912 37.7917 104.799 37.7917H104.778H104.77H102.849C102.18 37.7917 101.511 37.7357 100.843 37.6247C100.174 37.5688 99.5614 37.4578 99.0036 37.3459C98.3909 37.178 97.9448 37.011 97.5556 36.7312C96.5527 37.2339 95.5498 37.5128 94.5469 37.6247C93.544 37.7357 92.4852 37.7917 91.3715 37.7917H91.3505H91.3445H91.3296H91.3186C90.7747 37.7837 90.181 37.6737 89.5882 37.4578C89.0304 37.2899 88.4735 36.9551 87.9726 36.6203C87.4147 36.2295 86.9696 35.7827 86.5795 35.281C86.1893 34.7782 85.9109 34.2205 85.7442 33.6068H85.4648C85.4089 33.7188 85.354 33.8857 85.2422 34.0536C85.1305 34.2765 85.0187 34.4994 84.8521 34.7222C84.7413 34.9461 84.5736 35.169 84.4619 35.3369C84.2952 35.5598 84.1834 35.7267 84.1276 35.8387C83.5148 36.3974 82.7904 36.8432 81.9551 37.234C81.1198 37.6248 80.1718 37.7917 79.0581 37.7917H79.0372H79.0212H79.0162C78.2558 37.7867 77.6541 37.6787 77.0523 37.5688C76.4955 37.4019 75.8817 37.067 75.3249 36.6762C75.3249 37.2339 75.3249 37.8476 75.2131 38.5173C75.1573 39.131 75.0465 39.7446 74.9347 40.3034C74.7671 40.8611 74.6004 41.3078 74.3779 41.6427C74.1544 42.0335 73.821 42.2004 73.4867 42.2004C73.0966 42.2004 72.6505 42.1444 72.1485 42.0335C71.7035 41.9215 71.2015 41.7536 70.7564 41.5867C70.2545 41.3628 69.8094 41.085 69.4192 40.7491C68.9731 40.4703 68.583 40.0805 68.3045 39.6897C67.6918 38.8521 67.3016 38.0715 67.135 37.3459C66.9673 36.5643 66.8566 35.9506 66.8566 35.5038V35.113C66.8566 35.0021 66.8565 34.8342 66.9114 34.7222C65.9644 34.9461 65.2409 35.169 64.6841 35.3369C64.1821 35.5038 63.7361 35.7267 63.3459 35.8946C63.1233 36.0626 62.8998 36.2854 62.6783 36.5643C62.5106 36.8431 62.3988 37.122 62.3988 37.4019C62.3988 38.3504 62.3988 39.3539 62.4547 40.4143C62.4547 41.5307 62.4547 42.6471 62.5106 43.7626C62.5106 44.879 62.5665 45.9385 62.5665 47.0549C62.5665 48.1153 62.6224 49.1198 62.6224 50.0683L60.8391 52.635C60.7273 50.0124 60.6724 47.8365 60.6165 45.9944C60.5607 44.2093 60.5048 42.7031 60.4489 41.5307C60.393 40.3583 60.393 39.4658 60.3371 38.8521C60.3371 38.1825 60.2812 37.4578 60.2812 36.6762C60.2812 36.2295 60.393 35.8387 60.5607 35.3369C60.7832 34.8902 61.0067 34.3884 61.34 33.9976C61.6195 33.5508 61.9528 33.1601 62.343 32.7703C62.6783 32.4354 63.0116 32.1556 63.4017 31.9886C64.0145 31.6538 64.6282 31.375 65.2409 31.0951C65.9085 30.8173 66.4664 30.5934 67.0232 30.3705C67.2467 30.2585 67.4134 30.1466 67.58 29.9797C67.7477 29.8678 67.8595 29.6449 67.9143 29.422C67.9143 29.2541 67.9702 29.1431 67.9702 29.0872C67.9702 28.9752 68.0261 28.9192 68.0261 28.8633C68.0261 28.8083 68.0261 28.6964 68.082 28.6404C68.082 28.5844 68.1379 28.5284 68.1938 28.4175C68.1938 28.3055 68.3045 28.2496 68.4163 28.1386C68.583 28.0827 68.6947 28.0267 68.8065 28.0267C68.9173 28.0267 69.029 28.0827 69.1408 28.1386C69.3075 28.2496 69.4192 28.3055 69.4751 28.4175C69.8653 28.7523 70.3104 29.1991 70.8123 29.7008C71.3133 30.1466 71.8152 30.5934 72.3162 30.9842C72.7622 31.4309 73.3191 31.8218 73.8769 32.2115C74.4338 32.5464 75.0465 32.8812 75.6033 33.16C76.2161 33.4399 76.8288 33.6628 77.3866 33.8307C77.9894 33.9397 78.5382 34.0496 79.0342 34.0536H79.0372H79.0581C80.0052 34.0536 80.8404 33.8857 81.4531 33.6068C82.1227 33.328 82.6796 32.9931 83.0139 32.5464C83.2923 32.2675 83.5149 31.9887 83.7933 31.5979C84.0158 31.263 84.2393 30.8722 84.406 30.5374C84.6295 30.1466 84.7962 29.8128 84.908 29.4769C85.0746 29.1431 85.1864 28.8633 85.2422 28.6404H85.6883C85.9109 29.31 86.1893 29.9797 86.5795 30.6493C86.9138 31.319 87.3598 31.8767 87.8608 32.3795C88.3069 32.8812 88.8637 33.272 89.4764 33.6068C90.0253 33.8817 90.6819 34.0476 91.3395 34.0536H91.3505H91.3715C91.6499 34.0536 91.9283 34.0536 92.2626 34.0536C92.541 33.9976 92.8754 33.9976 93.2097 33.9976C93.4881 33.9416 93.8224 33.8857 94.1008 33.8307C94.3792 33.7747 94.6027 33.6628 94.8253 33.5509C94.7135 33.272 94.6586 32.9931 94.5469 32.7703C94.491 32.5464 94.4351 32.2675 94.4351 31.9327C94.4351 30.8722 94.6027 29.9237 94.9929 29.0872C95.3262 28.1946 95.7723 27.357 96.2184 26.4635C96.385 26.1297 96.6645 25.7949 96.887 25.4041C97.1654 25.0692 97.4997 24.7344 97.834 24.3996C98.1683 24.1207 98.5026 23.8408 98.8928 23.6739C99.3379 23.507 99.7281 23.3951 100.174 23.3951C100.787 23.3951 101.289 23.507 101.734 23.7859C102.18 24.0647 102.569 24.3996 102.904 24.8453C103.183 25.2921 103.405 25.7949 103.572 26.3526C103.74 26.9663 103.796 27.524 103.796 28.1946C103.796 29.0312 103.628 29.9797 103.35 30.8722C103.015 31.8217 102.403 32.7703 101.455 33.7188C101.79 33.8307 102.012 33.8857 102.292 33.8857C102.569 33.9416 102.793 33.9976 103.071 33.9976C103.295 34.0536 103.572 34.0536 103.851 34.0536H104.778H104.799C105.746 34.0536 106.581 33.8857 107.194 33.6068C107.863 33.328 108.42 32.9931 108.754 32.5464C109.033 32.2675 109.255 31.9887 109.534 31.5979C109.757 31.263 109.98 30.8722 110.146 30.5374C110.37 30.1466 110.537 29.8128 110.648 29.4769C110.816 29.1431 110.927 28.8633 110.983 28.6404H111.429C111.651 29.31 111.93 29.9797 112.32 30.6493C112.654 31.319 113.1 31.8767 113.601 32.3795C114.047 32.8812 114.604 33.272 115.217 33.6068C115.766 33.8817 116.422 34.0476 117.08 34.0536H117.091H117.112C117.835 34.0536 118.56 33.9976 119.34 33.8857C120.065 33.7747 120.733 33.6068 121.346 33.272C122.014 32.9371 122.571 32.4904 123.017 31.9327C123.519 31.375 123.909 30.5934 124.131 29.6448H124.521C124.744 30.8172 125.134 31.7658 125.747 32.4904C126.305 33.1601 127.084 33.4949 128.143 33.4949C128.756 33.4949 129.369 33.1601 129.926 32.4904C130.483 31.8217 130.817 30.8722 130.929 29.6448H131.318C131.542 30.8172 131.988 31.7658 132.545 32.4904C133.102 33.1601 133.937 33.4949 134.94 33.4949C135.609 33.4949 136.221 33.1601 136.779 32.4904C137.336 31.8217 137.67 30.8722 137.782 29.6448H138.172C138.283 30.3145 138.506 30.8722 138.84 31.4309C139.175 31.9887 139.508 32.4354 139.954 32.8262C140.4 33.216 140.845 33.4949 141.347 33.7188C141.896 33.9377 142.39 34.0496 142.937 34.0536H142.942H142.963C143.687 34.0536 144.244 33.9976 144.746 33.8307C145.247 33.7188 145.749 33.4949 146.25 33.272C146.64 33.0491 147.031 32.7703 147.309 32.4904C147.643 32.1556 147.922 31.8767 148.144 31.5419C148.424 31.2071 148.59 30.8722 148.757 30.5374C148.869 30.2026 148.98 29.8677 149.036 29.6448C149.091 29.31 149.147 29.0872 149.147 28.9752C149.147 28.8083 149.203 28.6404 149.315 28.4175C149.371 28.3055 149.427 28.2496 149.537 28.1386C149.704 28.0827 149.816 28.0267 149.927 28.0267C150.039 28.0267 150.15 28.0827 150.318 28.1386C150.429 28.2496 150.54 28.3055 150.596 28.4175C150.986 28.7523 151.432 29.1991 151.933 29.7008C152.49 30.1466 152.992 30.5934 153.437 30.9842C153.939 31.4309 154.496 31.8218 155.054 32.2115C155.611 32.5464 156.167 32.8812 156.78 33.16C157.337 33.4399 157.95 33.6628 158.508 33.8307C159.12 33.9417 159.678 34.0536 160.179 34.0536V34.0546L160.235 34.0536C161.07 34.0536 161.906 33.9417 162.63 33.7747C163.41 33.6068 164.079 33.328 164.748 32.9372C164.803 32.7143 164.803 32.4354 164.859 32.0446C164.914 31.7098 164.914 31.263 164.914 30.7613C164.914 29.366 164.914 27.9707 164.803 26.5195C164.748 25.0692 164.692 23.6739 164.636 22.2787C164.524 20.8844 164.413 19.5451 164.357 18.2607C164.247 17.0334 164.135 15.862 164.023 14.8015C163.911 14.6336 163.801 14.4667 163.633 14.2438C163.41 14.0759 163.299 13.797 163.188 13.5182L164.914 9.72412C165.082 10.1139 165.36 10.6167 165.695 11.2304C166.029 11.9 166.363 12.5137 166.698 13.1833C166.976 13.853 167.31 14.4667 167.533 15.0244C167.812 15.5831 167.979 16.0289 168.091 16.3077ZM73.4867 38.5733C73.4867 38.4063 73.4309 38.1265 73.375 37.7357C73.2632 37.4019 73.0965 37.0111 72.9289 36.5643C72.5387 35.8946 72.0936 35.281 71.425 34.7222C70.8123 34.1645 70.0878 33.6628 69.4192 33.3279C69.2526 33.4949 69.1967 33.7188 69.1408 33.8857C69.0849 34.1086 69.0849 34.2765 69.0849 34.4994C69.0849 34.9461 69.2526 35.4489 69.53 35.8946C69.8653 36.3974 70.1986 36.8432 70.6447 37.234C71.1456 37.6248 71.5917 37.9596 72.0936 38.1825C72.6505 38.4623 73.0966 38.5733 73.4867 38.5733ZM101.902 30.5934C101.734 29.5329 101.344 28.6964 100.843 28.0827C100.341 27.468 99.7281 27.1901 99.0595 27.1901C98.7252 27.1901 98.4467 27.2451 98.1683 27.357C97.8899 27.468 97.6115 27.5799 97.4438 27.8038C97.2213 27.9707 96.9988 28.1386 96.8311 28.3615C96.6645 28.5844 96.5527 28.7523 96.4409 28.9752C96.4409 29.8678 96.6086 30.5934 96.9988 31.1511C97.3321 31.7098 97.9448 32.2115 98.7252 32.6023C99.2271 32.3795 99.784 32.0996 100.453 31.7658C101.065 31.4309 101.567 31.0401 101.902 30.5934ZM154.608 38.5733C154.608 38.4063 154.552 38.1265 154.496 37.7357C154.384 37.4019 154.218 37.0111 154.051 36.5643C153.661 35.8946 153.215 35.281 152.546 34.7222C151.933 34.1645 151.209 33.6628 150.54 33.3279C150.374 33.4949 150.318 33.7188 150.262 33.8857C150.206 34.1086 150.206 34.2765 150.206 34.4994C150.206 34.9461 150.374 35.4489 150.652 35.8946C150.986 36.3974 151.321 36.8432 151.766 37.234C152.268 37.6248 152.713 37.9596 153.215 38.1825C153.771 38.4623 154.218 38.5733 154.608 38.5733Z" fill="#2B2A29"/>
<path d="M110.871 22.4465L109.255 24.9573L106.637 22.6694L108.364 20.2136L110.871 22.4465Z" fill="#2B2A29"/>
<path d="M115.44 22.1677L113.769 24.6783L111.206 22.3906L112.932 19.9359L115.44 22.1677Z" fill="#2B2A29"/>
<path d="M98.948 16.7544L97.3324 19.2651L94.7139 16.9783L96.4413 14.5226L98.948 16.7544Z" fill="#2B2A29"/>
<path d="M103.516 16.4754L101.846 18.9871L99.2832 16.6983L101.01 14.2437L103.516 16.4754Z" fill="#2B2A29"/>
<path d="M84.1834 45.4925L82.5678 48.0032L79.9492 45.7714L81.6756 43.2607L84.1834 45.4925Z" fill="#2B2A29"/>
<path d="M88.7517 45.2138L87.0802 47.7246L84.5176 45.4927L86.245 42.9808L88.7517 45.2138Z" fill="#2B2A29"/>
<path d="M101.232 43.4836L100.397 45.4926C99.3384 45.8834 98.1678 46.3291 96.8865 46.8319C95.6052 47.3896 94.3239 47.8923 93.1543 48.394L93.9895 46.3851C95.1042 45.8834 96.3297 45.4366 97.611 44.8789C98.8923 44.3762 100.118 43.9294 101.232 43.4836Z" fill="#2B2A29"/>
<path d="M194.881 8.31384L194.045 10.3227C192.987 10.7135 191.816 11.1603 190.535 11.662C189.254 12.2197 187.972 12.7224 186.802 13.2241L187.638 11.2152C188.753 10.7135 189.978 10.2108 191.259 9.70907C192.541 9.20635 193.767 8.70463 194.881 8.31384Z" fill="#2B2A29"/>
<path d="M212.831 30.5933C212.719 30.9281 212.552 31.3749 212.385 31.8217C212.162 32.2675 211.939 32.7142 211.716 33.16C211.438 33.6627 211.215 34.0536 210.937 34.4993C210.657 34.8901 210.435 35.2809 210.212 35.5598C209.209 35.9506 208.207 36.2294 207.259 36.5083C206.257 36.7871 205.198 37.011 204.083 37.178C203.024 37.4018 201.8 37.5128 200.573 37.6247C199.292 37.7357 197.899 37.7916 196.395 37.7916C195.782 37.7916 195.114 37.7357 194.5 37.6807C193.831 37.6247 193.275 37.5128 192.774 37.3459C192.272 36.9551 191.659 36.4533 190.99 35.7827C190.378 35.113 189.653 34.3884 188.93 33.6068L189.04 33.216C191.046 33.6627 193.108 33.8856 195.336 33.9416C195.559 33.3279 195.727 32.6583 195.837 31.8767C196.005 31.151 196.061 30.3145 196.061 29.4769C196.061 26.6873 196.005 24.1207 195.837 21.7769C195.671 19.3771 195.503 17.2002 195.28 15.2482C195.058 14.9693 194.89 14.8014 194.78 14.5786C194.612 14.4106 194.556 14.2437 194.5 13.9649L196.227 10.1698C196.729 11.2862 197.286 12.4017 197.843 13.4621C198.456 14.5785 198.958 15.694 199.404 16.8104C199.124 16.8104 198.846 16.7544 198.512 16.6984C198.233 16.5875 197.899 16.4756 197.621 16.3076C197.621 17.2002 197.676 18.2047 197.676 19.2651C197.732 20.3816 197.732 21.442 197.788 22.5025C197.788 23.5629 197.788 24.5674 197.843 25.46C197.843 26.3525 197.843 27.1341 197.843 27.6359C197.843 28.6403 197.788 29.4769 197.565 30.1476C197.398 30.8722 197.176 31.5978 196.84 32.3235C197.899 31.263 198.902 30.3145 199.905 29.4219C200.908 28.5844 201.911 27.8038 202.858 27.1901C203.861 26.5754 204.808 26.0736 205.699 25.7388C206.646 25.404 207.482 25.2361 208.317 25.2361C208.987 25.2361 209.544 25.348 210.101 25.5159C210.657 25.7388 211.159 26.0736 211.55 26.4634C211.939 26.9102 212.273 27.4679 212.497 28.1386C212.719 28.8082 212.831 29.6448 212.831 30.5933ZM210.769 32.1555C210.657 31.5419 210.435 30.9841 210.156 30.5933C209.822 30.2035 209.488 29.8677 209.098 29.5888C208.707 29.3659 208.261 29.199 207.76 29.0871C207.314 28.9752 206.813 28.9192 206.312 28.9192C205.476 28.9192 204.696 29.0311 203.916 29.31C203.136 29.5888 202.357 29.9237 201.576 30.4264C200.852 30.8722 200.127 31.4309 199.404 32.0446C198.679 32.6583 197.955 33.3279 197.23 33.9976H198.456C200.016 33.9976 201.465 33.9416 202.746 33.8307C203.972 33.7187 205.086 33.5508 206.089 33.3839C207.092 33.216 207.928 32.9931 208.707 32.7702C209.488 32.5463 210.156 32.3794 210.769 32.1555Z" fill="#2B2A29"/>
<path d="M229.265 16.7543L228.428 18.7633C227.371 19.1531 226.2 19.5999 224.919 20.1017C223.637 20.6594 222.356 21.1622 221.186 21.6639L222.022 19.6559C223.136 19.1531 224.362 18.6514 225.643 18.1486C226.925 17.6469 228.151 17.1441 229.265 16.7543Z" fill="#2B2A29"/>
<path d="M219.682 10.5605C219.682 10.8394 219.682 11.3422 219.738 12.0668C219.738 12.7924 219.794 13.685 219.85 14.6894C219.85 15.7499 219.906 16.8663 219.962 18.1497C220.017 19.3771 220.017 20.6604 220.073 21.9997C220.073 23.339 220.129 24.6783 220.129 26.0176C220.184 27.357 220.184 28.5843 220.184 29.8127C220.184 30.8722 220.129 31.8767 220.017 32.7702C219.85 33.7187 219.738 34.5553 219.572 35.2809C219.46 35.9506 219.237 36.7871 218.903 37.7916H218.569C218.569 37.4578 218.569 36.7871 218.569 35.6717C218.513 34.5553 218.513 33.216 218.513 31.5978C218.513 30.0356 218.457 28.4174 218.402 26.7993C218.346 25.1251 218.234 23.5629 218.123 22.0557C217.956 20.5494 217.788 19.1542 217.621 17.8708C217.399 16.6424 217.176 15.583 216.953 14.7454L219.682 10.5605Z" fill="#2B2A29"/>
<path d="M244.399 13.835C244.399 14.3927 244.344 15.0064 244.288 15.676C244.176 16.3457 244.009 16.9593 243.786 17.573C243.564 18.1307 243.229 18.6335 242.839 19.0243C242.45 19.4141 241.949 19.6379 241.391 19.6379C241.001 19.6379 240.666 19.582 240.388 19.4141C240.109 19.2471 239.943 19.1352 239.831 19.0243C239.719 19.2472 239.552 19.4141 239.441 19.6379C239.274 19.8608 239.106 20.0847 238.94 20.2516C238.716 20.4745 238.438 20.5864 238.215 20.7534C237.937 20.8653 237.602 20.9213 237.212 20.9213C237.045 20.9213 236.878 20.9213 236.71 20.8653C236.543 20.8093 236.376 20.6984 236.265 20.5864C236.098 20.4185 236.042 20.1956 235.931 19.9728C235.875 19.6939 235.819 19.3581 235.819 18.9123C235.819 18.6894 235.819 18.4096 235.875 18.1867C235.931 17.9078 236.042 17.629 236.098 17.3501C236.21 17.1262 236.265 16.9034 236.376 16.6805C236.488 16.4576 236.543 16.2897 236.599 16.1777L237.101 16.4016C237.045 16.6245 236.989 16.8474 236.934 17.1262C236.878 17.4061 236.878 17.629 236.878 17.7959C236.878 18.0758 236.934 18.2986 237.045 18.5215C237.212 18.6894 237.435 18.8004 237.769 18.8004C238.104 18.8004 238.438 18.6894 238.66 18.4096C238.94 18.1867 239.107 17.9078 239.274 17.573C239.497 17.1822 239.607 16.8474 239.719 16.4576C239.831 16.1218 239.943 15.787 239.998 15.5081H240.778C240.778 15.8429 240.778 16.1218 240.722 16.4576C240.722 16.7914 240.666 17.0713 240.61 17.2942C240.722 17.4061 240.89 17.4621 241.056 17.573C241.223 17.629 241.447 17.6849 241.669 17.6849C241.893 17.6849 242.17 17.573 242.394 17.3501C242.616 17.1262 242.784 16.8474 242.951 16.5126C243.118 16.1778 243.285 15.787 243.341 15.3972C243.452 15.0064 243.508 14.6156 243.564 14.2248L244.399 13.835Z" fill="#2B2A29"/>
<path d="M278.143 10.5605C278.143 10.8394 278.143 11.3422 278.199 12.0668C278.199 12.7924 278.255 13.685 278.31 14.6894C278.31 15.7499 278.366 16.8663 278.422 18.1497C278.478 19.3771 278.478 20.6604 278.534 21.9997C278.534 23.339 278.589 24.6783 278.589 26.0176C278.645 27.357 278.645 28.5843 278.645 29.8127C278.645 30.8722 278.589 31.8767 278.478 32.7702C278.31 33.7177 278.199 34.5553 278.033 35.2809C277.921 35.9506 277.697 36.7871 277.363 37.7916H277.03C277.03 37.4578 277.03 36.7871 277.03 35.6717C276.974 34.5553 276.974 33.216 276.974 31.5978C276.974 30.0356 276.918 28.4174 276.862 26.7993C276.806 25.1251 276.694 23.5629 276.584 22.0557C276.417 20.5494 276.249 19.1542 276.082 17.8708C275.859 16.6424 275.637 15.583 275.414 14.7454L278.143 10.5605Z" fill="#2B2A29"/>
<path d="M271.402 16.3087C271.124 16.3087 270.79 16.2528 270.511 16.1968C270.232 16.1408 269.953 16.0289 269.675 15.862C269.675 16.3647 269.731 17.0334 269.731 17.815C269.731 18.5966 269.787 19.3772 269.787 20.2697C269.842 21.1073 269.842 21.9998 269.897 22.8924C269.897 23.7859 269.897 24.6235 269.953 25.4041C269.953 26.1857 269.953 26.9103 270.009 27.524C270.009 28.1387 270.009 28.6404 270.009 28.9752C270.009 29.5329 270.009 30.0916 269.953 30.5934C269.953 31.0951 269.897 31.5419 269.787 31.8767C269.508 32.7703 269.118 33.6628 268.616 34.4994C268.115 35.281 267.669 36.0626 267.223 36.7312C266.722 37.122 266.165 37.4019 265.497 37.5688C264.884 37.6807 264.214 37.7917 263.491 37.7917H263.47C262.531 37.7917 261.647 37.7917 260.928 37.7357C260.148 37.7357 259.479 37.6807 258.922 37.5688C258.365 37.4578 257.919 37.3459 257.529 37.178C257.139 37.0111 256.806 36.7312 256.582 36.3974C255.301 36.8991 253.964 37.234 252.57 37.5128C251.234 37.8476 249.618 37.9596 247.834 37.9596C246.999 37.9596 246.164 37.9596 245.328 37.9036C244.492 37.8476 243.656 37.7357 242.933 37.5688C242.208 37.3459 241.539 37.0111 241.038 36.6203C240.481 36.1735 240.091 35.5598 239.924 34.7792H239.644C239.59 34.8902 239.534 35.0021 239.422 35.169C239.366 35.3369 239.254 35.5038 239.143 35.6718C239.032 35.8387 238.921 36.0066 238.809 36.1735L238.736 36.2755V37.7917C238.346 37.7917 237.901 37.7357 237.511 37.6807C237.246 37.6428 237.008 37.6058 236.759 37.5318C236.644 37.5678 236.529 37.5978 236.413 37.6248L236.397 37.6268C236.392 38.5533 236.28 39.4288 236.063 40.3034C235.839 41.2519 235.561 42.0895 235.227 42.9261C234.892 43.7626 234.447 44.5442 234.001 45.2698C233.555 45.9385 233.109 46.5532 232.608 47.1109C232.106 47.6136 231.661 48.0594 231.159 48.3392C230.714 48.6171 230.268 48.785 229.878 48.785C229.488 48.785 228.987 48.785 228.374 48.73C227.761 48.6741 227.093 48.6741 226.368 48.5621C225.644 48.5062 224.919 48.4502 224.25 48.3942C223.527 48.2833 222.913 48.2273 222.356 48.1713V47.8925C224.362 47.4457 226.09 46.7761 227.594 45.8835C229.153 45.0459 230.436 44.0984 231.493 43.1489C232.496 42.2004 233.333 41.3079 233.834 40.4143C234.391 39.4658 234.669 38.7962 234.669 38.2385C234.669 38.0915 234.646 37.9376 234.602 37.7747C234.29 37.7867 233.964 37.7917 233.628 37.7917C233.182 37.7917 232.792 37.6248 232.457 37.2899C232.123 36.9551 231.956 36.5084 231.956 35.9506C231.956 35.4489 232.123 35.0021 232.457 34.6113L232.458 34.6093C232.31 34.4534 232.156 34.3065 231.995 34.1645C231.605 33.7747 231.271 33.4399 230.992 33.216L232.942 29.5329C233.221 29.9237 233.499 30.3145 233.778 30.7613C234.057 31.1511 234.28 31.5419 234.558 31.9887C235.06 32.6583 235.672 33.1601 236.341 33.5509L236.458 33.6078C236.961 33.4379 237.392 33.196 237.75 32.8812C238.252 32.4904 238.642 31.9887 238.977 31.4859C239.254 30.9842 239.478 30.5374 239.644 30.0917H240.09C240.202 31.2631 240.592 32.1556 241.26 32.7703C241.93 33.328 242.709 33.7188 243.601 33.9417C244.715 32.7143 245.774 31.5979 246.943 30.5374C248.058 29.477 249.173 28.5844 250.231 27.8038C251.345 27.0222 252.404 26.4085 253.462 25.9618C254.465 25.516 255.467 25.2921 256.36 25.2921C257.028 25.2921 257.696 25.4041 258.254 25.571C258.81 25.7949 259.312 26.1297 259.758 26.5195C260.148 26.9663 260.482 27.524 260.705 28.1946C260.928 28.9192 261.04 29.7008 261.04 30.6494C260.928 31.1511 260.705 31.6539 260.482 32.2116C260.204 32.7143 259.925 33.272 259.591 33.8307C260.037 33.8857 260.538 33.9976 261.207 33.9976C261.819 34.0536 262.6 34.0536 263.491 34.0536V34.0546L263.547 34.0536C264.382 34.0536 265.217 33.9417 265.943 33.7748C266.722 33.6068 267.391 33.328 268.059 32.9372C268.115 32.7143 268.115 32.4354 268.171 32.0446C268.226 31.7098 268.226 31.263 268.226 30.7613C268.226 29.366 268.226 27.9707 268.115 26.5195C268.059 25.0692 268.003 23.6739 267.947 22.2787C267.836 20.8844 267.725 19.5451 267.669 18.2607C267.558 17.0334 267.447 15.862 267.335 14.8015C267.223 14.6336 267.112 14.4667 266.945 14.2438C266.722 14.0759 266.61 13.797 266.499 13.5182L268.226 9.72412C268.394 10.1139 268.672 10.6167 269.006 11.2304C269.341 11.9 269.675 12.5137 270.009 13.1833C270.288 13.853 270.622 14.4667 270.844 15.0244C271.124 15.5831 271.29 16.0289 271.402 16.3087ZM258.978 32.2116C258.866 31.5419 258.644 31.0401 258.365 30.5934C258.031 30.2036 257.697 29.8678 257.251 29.5889C256.861 29.366 256.36 29.1991 255.858 29.0872C255.357 29.0312 254.911 28.9752 254.41 28.9752C253.573 28.9752 252.738 29.1431 251.902 29.422C251.123 29.7568 250.342 30.1466 249.562 30.6494C248.782 31.1511 248.002 31.7098 247.278 32.3235C246.61 32.9372 245.884 33.5509 245.272 34.1645C245.607 34.2205 245.884 34.2205 246.22 34.2205H247.167C250.12 34.2205 252.626 33.9976 254.576 33.6068C256.582 33.216 258.031 32.7143 258.978 32.2116Z" fill="#2B2A29"/>
<path d="M253.479 42.2562L252.643 44.2652C251.585 44.656 250.415 45.1017 249.134 45.6045C247.851 46.1622 246.57 46.6649 245.4 47.1666L246.237 45.1577C247.35 44.6559 248.576 44.2092 249.858 43.6515C251.139 43.1488 252.365 42.702 253.479 42.2562Z" fill="#2B2A29"/>
<path d="M307.265 8.96545L306.428 10.9734C305.371 11.3642 304.2 11.8109 302.919 12.3127C301.637 12.8704 300.356 13.3731 299.186 13.8749L300.022 11.8659C301.136 11.3642 302.362 10.8615 303.643 10.3597C304.925 9.858 306.151 9.35525 307.265 8.96545Z" fill="#2B2A29"/>
<path d="M336.599 11.9499C336.599 12.1738 336.599 12.3967 336.599 12.6206C336.543 12.8435 336.543 13.1223 336.487 13.3452C336.432 13.6251 336.432 13.8479 336.32 14.0708C336.264 14.2937 336.208 14.4606 336.153 14.5726C335.818 14.7964 335.429 14.9633 334.927 15.1872C334.481 15.3541 333.924 15.4651 333.312 15.4651C332.977 15.4651 332.643 15.2982 332.309 15.0753C331.974 14.7964 331.808 14.3497 331.808 13.68C331.808 13.2343 331.863 12.7875 332.085 12.2298C332.253 11.7271 332.42 11.1694 332.699 10.7226C332.921 10.2209 333.2 9.83004 333.423 9.49522C333.702 9.21636 333.924 9.04846 334.091 9.04846C334.314 9.04846 334.593 9.10442 334.871 9.27134C335.15 9.38328 335.429 9.60718 335.707 9.83006C335.93 10.1089 336.153 10.3878 336.32 10.7226C336.543 11.1134 336.599 11.5042 336.599 11.9499ZM335.762 13.0664C335.762 12.4527 335.54 12.0059 335.15 11.6161C334.759 11.2253 334.259 10.8895 333.645 10.7226C333.423 11.0014 333.256 11.2803 333.144 11.4482C333.033 11.6161 332.977 11.839 332.865 12.0059C332.811 12.2298 332.755 12.3967 332.755 12.5646C332.755 12.6756 332.755 12.7875 332.755 12.9544C332.755 13.0664 332.811 13.2343 332.865 13.3452C332.921 13.5131 333.033 13.625 333.144 13.68C333.256 13.792 333.478 13.8479 333.702 13.8479C334.091 13.8479 334.481 13.736 334.871 13.5691C335.261 13.4012 335.596 13.2343 335.762 13.0664Z" fill="#2B2A29"/>
<path d="M351.743 10.5605C351.743 10.8394 351.743 11.3422 351.799 12.0668C351.799 12.7924 351.855 13.685 351.91 14.6894C351.91 15.7499 351.966 16.8663 352.021 18.1497C352.076 19.3771 352.076 20.6604 352.132 21.9997C352.132 23.339 352.188 24.6783 352.188 26.0176C352.244 27.357 352.244 28.5843 352.244 29.8127C352.244 30.8722 352.189 31.8767 352.077 32.7702C351.91 33.7177 351.799 34.5553 351.631 35.2809C351.519 35.9506 351.297 36.7871 350.963 37.7916H350.628C350.628 37.4578 350.628 36.7871 350.628 35.6717C350.572 34.5553 350.572 33.216 350.572 31.5978C350.572 30.0356 350.517 28.4174 350.462 26.7993C350.406 25.1251 350.294 23.5629 350.183 22.0557C350.016 20.5494 349.849 19.1542 349.681 17.8708C349.459 16.6424 349.236 15.583 349.013 14.7454L351.743 10.5605Z" fill="#2B2A29"/>
<path d="M328.065 37.7914H328.044H328.041C327.548 37.7894 327.055 37.7344 326.616 37.6245C326.114 37.5125 325.725 37.3456 325.334 37.0668C324.889 36.8429 324.554 36.4531 324.22 36.0063C323.886 35.5596 323.607 34.9459 323.329 34.2202C323.105 34.667 322.883 35.1128 322.66 35.5036C322.381 35.9503 322.103 36.3411 321.769 36.7309C321.268 37.0108 320.71 37.2337 320.209 37.4576C319.707 37.6245 319.206 37.8474 318.648 37.9593C318.091 38.1262 317.535 38.2382 316.921 38.3491C316.364 38.4051 315.695 38.4611 315.027 38.4611C314.526 38.4611 314.08 38.4611 313.69 38.3491C313.245 38.2941 312.91 38.1822 312.576 38.0153C312.296 37.8474 312.074 37.6245 311.907 37.3456C311.74 37.0668 311.629 36.676 311.629 36.2292C311.629 35.2247 311.629 34.3882 311.684 33.7175C311.74 32.9929 311.74 32.4902 311.796 32.2673H312.186L312.242 32.77C312.296 33.1598 312.408 33.4946 312.687 33.7175C312.966 33.9974 313.299 34.2202 313.745 34.3882C314.136 34.4991 314.638 34.667 315.139 34.722C315.641 34.778 316.142 34.8339 316.643 34.8339C317.144 34.8339 317.646 34.778 318.203 34.722C318.76 34.6111 319.317 34.4991 319.875 34.3322C320.432 34.1643 320.988 33.9974 321.489 33.7735C321.991 33.5506 322.492 33.2717 322.883 32.9929C322.66 32.3792 322.326 31.7095 322.047 30.9839C321.713 30.2583 321.379 29.5886 321.044 28.919C320.654 28.1944 320.32 27.5797 319.93 27.022C319.595 26.4633 319.206 25.9615 318.872 25.6267C319.038 25.1809 319.206 24.6782 319.484 24.0645C319.707 23.4508 319.985 22.8921 320.265 22.2784C320.542 22.7252 320.878 23.2269 321.212 23.8406C321.545 24.5103 321.881 25.1809 322.215 25.8496C322.548 26.5752 322.883 27.3008 323.217 28.0264C323.551 28.7521 323.886 29.4217 324.164 30.0904C324.443 30.7051 324.666 31.2628 324.944 31.7655C325.167 32.2673 325.446 32.658 325.725 32.9929C326.003 33.3277 326.337 33.6066 326.672 33.7735C327.056 33.9384 327.493 34.0493 328.039 34.0533H328.044H328.065H328.733C328.9 34.0533 329.178 34.0533 329.458 33.9974C329.736 33.9974 330.07 33.9414 330.461 33.9414C330.85 33.9414 331.352 33.8854 331.909 33.8295C331.407 33.4397 331.018 33.0489 330.739 32.6581C330.461 32.2673 330.293 31.9324 330.293 31.5976C330.293 31.1508 330.405 30.6491 330.572 30.1464C330.739 29.6446 330.962 29.1419 331.296 28.5842C331.574 28.0824 331.909 27.5797 332.299 27.1339C332.689 26.6312 333.079 26.1854 333.468 25.7946L332.465 25.1249C332.465 24.7901 332.521 24.3993 332.633 23.9526C332.689 23.5068 332.8 23.116 332.912 22.6692C333.079 22.2784 333.246 21.9436 333.413 21.6647C333.636 21.3859 333.914 21.2739 334.193 21.2739C334.695 21.4978 335.308 21.8876 336.031 22.4463C336.757 22.9481 337.48 23.5628 338.316 24.1764C339.096 24.8451 339.876 25.5707 340.655 26.2964C341.492 27.078 342.16 27.8036 342.829 28.5282C343.442 29.2538 343.944 29.9794 344.334 30.6491C344.779 31.3187 344.947 31.9324 344.947 32.3792C344.947 32.826 344.835 33.2717 344.667 33.7735C344.5 34.2202 344.222 34.722 343.944 35.1128C343.72 35.5596 343.387 35.9504 343.107 36.3412C342.773 36.731 342.495 37.0108 342.272 37.2897C341.994 37.2897 341.77 37.3456 341.603 37.4016C341.381 37.4576 341.213 37.4576 341.046 37.4576C340.935 37.4576 340.767 37.5125 340.601 37.5125C340.489 37.5125 340.322 37.5125 340.099 37.5125C339.654 37.5125 338.985 37.4016 338.205 37.1218C337.369 36.8429 336.533 36.5081 335.698 36.1173C335.029 36.3971 334.415 36.676 333.859 36.8989C333.302 37.1218 332.745 37.2897 332.132 37.4576C331.574 37.5685 330.962 37.6245 330.293 37.6805C329.68 37.7354 328.9 37.7914 328.065 37.7914ZM338.26 31.3747C338.205 31.1508 338.093 30.761 337.926 30.2583C337.759 29.7566 337.536 29.2538 337.257 28.7521C336.923 28.2493 336.589 27.8036 336.255 27.4677C335.864 27.0779 335.474 26.91 335.085 26.91C334.917 26.91 334.695 26.966 334.471 27.1339C334.249 27.2448 334.026 27.4677 333.803 27.6916C333.636 27.9705 333.468 28.2493 333.302 28.5282C333.135 28.863 333.079 29.1978 333.079 29.5327C333.079 30.0904 333.413 30.6491 334.026 31.2068C334.639 31.7655 335.418 32.2673 336.31 32.77C336.757 32.5461 337.146 32.3232 337.48 32.0994C337.814 31.8765 338.093 31.6536 338.26 31.3747ZM342.717 34.3322C342.495 33.6625 342.104 32.9929 341.603 32.2673C341.102 31.5976 340.601 31.0399 340.043 30.5371C339.876 31.0399 339.709 31.5976 339.43 32.1553C339.096 32.714 338.817 33.2158 338.427 33.7175C339.04 33.9414 339.709 34.1083 340.266 34.2202C340.879 34.3882 341.381 34.4441 341.77 34.4441L342.717 34.3322Z" fill="#2B2A29"/>
<path d="M306.39 17.0893L304.496 19.8799L301.71 17.3121L303.605 14.5785L306.39 17.0893Z" fill="#2B2A29"/>
<path d="M308.341 31.263C308.341 31.7098 308.285 32.1555 308.063 32.6023C307.895 33.1041 307.673 33.5508 307.45 33.9976C307.171 34.4993 306.892 34.9461 306.558 35.3369C306.279 35.7827 306.001 36.1735 305.723 36.4533C305.221 36.7312 304.776 36.9551 304.33 37.122C303.884 37.2899 303.438 37.4018 302.992 37.5128C302.546 37.6247 302.045 37.6807 301.488 37.7357C300.931 37.7916 300.318 37.7916 299.593 37.7916C299.148 37.7916 298.758 37.6247 298.424 37.2899C298.09 36.9551 297.922 36.5083 297.922 35.9506C297.922 35.4489 298.09 35.0021 298.424 34.6113C298.758 34.2205 299.148 34.0536 299.593 34.0536C300.374 34.0536 301.098 34.0536 301.767 33.9976C302.435 33.9976 302.992 33.9416 303.549 33.8856C304.107 33.8307 304.608 33.7187 305.054 33.6068C305.444 33.4949 305.889 33.3279 306.279 33.104C306.224 32.7142 306.168 32.3234 306.001 31.8767C305.833 31.4309 305.611 31.0401 305.388 30.5933C305.165 30.1476 304.942 29.7008 304.664 29.31C304.385 28.9192 304.162 28.5844 303.884 28.3055C304.162 27.7478 304.441 27.1341 304.831 26.4635C305.221 25.7388 305.555 25.1252 305.889 24.6234C306.168 25.0132 306.503 25.5159 306.78 26.0737C307.116 26.6314 307.338 27.1901 307.561 27.8038C307.783 28.3615 308.007 28.9752 308.119 29.5888C308.285 30.2035 308.341 30.7613 308.341 31.263Z" fill="#2B2A29"/>
<path d="M299.594 34.0536V37.7916C298.703 37.7916 297.978 37.7357 297.31 37.6247C296.697 37.5128 296.14 37.2899 295.694 36.9551C295.304 36.6203 294.914 36.2294 294.635 35.6717C294.357 35.113 294.134 34.4444 293.967 33.6068C293.911 33.3279 293.856 33.0491 293.856 32.7143C293.8 32.4354 293.744 32.0996 293.744 31.7657C293.744 31.4859 293.744 31.207 293.689 30.9282C293.689 30.6493 293.689 30.4264 293.689 30.2585C293.689 28.1946 293.689 26.4085 293.577 24.7903C293.522 23.2271 293.466 21.7769 293.298 20.4936C293.187 19.2652 293.02 18.1498 292.853 17.1453C292.686 16.1408 292.463 15.2483 292.24 14.4107L294.914 10.2258C294.97 11.0064 295.025 12.0109 295.081 13.2393C295.137 14.5226 295.193 15.9179 295.249 17.4801C295.304 19.0423 295.36 20.7164 295.416 22.5025C295.472 24.2316 295.472 26.0737 295.472 27.8588C295.472 28.3055 295.526 28.6404 295.526 28.8083C295.526 29.0312 295.526 29.254 295.526 29.4769C295.582 29.7568 295.582 29.9237 295.582 30.0906C295.694 31.5419 296.084 32.5463 296.753 33.16C297.421 33.7747 298.368 34.0536 299.594 34.0536Z" fill="#2B2A29"/>
<path d="M322.492 43.7256L321.657 45.7345C320.598 46.1253 319.429 46.5711 318.146 47.0738C316.865 47.6315 315.584 48.1343 314.414 48.636L315.249 46.627C316.364 46.1253 317.589 45.6786 318.871 45.1208C320.152 44.6181 321.379 44.1714 322.492 43.7256Z" fill="#2B2A29"/>
<path d="M46.9661 27.1341C46.9661 28.9191 46.7995 30.6493 46.4093 32.3794C46.0191 34.0535 45.5182 35.7266 44.7378 37.2898C44.0133 38.908 43.0663 40.3582 41.8967 41.7535C40.7261 43.1488 39.3889 44.4321 37.8851 45.4926L37.0498 44.4881C38.2194 43.3716 39.2223 42.2003 40.0027 40.9169C40.8379 39.6336 41.5065 38.2383 42.0634 36.7311C42.6212 35.2808 43.0104 33.7177 43.2339 32.1555C43.5123 30.5373 43.6241 28.8632 43.6241 27.19C43.6241 25.4589 43.5123 23.8408 43.2339 22.2226C43.0104 20.6054 42.6212 19.0982 42.0634 17.647C41.5065 16.1957 40.8379 14.8015 40.0027 13.5181C39.2223 12.2348 38.2194 11.0624 37.0498 9.94699L37.8851 8.9425C39.333 10.002 40.6713 11.2863 41.8408 12.6246C43.0104 14.0199 43.9574 15.4711 44.7378 17.0333C45.4623 18.6515 46.0191 20.2696 46.4093 21.9997C46.7995 23.6739 46.9661 25.404 46.9661 27.1341Z" fill="#2B2A29"/>
<path d="M31.1995 32.8811L30.3083 37.3458C29.1937 36.4533 28.3025 35.4488 27.6339 34.2204C26.9643 33.049 26.5192 31.7657 26.2967 30.3144C26.129 29.5888 26.0731 28.8082 25.9614 27.9706C25.9065 27.0781 25.8506 26.1855 25.7947 25.1251C25.7388 24.1206 25.7388 22.9482 25.684 21.7209C25.684 20.4935 25.6281 19.0422 25.6281 17.536C24.5693 17.7589 23.6781 17.9268 22.8978 18.0378C22.1184 18.1497 21.3929 18.2047 20.7243 18.2047C19.1097 18.2047 17.9391 17.9828 17.1038 17.536C16.8803 17.4241 16.6578 17.3131 16.4911 17.1452C16.3235 16.9783 16.2117 16.8104 16.1009 16.5875C15.9892 16.3646 15.9333 16.0848 15.8774 15.694C15.8215 15.3601 15.7656 14.9134 15.7656 14.4106C15.7656 14.0758 15.7656 13.685 15.8215 13.2392C15.8215 12.8484 15.8774 12.4016 15.9892 11.8999H16.4911C17.3823 13.629 19.3312 14.4666 22.2292 14.4666C23.733 14.4666 25.5722 14.1318 27.6898 13.4621C27.578 14.4666 27.5221 15.4151 27.4662 16.2527C27.4104 17.1452 27.3545 17.9828 27.3545 18.8753C27.3545 20.1587 27.4104 21.498 27.4662 22.7813C27.4662 24.1206 27.6339 25.404 27.8564 26.6323C28.1349 27.8587 28.525 29.0311 29.026 30.0916C29.528 31.152 30.2524 32.0995 31.1995 32.8811Z" fill="#2B2A29"/>
<path d="M9.91734 9.94699C8.74678 11.0064 7.74386 12.2348 6.85272 13.5181C6.01646 14.8015 5.34786 16.1957 4.8469 17.647C4.34495 19.1542 4.01064 20.6604 3.73222 22.2786C3.4538 23.8967 3.34204 25.5709 3.34204 27.245C3.34204 28.9191 3.4538 30.5933 3.73222 32.2114C4.01064 33.7746 4.34495 35.3368 4.8469 36.787C5.34786 38.2943 6.01646 39.6336 6.85272 40.9169C7.74386 42.2003 8.74678 43.4276 9.91734 44.4881L9.13696 45.4926C7.57621 44.4321 6.24 43.1488 5.12532 41.8095C3.95476 40.4142 3.00774 38.9639 2.28424 37.4017C1.50387 35.8386 0.946028 34.1644 0.556839 32.4903C0.222535 30.7612 0 29.0311 0 27.245C0 25.5149 0.166651 23.7858 0.556839 22.0557C0.946028 20.3256 1.50387 18.7074 2.22836 17.1453C2.95185 15.5271 3.89988 14.0758 5.06944 12.6806C6.18412 11.2863 7.57621 10.002 9.13696 8.9425L9.91734 9.94699Z" fill="#2B2A29"/>
</svg>
