<svg width="39" height="60" viewBox="0 0 39 60" fill="none" xmlns="http://www.w3.org/2000/svg">
<path fill-rule="evenodd" clip-rule="evenodd" d="M28.4861 51.0001C29.0176 50.8245 30.3792 49.453 30.826 48.8547L28.6623 46.7723C28.1242 47.031 26.7976 48.3624 26.4243 48.946L28.4861 51.0001Z" fill="#211D21"/>
<path fill-rule="evenodd" clip-rule="evenodd" d="M21.6626 48.9041L23.6946 50.9851C24.3215 50.7647 25.6365 49.3825 25.978 48.9041L23.9521 46.7158C23.3845 46.9762 21.9311 48.4171 21.6626 48.9041Z" fill="#211D21"/>
<path fill-rule="evenodd" clip-rule="evenodd" d="M11.2359 39.0221C11.8399 37.1706 14.3471 38.6293 14.2594 39.8183C12.7344 39.9808 11.8862 40.0358 11.2359 39.0221ZM10.4833 37.3242C9.73328 38.6876 8.68155 41.6135 10.1508 42.6572C11.2549 43.4416 13.0155 43.353 14.6044 43.3564C14.4078 47.1994 6.143 48.1119 3.44629 48.2806C4.48382 48.9174 7.09698 49.7984 8.66209 49.884C12.1892 50.0769 15.0381 46.8675 16.3734 43.8794C16.9649 42.5549 16.9839 42.9204 18.0965 42.2816C19.0733 41.7204 19.1294 41.1937 19.7833 40.6661C20.616 41.9774 21.1745 45.5114 26.3894 42.9907C27.2699 42.5652 27.6061 42.0985 28.4306 41.5086C29.0339 41.675 28.4594 41.4288 28.9875 41.8188C29.1749 41.957 29.2411 42.0495 29.4729 42.2111C30.5635 42.9705 33.4482 43.3496 34.2957 42.6036C35.2907 41.7275 35.8022 37.8456 35.6914 36.023C35.4438 35.8124 35.6832 35.9408 35.3133 35.896C34.4944 37.4844 34.2076 37.4343 34.2476 39.5396C32.6038 39.8007 31.2122 39.678 29.9833 38.8399L30.1186 37.4975C29.0996 37.5574 28.1875 40.1759 24.73 40.4588C23.3587 40.5711 22.2539 40.0928 21.8275 39.0946C20.0349 34.9024 21.5464 25.5719 20.489 22.1009C19.6906 22.1817 18.8218 25.0212 18.7643 25.7836C18.7064 26.5536 18.9603 27.2814 19.1074 29.6653C19.2297 31.646 19.7414 36.749 19.3398 38.4926C18.7682 38.9932 18.3009 39.3361 17.3125 39.3583C16.8154 38.7268 15.4739 34.0768 13.2313 34.7705C11.9026 35.1821 11.1112 36.1823 10.4833 37.3242Z" fill="#211D21"/>
<path fill-rule="evenodd" clip-rule="evenodd" d="M4.91879 35.4938C4.66541 32.4176 2.95678 25.3732 3.43721 22.8038C2.52763 22.6852 1.84899 24.7275 1.68397 25.4918C1.63934 25.6985 1.6748 25.9644 1.77803 26.6774C2.7137 33.1331 3.40814 35.1635 3.86728 42.5933C3.90001 42.5574 3.94487 42.45 3.95792 42.4789C4.11768 42.8302 4.73177 40.1802 4.80776 39.5549C4.97691 38.1582 4.96113 36.9293 4.91879 35.4938Z" fill="#211D21"/>
<path fill-rule="evenodd" clip-rule="evenodd" d="M1.36605 18.0673C3.47064 16.1776 4.65098 20.0778 2.21611 19.9272C1.43562 19.8789 1.06437 18.6225 1.23466 17.785C-1.25445 20.3156 2.60636 22.8205 4.27424 19.0977C6.3065 14.5605 1.43517 15.7493 1.36605 18.0673Z" fill="#211D21"/>
<path fill-rule="evenodd" clip-rule="evenodd" d="M29.7651 22.883C30.3432 22.4697 30.8834 22.0188 31.0443 21.0133C29.2652 20.664 26.0988 19.8647 25.4019 22.1311C26.498 22.0895 27.8505 21.989 28.5492 22.6111L26.2778 23.7718C27.4867 23.8249 28.7465 23.6111 29.7651 22.883Z" fill="#211D21"/>
<path fill-rule="evenodd" clip-rule="evenodd" d="M30.5508 25.2483C31.4903 25.0832 34.6396 23.8306 36.7421 23.2242C38.0948 22.834 38.1758 22.0228 38.3022 21.4067C36.8611 21.7127 33.5354 22.8814 31.538 23.5699C30.6721 23.8683 30.7987 24.6111 30.5508 25.2483Z" fill="#211D21"/>
<path fill-rule="evenodd" clip-rule="evenodd" d="M26.5383 33.4639C27.4762 33.1897 28.6387 31.9684 28.7392 31.051C27.9225 30.5177 27.4055 29.7869 26.715 29.2668C26.2529 29.471 26.6543 29.2581 26.3373 29.4728C25.2229 30.493 24.4087 31.314 24.5117 31.4602C24.5458 31.5081 25.1997 32.6234 26.5383 33.4639Z" fill="#211D21"/>
<path fill-rule="evenodd" clip-rule="evenodd" d="M30.8151 33.4639C31.7531 33.1897 32.9154 31.9684 33.0161 31.051C32.1994 30.5177 31.6821 29.7869 30.9918 29.2668C30.5299 29.471 30.9314 29.2581 30.6141 29.4728C29.4999 30.493 28.6856 31.314 28.7886 31.4602C28.8227 31.5081 29.4766 32.6234 30.8151 33.4639Z" fill="#211D21"/>
<path fill-rule="evenodd" clip-rule="evenodd" d="M19.6829 18.1723C18.7699 18.0959 18.2883 17.8533 18.2439 16.9643C19.2361 16.6075 19.7516 16.6626 19.6829 18.1723ZM16.6967 18.6979C17.1796 19.5017 17.7154 19.5866 18.0359 20.0458C17.492 20.8553 13.7695 23.3481 12.8457 23.6871C13.1018 23.8601 13.0998 23.9638 13.7155 23.6921C15.3845 22.8846 16.5912 22.271 18.0462 21.0892C19.3346 20.043 18.606 20.8773 19.8766 20.7986C20.362 20.2955 20.4465 20.0751 20.4696 19.8228C20.5014 19.4401 20.4073 19.3268 20.4222 18.8121C20.8152 18.2351 22.2206 16.7148 20.8074 15.3486C19.7575 14.3331 17.7612 15.7926 17.1267 16.4713C16.4847 17.2889 16.0327 17.5912 16.6967 18.6979Z" fill="#211D21"/>
</svg>
