<svg width="43" height="60" viewBox="0 0 43 60" fill="none" xmlns="http://www.w3.org/2000/svg">
<path fill-rule="evenodd" clip-rule="evenodd" d="M23.6 47.8624C22.7974 48.3099 21.5647 48.1241 20.7044 47.7581C19.9829 47.4512 19.4198 46.7094 19.1871 45.7384C20.3825 45.726 23.168 46.9234 23.6 47.8624ZM30.6195 39.6893C31.2475 38.0226 33.1609 39.3005 33.702 40.3848C32.8766 40.4113 31.3124 39.9231 30.6195 39.6893ZM21.2571 40.1046C21.3496 39.7128 22.6787 37.3402 23.2839 37.0909C23.6878 37.658 23.6362 38.4628 23.5215 39.3246C22.8899 39.7599 22.2486 40.056 21.2571 40.1046ZM13.2221 45.387C13.1608 46.8484 10.7532 48.3127 9.49829 48.847C8.5619 49.2453 7.8507 49.396 6.69839 49.4728C6.16352 49.5083 5.43811 49.5059 4.90453 49.459C3.3193 49.3186 2.02246 48.1977 1.59793 46.6645C0.959404 44.3586 1.94654 43.6381 1.56179 42.934C0.0780684 45.3182 -0.501747 51.2819 3.11799 52.4261C5.03615 53.0323 7.29024 52.7351 9.18861 51.9824C12.3883 50.7141 13.8194 47.7183 14.4106 44.467C14.6192 44.4381 17.3019 44.7164 18.3858 44.4833C18.3338 45.835 17.6937 46.6079 17.8484 48.0271C18.1348 50.6503 22.1273 52.8529 24.1435 50.3791C25.8627 47.6951 25.4296 46.792 25.2281 45.2117C25.3659 43.8947 26.0214 45.4984 28.5904 42.7484C30.3188 42.8718 34.5091 45.3466 35.7632 43.5783C36.1686 43.0071 36.8183 40.8948 36.6538 39.9543C36.5015 39.0867 33.733 34.2222 31.9209 36.1087C30.6064 37.477 28.8751 42.177 23.7725 41.8772C23.8082 41.4442 26.4094 35.476 24.4448 33.5617C23.8734 33.9994 23.9093 34.1904 23.5086 34.8325C23.1809 35.3584 22.9426 35.7003 22.663 36.138C21.9875 37.1959 19.9009 40.7896 18.9048 41.0206C13.9426 42.1718 14.5538 39.899 13.7933 33.7871C13.4705 31.1924 13.1191 28.6464 13.0152 25.9766L12.8791 23.9426C11.8967 23.8217 11.2642 26.5863 11.3281 27.6331C11.6707 33.2441 13.435 40.3466 13.2221 45.387Z" fill="#35388A"/>
<path fill-rule="evenodd" clip-rule="evenodd" d="M31.3844 31.1512C32.9087 31.0613 35.0396 29.9438 35.2403 28.4627C33.9892 27.4833 30.7428 27.3792 30.3359 29.3774C31.1553 29.3225 32.4184 29.1363 33.0335 29.7892C32.5504 30.1851 31.7068 30.4834 31.3844 31.1512Z" fill="#35388A"/>
<path fill-rule="evenodd" clip-rule="evenodd" d="M4.16162 27.0435C5.0322 26.945 5.80988 26.8691 6.66454 26.9706C6.4527 27.5315 5.44964 28.4159 4.5111 28.4126C5.7632 29.4409 8.57667 26.6571 8.10568 25.8768C7.62351 25.0789 4.49884 25.3549 4.16162 27.0435Z" fill="#35388A"/>
<path fill-rule="evenodd" clip-rule="evenodd" d="M38.9134 46.7733C39.2553 46.4913 38.9889 46.8101 39.2074 46.4434C39.5444 45.8763 39.9025 43.1949 39.9782 42.5344C40.3264 39.4895 40.0291 29.46 39.425 27.8488C38.7654 27.9795 37.8361 30.1151 37.7965 30.7429C37.7849 30.9289 37.7931 31.1502 37.8237 31.4352C37.9936 33.0236 38.2723 34.6443 38.4781 36.264C38.9551 40.0175 38.7977 42.9794 38.9134 46.7733Z" fill="#35388A"/>
<path fill-rule="evenodd" clip-rule="evenodd" d="M36.9636 27.3023C36.6234 27.8438 36.1341 27.863 36.0425 28.566C37.7731 27.6406 41.0141 27.4165 41.6875 25.5809C41.0513 25.6762 38.2964 26.7053 37.7591 24.8994C38.8301 24.6501 40.5543 25.2848 40.3141 23.6565C39.3099 23.2363 38.5004 23.4853 37.7763 24.0398C36.6025 24.9383 35.37 26.0904 36.9636 27.3023Z" fill="#35388A"/>
<path fill-rule="evenodd" clip-rule="evenodd" d="M41.6555 20.8986C40.4535 21.17 38.6549 21.6466 37.2921 21.9962C36.731 22.1401 36.6166 22.572 36.5234 22.9838C37.5871 22.6309 39.7053 22.2173 40.9923 21.804C41.5783 21.6158 41.4871 21.4343 41.6555 20.8986Z" fill="#35388A"/>
<path fill-rule="evenodd" clip-rule="evenodd" d="M27.0059 51.9069C26.1798 52.0972 22.1684 53.1058 19.807 54.0437C19.0448 54.3463 19.0276 54.9728 18.9214 55.3997C20.0315 55.0554 23.5605 53.9259 25.7206 53.2489C26.6544 52.9564 26.8489 52.3424 27.0059 51.9069Z" fill="#35388A"/>
</svg>
