<svg width="52" height="60" viewBox="0 0 52 60" fill="none" xmlns="http://www.w3.org/2000/svg">
<path fill-rule="evenodd" clip-rule="evenodd" d="M26.0354 27.0389C28.7919 28.5088 33.6687 34.2083 34.1662 37.0942C32.9599 38.016 30.4879 38.0783 28.6364 38.0939C27.0351 38.1073 26.2705 37.7192 25.2244 36.7448C24.7354 36.2895 24.9705 36.4013 24.3526 35.8606C22.6344 39.0453 24.13 39.3746 25.6433 41.2351C24.9668 43.1045 22.7504 44.8554 20.9482 45.7647C18.4341 47.0333 16.4752 47.2149 13.3477 47.2718C14.1098 48.2507 16.5529 48.6511 18.0352 49.0412C23.0389 50.3576 25.6318 45.2223 27.132 41.4295C29.3094 41.481 32.1082 41.4868 34.1308 40.5455C36.0096 39.6707 36.0282 35.5142 35.608 34.2623C34.6508 31.4094 33.1225 28.6004 30.8567 26.5973C30.1031 25.931 29.297 25.5063 28.5963 24.8603C29.5985 22.7495 38.2402 20.3868 40.4013 18.7592C41.4286 17.9858 42.1275 16.9412 42.0453 15.4273C40.2514 15.7664 30.097 20.9747 28.0592 22.1973C27.0146 22.8242 25.9812 25.571 26.0354 27.0389Z" fill="#211D21"/>
<path fill-rule="evenodd" clip-rule="evenodd" d="M12.0022 36.9995C12.3401 35.8462 13.2051 35.4712 14.3488 35.9707C15.1242 36.3093 15.8363 36.8052 16.0277 37.7382L12.0022 36.9995ZM12.3164 34.2781C11.2305 35.8145 9.83874 38.1584 10.006 40.1031L11.2576 40.6705C10.7571 41.7864 4.96806 44.2475 3.03967 45.1776C2.07853 45.641 0.825417 46.245 0.251953 46.8504C2.06145 46.9278 6.448 45.7423 7.89717 45.1312C11.4405 43.6377 11.0921 43.2375 12.8303 40.9298C14.0781 40.8819 16.6419 41.7405 17.7347 41.0447C18.4759 40.5731 19.1382 38.09 18.9053 36.9148C18.7065 35.9141 17.6001 33.8548 17.1248 33.3719C14.9638 31.1787 13.6403 32.4049 12.3164 34.2781Z" fill="#211D21"/>
<path fill-rule="evenodd" clip-rule="evenodd" d="M46.7164 44.279C47.2928 43.6247 47.3446 41.94 47.5196 40.9295C47.847 34.9524 46.0948 28.2203 45.0378 22.0381C44.4826 22.3179 43.779 23.8967 43.5039 24.5991C43.1528 25.4933 43.4316 27.1244 43.8637 28.9156C45.1967 34.4478 46.1656 38.4665 46.7164 44.279Z" fill="#211D21"/>
<path fill-rule="evenodd" clip-rule="evenodd" d="M43.2193 19.8671C43.8123 20.3136 44.2146 20.2992 44.9909 20.681C44.3418 20.9979 44.2407 21.3118 43.9766 22.1079C44.4238 21.8648 44.6892 21.5059 45.3967 21.1658C47.2274 20.2865 49.7291 20.5235 50.2564 18.4274C49.0152 18.3412 45.7468 19.9852 45.1033 18.009C46.2756 16.8975 45.9521 18.6904 47.4196 17.9553C48.4217 17.4536 48.5445 16.1655 46.9816 16.3301C45.5163 16.4844 43.2054 18.5771 43.2193 19.8671Z" fill="#211D21"/>
<path fill-rule="evenodd" clip-rule="evenodd" d="M48.3433 13.4615C46.9783 13.7696 44.9372 14.3106 43.3901 14.7076C42.7527 14.8709 42.6233 15.3611 42.5176 15.8286C43.7251 15.428 46.129 14.9586 47.5904 14.4893C48.2551 14.2757 48.1516 14.0697 48.3433 13.4615Z" fill="#211D21"/>
<path fill-rule="evenodd" clip-rule="evenodd" d="M26.7231 15.7744C28.2914 15.5564 29.3346 15.064 30.9459 15.8816C30.4542 16.987 28.4916 16.9728 27.5949 18.3009C28.7638 18.1761 33.2329 16.3295 32.9595 14.0308C30.4689 12.9613 27.4399 13.5794 26.7231 15.7744Z" fill="#211D21"/>
<path fill-rule="evenodd" clip-rule="evenodd" d="M25.5682 22.7231C24.6308 22.9391 20.0772 24.0841 17.3964 25.1488C16.5315 25.4923 16.512 26.2034 16.3911 26.688C17.6516 26.2972 21.6575 25.015 24.1096 24.2465C25.1696 23.9144 25.3903 23.2174 25.5682 22.7231Z" fill="#211D21"/>
<path fill-rule="evenodd" clip-rule="evenodd" d="M16.5253 20.4622C15.5876 20.6783 11.0338 21.8232 8.35347 22.8879C7.48827 23.2314 7.46875 23.9425 7.34814 24.4271C8.60835 24.0363 12.6145 22.7541 15.0663 21.9856C16.1263 21.6536 16.3471 20.9566 16.5253 20.4622Z" fill="#211D21"/>
</svg>
