<svg width="65" height="60" viewBox="0 0 65 60" fill="none" xmlns="http://www.w3.org/2000/svg">
<path fill-rule="evenodd" clip-rule="evenodd" d="M45.9911 36.9996C45.2543 37.4569 44.1128 38.0108 42.9178 37.6536C41.7472 37.3035 41.3722 36.0636 42.0716 35.1203C43.5562 33.1194 46.2016 33.8166 45.9911 36.9996ZM22.5546 38.7769C23.6131 35.04 33.0881 32.7153 35.1644 36.2565C33.8356 38.3435 25.3987 38.8977 22.5546 38.7769ZM21.0639 37.4537C20.571 37.9712 20.1567 38.6707 19.1626 38.4847C17.3687 38.1485 16.7655 36.3119 15.7206 35.63C15.3407 36.1901 14.6506 37.1768 14.4875 37.6895C14.2277 38.1072 18.7339 42.9952 15.0785 45.0364C13.6299 45.8452 11.9788 46.6242 10.0751 47.153C8.16888 47.6828 5.845 47.8971 4.21323 46.8291C0.398678 44.3321 3.26258 41.4875 1.75703 41.64C1.74213 41.9391 -0.966013 45.9485 1.32833 48.7696C2.91958 50.7256 5.32915 51.3464 8.46892 50.8223C16.6019 49.4647 17.0416 44.1077 18.5435 42.1142C20.4184 42.0287 22.4147 42.4051 24.5696 42.2989C25.6719 42.2445 26.6198 42.0028 27.4208 41.9589C29.3612 41.8534 34.7645 43.6356 41.0419 41.3637C41.8443 41.0204 43.0699 40.7248 43.9304 40.3681C44.8354 39.9931 45.7919 39.4153 46.6488 38.8706C46.8356 38.1785 47.2714 37.7403 47.4742 36.6144C47.6495 35.6386 47.7572 34.4821 47.6505 33.4333C47.4979 31.9397 46.1833 29.5153 44.4087 30.5245C41.1154 32.3982 40.5038 37.0836 39.5141 38.9624L34.9627 39.8708C35.8511 39.0337 38.2446 37.1302 37.8594 34.4438C37.6865 33.2366 36.6692 32.201 34.5682 31.3775C29.3602 29.3371 24.4912 33.8559 21.0639 37.4537Z" fill="#35388A"/>
<path fill-rule="evenodd" clip-rule="evenodd" d="M46.6489 38.8706C45.792 39.4152 44.8355 39.9931 43.9305 40.3681C43.07 40.7247 41.8445 41.0204 41.042 41.3636C42.164 41.6188 42.9975 41.8028 44.0028 42.0352C45.0614 42.2796 46.1834 42.293 47.344 42.2664C50.3429 41.9942 51.1676 41.8521 53.4358 41.068C54.9811 40.1354 55.3136 37.4329 55.0746 35.3299C54.9736 34.4345 54.6506 33.1933 54.406 32.4206C54.0974 31.4473 53.3943 29.7516 52.8706 28.8693C52.3726 29.1236 52.3133 29.2672 51.9627 29.8953C50.4103 32.6797 53.6536 35.0006 53.7634 37.812C52.1246 38.78 49.068 38.9612 46.6489 38.8706Z" fill="#C43025"/>
<path fill-rule="evenodd" clip-rule="evenodd" d="M47.7217 16.5197C48.9472 16.4269 50.9554 15.8359 52.109 16.6818C51.5194 17.8253 50.1459 17.6087 49.2765 18.7105C50.7574 18.9314 51.7603 18.3235 52.6429 17.6593C53.6353 16.9122 54.3537 16.2421 54.3222 14.7683C52.1553 14.1206 48.0542 13.9282 47.7217 16.5197Z" fill="#C43025"/>
<path fill-rule="evenodd" clip-rule="evenodd" d="M48.4209 23.2694C48.6614 24.1363 50.4689 25.5757 50.7316 25.5689C51.6056 24.9212 52.1715 24.18 53.0572 23.557C52.8385 22.9008 51.3563 21.3066 50.7316 21.0676C50.3671 21.3102 48.7869 22.7831 48.4209 23.2694Z" fill="#C43025"/>
<path fill-rule="evenodd" clip-rule="evenodd" d="M23.7926 29.3092C24.3439 29.0783 25.8504 27.5268 26.057 27.0337C25.745 26.3381 24.4672 25.0257 23.8146 24.7576C23.3303 25.0403 21.8032 26.5593 21.5957 27.0337L23.7926 29.3092Z" fill="#35388A"/>
<path fill-rule="evenodd" clip-rule="evenodd" d="M62.4904 43.8175C63.0668 43.1632 63.1188 41.4785 63.2936 40.468C63.621 34.4909 61.8688 27.7588 60.8118 21.5767C60.2566 21.8564 59.5533 23.4352 59.2776 24.1376C58.9268 25.0318 59.2056 26.6629 59.6377 28.4541C60.9707 33.9863 61.9397 38.005 62.4904 43.8175Z" fill="#35388A"/>
<path fill-rule="evenodd" clip-rule="evenodd" d="M56.5513 19.4055C57.1443 19.852 57.5471 19.8376 58.3235 20.2195C57.6743 20.5363 57.5728 20.8503 57.3086 21.6464C57.7559 21.4032 58.0212 21.0444 58.7287 20.7043C60.5595 19.8249 63.0616 20.062 63.5886 17.9659C62.3472 17.8797 59.0793 19.5237 58.4358 17.5474C59.6081 16.4359 59.2846 18.2288 60.7521 17.4937C61.7538 16.992 61.8766 15.704 60.3141 15.8685C58.8484 16.0228 56.5374 18.1155 56.5513 19.4055Z" fill="#35388A"/>
<path fill-rule="evenodd" clip-rule="evenodd" d="M61.6758 13C60.3113 13.3081 58.2697 13.8491 56.7226 14.246C56.0857 14.4094 55.9558 14.8996 55.8501 15.3671C57.0576 14.9665 59.462 14.497 60.9229 14.0278C61.5882 13.8142 61.4846 13.6081 61.6758 13Z" fill="#35388A"/>
<path fill-rule="evenodd" clip-rule="evenodd" d="M34.2627 22.3378C36.2802 21.3444 41.1577 19.5047 42.3893 18.534C42.9665 18.0794 43.1456 17.545 43.2142 16.9755C41.7219 17.4481 38.1078 18.9737 35.1599 20.4682C34.1946 20.9577 34.2927 21.7292 34.2627 22.3378Z" fill="#35388A"/>
<path fill-rule="evenodd" clip-rule="evenodd" d="M13.5928 22.3378C15.6103 21.3444 20.4878 19.5047 21.7194 18.534C22.2965 18.0794 22.4757 17.545 22.5443 16.9755C21.0522 17.4481 17.4378 18.9737 14.49 20.4682C13.5244 20.9577 13.6228 21.7292 13.5928 22.3378Z" fill="#35388A"/>
<path fill-rule="evenodd" clip-rule="evenodd" d="M39.9338 26.8752C40.3842 26.6865 41.6163 25.4182 41.785 25.0152C41.5296 24.4466 40.4853 23.3736 39.9518 23.1547C39.5559 23.3859 38.3076 24.6273 38.1382 25.0152L39.9338 26.8752Z" fill="#35388A"/>
<path fill-rule="evenodd" clip-rule="evenodd" d="M43.8317 26.8752C44.2821 26.6865 45.5138 25.4182 45.683 25.0152C45.4276 24.4466 44.3832 23.3736 43.8498 23.1547C43.4538 23.3859 42.2056 24.6273 42.0361 25.0152L43.8317 26.8752Z" fill="#C43025"/>
</svg>
