<svg width="63" height="60" viewBox="0 0 63 60" fill="none" xmlns="http://www.w3.org/2000/svg">
<path fill-rule="evenodd" clip-rule="evenodd" d="M36.1628 31.3388C36.7291 31.3122 37.2153 30.8357 37.9839 30.622C39.4559 30.2131 41.1677 30.7777 42.5269 31.2572C43.5547 31.6197 44.0937 31.8272 44.4099 32.1207C42.5389 33.1523 39.9035 33.9748 37.6828 33.7848C36.1693 33.6552 36.4765 33.3001 35.61 32.7712C34.8732 33.5232 35.0475 34.0459 34.5683 34.7714C33.7288 34.8038 33.0204 34.7005 32.3795 34.2776L32.4007 32.607C31.0924 33.0838 30.9482 35.6244 27.852 34.9271C27.8394 34.218 28.1418 33.7034 27.7973 33.2038C27.06 34.0941 26.9148 34.5026 25.6792 34.9565C24.6904 35.3199 23.2546 35.4586 22.0677 35.4631C20.876 35.4675 19.6641 35.3428 18.8111 34.7725C17.5152 33.906 17.7138 33.4554 17.7728 31.671C17.3114 31.8718 17.2605 31.9489 16.9928 32.6446C16.3659 34.2753 16.0774 34.528 14.5511 34.9439C11.193 35.8592 7.21037 36.7329 3.86032 35.3349C1.10161 34.1837 1.41056 32.7089 1.4932 31.1523C0.705283 31.7617 -2.91971 38.2214 5.15017 39.2085C8.35407 39.6004 11.4834 39.3472 14.3692 37.9883C15.3908 37.5069 15.9553 36.8628 16.6852 36.6627C17.0229 36.9534 17.5875 37.6577 18.0212 37.9286C18.955 38.5121 21.1508 38.8131 22.2479 38.8189C23.2801 38.8245 24.3767 38.1564 25.2002 38.3277C28.5424 39.0217 29.2425 38.3252 30.5251 37.4869C32.6693 38.932 34.2672 38.3809 35.61 36.4844C35.9029 36.6033 36.1428 36.7928 37.1689 36.8208C40.8067 36.9169 44.8715 33.9321 48.0552 33.7974C47.7075 35.2714 47.2481 36.0755 48.4193 37.3726C49.831 38.9353 53.406 39.0681 55.3495 38.7863C58.2179 38.3706 60.8188 36.7991 61.245 33.4974C61.4312 32.0541 60.9048 28.4765 60.0905 27.4053C59.2064 28.1245 58.5667 28.9917 58.7295 30.6206C59.1817 31.8342 59.6199 32.497 59.6433 33.8508C57.9184 35.0649 56.8627 35.3533 54.1277 35.6696C52.0461 35.9104 49.2196 35.8237 49.3245 33.4265L53.3222 33.3477C53.748 32.4206 54.5708 31.271 54.7064 30.3252C51.9625 30.241 50.2615 29.9569 47.7764 29.2339C46.7642 28.9395 45.7322 28.5835 44.7146 28.2874C42.5796 27.6037 40.4681 26.3772 38.4049 28.0058C37.5002 28.7204 36.5447 30.2033 36.1628 31.3388Z" fill="#211D21"/>
<path fill-rule="evenodd" clip-rule="evenodd" d="M47.6402 18.1852C45.802 17.5441 42.5734 17.096 42.0151 19.7716C42.9969 19.625 44.2318 19.0137 45.2792 19.5394C44.8515 20.7258 43.9537 20.4241 42.7994 21.4082C44.6676 21.3231 47.347 20.4041 47.6402 18.1852Z" fill="#211D21"/>
<path fill-rule="evenodd" clip-rule="evenodd" d="M7.86182 43.6237C8.13586 44.195 9.54483 45.3493 10.1839 45.8402C10.8047 45.0578 11.7169 44.3477 12.3457 43.5274C11.6996 42.717 10.5994 41.8158 10.1535 41.3292C9.40117 41.982 8.38311 43.0721 7.86182 43.6237Z" fill="#211D21"/>
<path fill-rule="evenodd" clip-rule="evenodd" d="M53.1426 43.6237C53.4166 44.195 54.8256 45.3493 55.4644 45.8402C56.0855 45.0578 56.9977 44.3477 57.6266 43.5274C56.9804 42.717 55.8799 41.8158 55.4343 41.3292C54.6819 41.982 53.6639 43.0721 53.1426 43.6237Z" fill="#211D21"/>
<path fill-rule="evenodd" clip-rule="evenodd" d="M57.6104 43.6237C57.8848 44.195 59.2934 45.3493 59.9324 45.8402C60.5533 45.0578 61.4655 44.3477 62.0946 43.5274C61.4484 42.717 60.3479 41.8158 59.9023 41.3292C59.1501 41.982 58.1319 43.0721 57.6104 43.6237Z" fill="#211D21"/>
<path fill-rule="evenodd" clip-rule="evenodd" d="M53.4922 22.775C55.3535 21.8264 59.852 20.0696 60.9883 19.1427C61.5204 18.7086 61.6861 18.1982 61.749 17.6544C60.3726 18.1057 57.0388 19.5625 54.3202 20.9897C53.4296 21.4571 53.5199 22.1938 53.4922 22.775Z" fill="#211D21"/>
<path fill-rule="evenodd" clip-rule="evenodd" d="M26.314 22.775C28.1749 21.8264 32.6738 20.0696 33.8099 19.1427C34.3422 18.7086 34.5075 18.1982 34.5707 17.6544C33.1942 18.1057 29.8604 19.5625 27.1417 20.9897C26.2511 21.4571 26.3414 22.1938 26.314 22.775Z" fill="#211D21"/>
<path fill-rule="evenodd" clip-rule="evenodd" d="M12.382 19.0626C11.4842 18.9848 11.0104 18.7377 10.9667 17.8322C11.9424 17.4688 12.45 17.5249 12.382 19.0626ZM9.44446 19.5979C9.9196 20.4166 10.4468 20.5031 10.7616 20.9708C10.2267 21.7954 6.56415 24.3343 5.65576 24.6796C5.90774 24.8558 5.90526 24.9614 6.51123 24.6847C8.15349 23.8622 9.34065 23.2372 10.7721 22.0336C12.0397 20.968 11.3225 21.8177 12.5727 21.7375C13.0505 21.2251 13.1336 21.0006 13.1559 20.7437C13.1877 20.3539 13.0947 20.2385 13.1093 19.7142C13.496 19.1265 14.8786 17.5781 13.4887 16.1865C12.4554 15.1522 10.4918 16.6388 9.86758 17.3301C9.23594 18.1628 8.79076 18.4707 9.44446 19.5979Z" fill="#211D21"/>
</svg>
