<svg width="50" height="60" viewBox="0 0 50 60" fill="none" xmlns="http://www.w3.org/2000/svg">
<path fill-rule="evenodd" clip-rule="evenodd" d="M43.655 29.8943C44.569 31.1809 45.4196 32.6326 45.2682 34.631C44.5632 35.27 43.7415 35.6479 42.8134 35.8475C41.689 36.0896 40.6412 35.9314 39.6297 35.7494C39.7742 34.3332 40.9565 33.5537 41.0421 32.0807C41.1588 30.0669 36.3226 28.493 34.8298 30.3038C34.2518 31.0053 33.505 32.6622 33.5745 33.7331C34.1274 33.9647 35.0098 33.9982 36.255 34.5538C35.91 35.5025 34.6299 35.4564 33.5626 35.7271C32.5312 35.9447 31.5459 36.0525 30.5687 35.7739C27.9832 35.0363 27.5938 34.4569 26.2148 33.1167C25.5702 34.0751 24.816 35.0848 24.8429 35.6041C24.9156 36.433 25.6932 36.9741 26.3772 37.8641C26.0001 40.0584 23.4335 42.3051 21.7012 43.2755C19.74 44.3744 18.027 44.6733 15.3218 44.7112C16.1946 46.5135 21.7675 46.2148 23.4807 45.2263C25.7014 43.9445 26.8853 41.5592 27.6661 38.7393C30.623 39.0217 29.978 40.1255 35.2574 38.7105C36.0007 38.374 36.7599 38.1423 37.4482 37.7714C38.459 37.2272 38.4956 37.1489 39.5801 37.64C40.7785 38.1828 42.8322 38.7929 44.2699 38.1057C45.4878 37.5239 46.2015 35.7213 46.5357 34.237C47.1019 31.7219 46.242 27.9841 44.368 26.2283C44.3325 26.2641 44.2927 26.3154 44.271 26.3455C43.9288 26.9975 43.2112 28.4978 43.3202 29.1683C43.3557 29.3866 43.4653 29.5947 43.655 29.8943Z" fill="#35388A"/>
<path fill-rule="evenodd" clip-rule="evenodd" d="M18.3821 29.8425C16.8142 30.3849 14.0927 29.6361 15.5974 28.1176C16.6435 27.0616 18.4135 29.0059 18.3821 29.8425ZM0.519021 37.6157C1.20518 39.1652 3.5684 40.433 5.3087 40.6308C9.9929 41.1636 15.4263 39.6978 19.5304 37.2038C19.8452 37.0126 20.1967 36.6135 20.6747 35.5398C21.7895 33.0358 21.9658 29.9171 20.4967 27.4369C20.3121 27.1252 20.1495 26.8594 20.005 26.6299C19.3938 25.6601 18.8324 24.5989 17.8144 24.2376C15.138 24.0288 13.9318 28.5165 13.3949 30.9766C13.0174 32.7076 14.6102 33.2991 16.0384 33.5488C18.838 34.0387 18.8974 32.3504 19.4854 31.7685C19.7557 32.4229 20.029 33.0903 19.9439 33.9127C18.8395 34.6452 15.9764 35.6241 14.6024 36.0334C10.704 37.1945 6.59503 38.2186 2.91711 35.5509C0.280555 33.6385 1.91863 31.7363 2.12807 30.1407C1.56017 29.8127 -0.483142 35.3515 0.519021 37.6157Z" fill="#35388A"/>
<path fill-rule="evenodd" clip-rule="evenodd" d="M34.0954 21.4256C35.6676 21.1996 38.2061 19.2364 38.0614 17.5371C35.9215 16.9505 33.7125 16.78 33.1372 19.2653C34.1413 19.0169 35.0241 18.7868 36.1638 19.1845C36.0757 20.6002 34.5855 19.7778 34.0954 21.4256Z" fill="#35388A"/>
<path fill-rule="evenodd" clip-rule="evenodd" d="M44.5059 22.0581C44.9427 22.665 45.8851 23.8932 46.5386 24.1336C47.2466 23.7513 48.1047 22.6664 48.4697 22.0581C48.2505 21.341 46.8806 20.0537 46.5386 19.8482C46.1353 20.0705 44.7118 21.4573 44.5059 22.0581Z" fill="#35388A"/>
<path fill-rule="evenodd" clip-rule="evenodd" d="M14.1602 20.326L16.2275 22.4768C16.7956 22.1979 18.0592 20.7198 18.2557 20.1981C18.0027 19.6546 16.7768 18.1692 16.1459 17.964C15.4166 18.4959 14.3395 19.3928 14.1602 20.326Z" fill="#35388A"/>
<path fill-rule="evenodd" clip-rule="evenodd" d="M40.4585 22.0581C40.8954 22.665 41.8377 23.8932 42.4912 24.1336C43.1992 23.7513 44.0574 22.6664 44.4223 22.0581C44.2031 21.341 42.8332 20.0537 42.4912 19.8482C42.0879 20.0705 40.6645 21.4573 40.4585 22.0581Z" fill="#35388A"/>
<path fill-rule="evenodd" clip-rule="evenodd" d="M23.4555 49.6217C25.196 48.5726 29.4299 46.5717 30.4756 45.5843C30.9651 45.1217 31.099 44.6033 31.1327 44.0573C29.8332 44.5835 26.7028 46.2208 24.162 47.7945C23.3299 48.3098 23.4531 49.0402 23.4555 49.6217Z" fill="#35388A"/>
<path fill-rule="evenodd" clip-rule="evenodd" d="M40.0137 19.4275C41.804 18.4795 46.1308 16.7239 47.224 15.7976C47.7355 15.3638 47.895 14.8539 47.9554 14.3104C46.6318 14.7614 43.425 16.2172 40.8099 17.6434C39.9532 18.1105 40.0403 18.8467 40.0137 19.4275Z" fill="#35388A"/>
<path fill-rule="evenodd" clip-rule="evenodd" d="M9.28205 18.6464C8.4185 18.5686 7.9628 18.3216 7.92078 17.4168C8.85926 17.0536 9.34746 17.1097 9.28205 18.6464ZM6.45663 19.1813C6.91364 19.9995 7.42067 20.0859 7.72347 20.5532C7.20928 21.3772 3.68622 23.9145 2.8125 24.2595C3.05486 24.4356 3.05248 24.5411 3.63511 24.2646C5.2147 23.4427 6.35678 22.8181 7.73365 21.6153C8.95283 20.5504 8.26299 21.3996 9.46528 21.3194C9.9251 20.8074 10.005 20.583 10.0267 20.3263C10.057 19.9368 9.96777 19.8214 9.98164 19.2975C10.3535 18.7102 11.6834 17.1628 10.3466 15.7722C9.35266 14.7386 7.46377 16.2242 6.8636 16.915C6.25606 17.7471 5.82787 18.0549 6.45663 19.1813Z" fill="#35388A"/>
</svg>
