<svg width="54" height="60" viewBox="0 0 54 60" fill="none" xmlns="http://www.w3.org/2000/svg">
<path fill-rule="evenodd" clip-rule="evenodd" d="M12.0323 35.4569C12.7976 35.9939 13.8394 36.2299 14.8882 36.3587C16.2546 36.527 16.7963 36.491 17.9989 37.1282C16.1809 38.8839 10.5032 41.0263 6.85784 40.494C4.79989 40.1934 3.04511 39.1103 2.59468 37.3821C1.88451 34.6583 3.42995 33.3217 3.95412 31.4458C2.39304 32.2638 -0.211484 36.5057 0.692864 39.7847C1.07164 41.1563 2.65956 42.5692 3.91257 43.2173C4.51283 43.5279 5.02392 43.7431 5.75183 43.8857C9.30271 44.5818 14.5993 42.4427 17.3044 40.117C18.3331 39.2323 22.3839 35.5372 20.4735 34.0314C18.6405 32.5863 13.7537 34.2772 12.9192 31.1905C13.3087 30.4035 14.8553 28.9986 15.9102 28.4618C18.3063 27.2431 18.7742 29.1025 20.0741 29.4481C20.7752 28.8789 21.4681 27.7376 21.4922 26.5124C20.069 24.5651 18.1824 25.1854 16.235 26.4452C15.3694 27.0053 14.7729 27.512 14.1414 28.1376C12.6214 29.642 9.62805 33.7703 12.0323 35.4569Z" fill="#211D21"/>
<path fill-rule="evenodd" clip-rule="evenodd" d="M33.7444 36.3029C34.1409 35.5008 34.5734 34.5673 34.7323 33.391C34.6933 31.8881 33.5397 26.1114 32.8501 25.2589C32.7535 25.4015 31.5135 26.7248 31.7021 27.6081C32.0149 29.649 33.4637 32.5947 33.3227 34.0695C32.2485 35.126 30.5081 36.0161 28.8939 36.4278C27.9253 36.6745 26.9738 36.8044 25.8464 36.6864C23.9422 36.4868 24.7313 36.1104 24.2319 34.9624C23.4202 37.1755 21.464 40.6557 27.4579 39.9754C30.2297 39.6608 32.5465 38.2544 33.7444 36.3029Z" fill="#211D21"/>
<path fill-rule="evenodd" clip-rule="evenodd" d="M34.7325 33.391C34.5736 34.5672 34.1411 35.5008 33.7446 36.3029C33.9332 36.3563 33.9934 36.3584 34.0156 36.3755C34.1253 36.4611 34.4009 38.0642 35.3743 38.748C37.4311 40.1952 41.4221 39.4026 43.3029 37.3242C44.0817 36.4632 43.7361 36.4355 44.3356 36.281C44.464 35.5437 44.5578 35.5276 44.8323 34.8751C45.0332 34.3957 45.5301 34.462 45.5028 34.0921C45.4823 33.8195 45.3175 33.1123 45.0864 32.7088C42.7139 34.7222 40.6517 37.916 36.6581 35.8618C35.308 35.1668 35.3125 34.6151 34.7325 33.391Z" fill="#288743"/>
<path fill-rule="evenodd" clip-rule="evenodd" d="M45.4678 33.9127C44.9203 34.1617 44.4391 35.6833 44.3354 36.281C45.3978 38.9453 49.6012 38.5779 50.3707 37.7422C51.6776 36.3239 51.6309 32.4762 50.9266 30.5793C50.4818 30.7886 49.9242 31.4052 49.6325 31.9387C49.387 32.9362 49.7853 34.1215 49.6507 35.0352C47.6259 35.5087 46.6982 35.0345 45.4678 33.9127Z" fill="#211D21"/>
<path fill-rule="evenodd" clip-rule="evenodd" d="M51.6048 22.263C50.6739 22.185 50.1828 21.9377 50.1376 21.0312C51.1493 20.6674 51.6748 20.7236 51.6048 22.263ZM48.5599 22.7988C49.0524 23.6185 49.5987 23.705 49.9254 24.1732C49.3711 24.9987 45.575 27.5404 44.6333 27.8861C44.8945 28.0625 44.8924 28.1682 45.5199 27.8912C47.222 27.0678 48.4523 26.4421 49.9359 25.2372C51.2496 24.1704 50.5068 25.0211 51.802 24.9408C52.2973 24.4278 52.3834 24.2031 52.407 23.9459C52.4396 23.5557 52.3435 23.4402 52.3586 22.9153C52.7594 22.3269 54.1923 20.7768 52.7514 19.3838C51.6807 18.3483 49.6454 19.8365 48.9984 20.5285C48.3438 21.3621 47.8827 21.6704 48.5599 22.7988Z" fill="#211D21"/>
<path fill-rule="evenodd" clip-rule="evenodd" d="M11.5947 25.5887C12.0893 25.3861 13.1803 24.7191 13.3766 24.7121C13.5017 24.3917 13.4305 24.1489 13.2718 23.8789C12.8741 23.8913 8.82754 25.9039 7.26366 23.4535C7.47954 23.035 8.12203 22.6217 8.76522 22.5549C9.42312 22.4866 9.63294 22.8215 10.0038 23.1076L10.2351 23.2731C10.611 23.5426 11.3994 22.3146 11.5187 22.014C10.2113 19.212 5.78288 22.9725 5.80738 25.0729C6.38126 25.8232 6.64987 25.809 7.19761 26.3324C6.60716 27.0351 5.96351 27.0046 5.66455 28.1332C7.55353 27.371 9.60236 26.4043 11.5947 25.5887Z" fill="#211D21"/>
<path fill-rule="evenodd" clip-rule="evenodd" d="M43.9775 43.9444C44.3099 44.709 45.5225 45.7986 46.166 46.1525C46.7688 45.8288 48.0701 44.5727 48.3483 43.9652C48.0164 43.4957 46.7405 42.177 46.166 41.8809L43.9775 43.9444Z" fill="#211D21"/>
<path fill-rule="evenodd" clip-rule="evenodd" d="M48.8779 43.9652C49.1423 44.6073 50.5529 45.8839 51.0239 46.1637L53.2057 44.1937C52.9437 43.3239 51.9065 42.6065 51.204 41.8688C50.5284 42.0464 49.347 43.4159 48.8779 43.9652Z" fill="#211D21"/>
<path fill-rule="evenodd" clip-rule="evenodd" d="M36.1929 44.1452C36.4263 44.5599 38.024 45.9202 38.4282 46.1807C39.0044 45.9109 40.1741 44.7153 40.5512 44.1452C40.2535 43.5136 38.9232 42.2466 38.4282 42.0163L36.1929 44.1452Z" fill="#288743"/>
<path fill-rule="evenodd" clip-rule="evenodd" d="M39.3325 21.4744C40.4908 21.3502 41.0439 21.0452 42.6215 21.834C42.4495 22.7388 40.5003 23.2749 39.7145 23.6334C40.0903 23.8707 40.7307 23.7372 41.2327 23.5617C42.3326 23.1776 44.5528 21.602 44.3269 20.5929C43.3586 19.345 40.204 19.8097 39.3325 21.4744Z" fill="#288743"/>
<path fill-rule="evenodd" clip-rule="evenodd" d="M24.4844 46.5583C25.3112 46.4313 27.699 45.6178 28.597 45.2878C29.9053 44.807 31.0697 44.052 31.4085 42.7001L25.6688 44.8906C24.9077 45.1954 24.5836 45.5501 24.4844 46.5583Z" fill="#211D21"/>
<path fill-rule="evenodd" clip-rule="evenodd" d="M8.99815 17.0145C8.06743 16.9366 7.57639 16.6892 7.53112 15.7827C8.54235 15.4189 9.0684 15.4751 8.99815 17.0145ZM5.95347 17.5504C6.44591 18.37 6.99226 18.4566 7.31852 18.9247C6.76424 19.7502 2.96854 22.2919 2.02686 22.6376C2.28801 22.814 2.28545 22.9197 2.91347 22.6427C4.61551 21.8193 5.84565 21.1936 7.32948 19.9887C8.64295 18.9219 7.9001 19.7726 9.19559 19.6923C9.69082 19.1793 9.77695 18.9546 9.80005 18.6974C9.83273 18.3072 9.73657 18.1917 9.75174 17.6668C10.1527 17.0784 11.5854 15.5283 10.1447 14.1353C9.07423 13.0998 7.03893 14.5881 6.39177 15.28C5.73737 16.1137 5.27621 16.422 5.95347 17.5504Z" fill="#211D21"/>
</svg>
