<svg width="61" height="60" viewBox="0 0 61 60" fill="none" xmlns="http://www.w3.org/2000/svg">
<path fill-rule="evenodd" clip-rule="evenodd" d="M38.2478 35.3002C38.1764 35.0794 37.9767 35.0522 37.6765 35.2746C36.889 36.9716 35.857 37.4717 33.7611 37.9075L33.2416 38.052C33.1739 38.0639 33.1265 38.0677 33.0557 38.0769C32.0999 38.2027 24.6019 40.4206 24.8206 40.6767C28.0084 41.4643 32.0052 41.0417 35.0438 40.3199C35.123 40.5288 35.037 40.477 35.4386 40.8891C38.0638 40.9678 40.7475 40.5975 41.7005 39.1874C42.5879 39.4477 43.1508 39.8876 44.7135 39.6706C45.8659 38.7833 46.675 35.9071 46.4991 34.2209C45.0644 34.5666 45.7511 35.7671 44.3184 36.401C42.9809 36.1371 43.1847 35.5498 42.9374 34.8117C42.1351 35.6339 42.153 36.7814 40.6245 37.3726C39.5618 37.7839 37.1113 38.4642 37.6619 36.9055C37.8515 36.369 38.087 35.7635 38.2478 35.3002Z" fill="#211D21"/>
<path fill-rule="evenodd" clip-rule="evenodd" d="M21.1254 37.6792C21.35 36.7572 23.9606 35.1059 25.2578 34.8262C26.9535 34.4595 30.7207 35.082 31.25 36.0738C29.8559 37.0948 23.6167 37.9997 21.1254 37.6792ZM20.05 31.061C20.1346 32.825 20.1262 34.1286 20.0327 35.0827C19.7134 38.3169 18.4053 37.5406 16.3498 37.1012C16.266 38.3578 16.8088 39.6484 16.3985 40.8631C17.4162 40.5348 19.1359 40.8839 20.4373 40.9133C25.2914 41.022 38.4584 38.8972 33.9813 33.6387C33.1725 32.6898 30.8767 32.0123 29.3692 31.8325C24.0457 31.1979 22.3265 35.1313 20.7695 35.7784C20.7647 33.7427 21.1501 31.4859 21.1554 29.2308C21.1604 27.0968 20.4376 25.4635 22.5752 23.9768C22.4204 22.0469 20.9243 23.5168 20.639 21.1139C19.6151 21.427 19.2443 22.8265 19.16 23.9157C19.027 25.625 19.9461 28.876 20.05 31.061Z" fill="#247738"/>
<path fill-rule="evenodd" clip-rule="evenodd" d="M52.5857 35.5764C53.3071 35.8019 53.4472 35.9802 53.6782 36.4988C52.4149 36.8683 51.8607 36.725 51.2703 35.9066C51.5319 35.4307 51.8797 35.3558 52.5857 35.5764ZM42.0918 44.5198C43.0624 45.3944 43.8242 45.6938 45.2734 45.9446C46.4465 46.1479 48.5836 46.1519 49.641 45.7603C51.2289 45.1724 53.7477 42.9441 54.4912 41.6327C55.524 40.0944 56.701 37.248 56.3689 35.0671C56.2272 34.1371 55.0739 33.077 54.4892 32.6468C51.083 30.1428 48.7446 37.258 49.5693 38.8032C49.8967 39.4167 51.4983 40.3715 52.6902 40.0003C53.7883 39.6585 53.8221 38.3779 54.5794 37.7358C55.8026 39.7478 51.5904 42.9647 47.2685 44.2813C45.4426 44.8372 43.4895 44.5868 42.0918 44.5198Z" fill="#211D21"/>
<path fill-rule="evenodd" clip-rule="evenodd" d="M2.78205 38.6561C2.53253 39.448 -2.06501 45.3212 1.92315 47.7333C5.23415 49.7355 11.6399 47.6211 13.2513 46.5191C14.3841 45.7445 15.7466 44.0337 16.2294 42.3374C16.7813 40.3962 16.6884 39.1521 16.3498 37.1012C15.839 36.3872 15.084 35.5209 14.6524 34.8451C13.87 35.7498 12.9108 36.2963 12.8895 36.6101C13.1556 37.7929 16.9779 41.5697 13.2687 43.6943C9.29035 45.9724 0.383452 47.7158 1.96376 41.6543C2.411 39.9392 2.9302 39.3651 2.78205 38.6561Z" fill="#211D21"/>
<path fill-rule="evenodd" clip-rule="evenodd" d="M30.5315 22.5342C28.6551 21.8972 25.1834 21.7331 24.9717 23.8645C26.2994 23.6681 26.4856 23.5447 28.0343 23.6779C27.5238 24.6029 26.615 24.5095 25.8101 25.3398C27.608 25.3116 30.4668 24.266 30.5315 22.5342Z" fill="#307647"/>
<path fill-rule="evenodd" clip-rule="evenodd" d="M6.51514 31.1995C6.75962 31.9163 8.12372 32.8655 8.79947 33.4009C9.68694 33.028 10.3131 32.1305 11.1062 31.588C10.7298 30.6739 9.5696 30.0637 8.7359 29.4535L6.51514 31.1995Z" fill="#211D21"/>
<path fill-rule="evenodd" clip-rule="evenodd" d="M51.1787 24.9807C52.6604 24.4716 56.981 23.323 59.1878 22.433C60.1976 22.0258 60.1007 21.5919 60.2371 21.1041C59.2522 21.3886 55.9919 22.3729 52.2216 23.6707C51.5002 23.9187 51.3123 24.5342 51.1787 24.9807Z" fill="#221F23"/>
<path fill-rule="evenodd" clip-rule="evenodd" d="M34.2393 24.9807C35.721 24.4716 40.0416 23.323 42.2486 22.433C43.2587 22.0258 43.1616 21.5919 43.2979 21.1041C42.3127 21.3886 39.0527 22.3729 35.2824 23.6707C34.5608 23.9187 34.3728 24.5342 34.2393 24.9807Z" fill="#221F23"/>
<path fill-rule="evenodd" clip-rule="evenodd" d="M3.40088 24.9807C4.88261 24.4716 9.20318 23.323 11.4102 22.433C12.4198 22.0258 12.3232 21.5919 12.459 21.1041C11.4744 21.3886 8.21433 22.3729 4.44349 23.6707C3.72237 23.9187 3.53446 24.5342 3.40088 24.9807Z" fill="#221F23"/>
</svg>
