<svg width="45" height="60" viewBox="0 0 45 60" fill="none" xmlns="http://www.w3.org/2000/svg">
<path fill-rule="evenodd" clip-rule="evenodd" d="M29.6294 33.5594C28.3629 33.6244 25.6817 33.0703 27.0628 31.9806C28.1545 31.119 29.575 32.8662 29.6294 33.5594ZM14.9978 37.5417C15.3476 38.2442 17.1831 38.0649 17.7638 39.0317C13.1532 41.1691 12.3488 38.4625 11.6249 38.0387C10.3663 38.7108 7.30409 41.3451 5.33822 39.6863C3.85648 38.4353 3.78957 35.2693 3.68018 33.0721C3.24012 29.3028 3.773 22.4043 2.64099 19.2554C1.70525 19.5732 0.930467 21.4568 0.97391 22.2589C1.04579 23.6071 1.33114 25.0548 1.42865 26.4538C1.62273 29.2397 1.6565 31.9689 1.96466 34.6908C2.4891 39.3199 2.16719 44.2183 7.14906 43.4268C8.94334 43.1418 9.26714 42.1707 10.5242 41.7419C14.1877 43.8923 15.1725 43.1037 19.5531 40.6882C20.3147 40.8725 20.3716 41.0837 21.1358 41.4218C23.9565 42.6699 28.0385 42.5837 30.9605 41.4078C32.6125 40.7427 32.7241 40.8563 33.3882 39.3616C34.3077 37.2916 34.2796 34.3263 33.3401 32.4149C32.8438 31.4053 30.1726 27.966 28.362 28.3271C26.379 28.7228 24.9134 33.8227 24.8456 34.9512C24.7572 36.4177 29.1599 38.9833 30.9261 35.0612C31.9171 35.5574 32.3856 36.8256 32.3106 37.9594C29.7566 39.3376 25.4188 39.3161 21.8781 39.042C22.2509 37.2414 23.032 37.2565 22.901 35.0602C19.5747 33.7957 14.6078 32.7446 14.9978 37.5417Z" fill="#211D21"/>
<path fill-rule="evenodd" clip-rule="evenodd" d="M26.9082 46.1098C28.3249 46.7366 33.2084 46.4125 35.013 46.1103C40.0554 45.2656 42.7908 40.9132 42.3729 37.1991C42.1595 35.2973 40.3189 33.0542 38.7118 32.4808L37.7877 35.3012C37.8577 35.8083 39.3172 36.8013 39.7251 37.2404C40.8912 38.4945 41.6447 38.7306 38.7916 41.7026C34.958 45.696 28.9288 45.4364 26.9082 46.1098Z" fill="#211D21"/>
<path fill-rule="evenodd" clip-rule="evenodd" d="M20.7397 21.2717C22.1724 20.8691 28.1322 19.1336 31.4651 18.0618C33.2135 17.4998 33.025 17.0496 33.1869 16.3998C30.6369 17.0549 25.3297 18.7092 22.1921 19.6969C21.2586 19.9909 21.0101 20.5212 20.7397 21.2717Z" fill="#211D21"/>
<path fill-rule="evenodd" clip-rule="evenodd" d="M16.5559 27.7563C17.7598 27.5224 19.0243 27.3976 20.1607 28.0421C19.6128 28.6335 18.6664 28.6539 17.862 29.2907C20.105 29.8065 22.5632 27.8137 22.7685 26.5521C20.5729 25.5055 16.4462 25.4194 16.5559 27.7563Z" fill="#211D21"/>
<path fill-rule="evenodd" clip-rule="evenodd" d="M25.3101 23.5717C25.6326 24.1853 27.129 25.409 27.9216 25.676L30.4078 23.6267C30.0487 23.2278 28.3191 21.7304 27.9216 21.5178C27.1765 21.7478 25.7939 22.9822 25.3101 23.5717Z" fill="#211D21"/>
<path fill-rule="evenodd" clip-rule="evenodd" d="M44.0648 19.2504C42.8206 19.528 38.9702 20.7744 37.7247 21.1942C36.0879 21.7465 36.4883 21.8602 35.9985 22.8518C36.9758 22.6435 40.2487 21.4798 42.1177 20.8532C43.6016 20.356 43.5541 20.0837 44.0648 19.2504Z" fill="#211D21"/>
<path fill-rule="evenodd" clip-rule="evenodd" d="M4.93799 21.2717C6.37097 20.8691 12.3304 19.1336 15.664 18.0618C17.4126 17.4998 17.2236 17.0496 17.3858 16.3998C14.8358 17.0549 9.52855 18.7092 6.39129 19.6969C5.45743 19.9909 5.20833 20.5212 4.93799 21.2717Z" fill="#211D21"/>
<path fill-rule="evenodd" clip-rule="evenodd" d="M7.23438 27.5137C7.55692 28.127 9.05275 29.3508 9.84597 29.618L12.3319 27.5687C11.9728 27.1697 10.2435 25.6724 9.84597 25.4595C9.10025 25.6898 7.71819 26.9239 7.23438 27.5137Z" fill="#211D21"/>
</svg>
