<svg width="77" height="60" viewBox="0 0 77 60" fill="none" xmlns="http://www.w3.org/2000/svg">
<path fill-rule="evenodd" clip-rule="evenodd" d="M29.5731 38.7359C29.8716 37.7727 30.6273 37.7406 31.7643 38.1488C32.5902 38.4452 33.0424 38.8797 33.2738 39.5906C32.0782 39.5689 30.2658 39.6944 29.5731 38.7359ZM43.3275 36.7684C43.8367 35.7073 44.5156 34.887 46.2702 34.9022C46.8188 35.5491 47.81 36.3786 47.6799 37.3872C47.139 37.6508 46.0906 38.014 45.1698 38.038C44.2661 38.0615 43.657 37.3786 43.3275 36.7684ZM32.6656 46.1674C37.4884 41.8766 32.2683 43.0092 41.7043 41.4962C43.8567 41.1511 43.103 41.4019 44.5684 41.8741C45.1093 42.0486 46.9385 42.3564 47.5651 42.4865C52.5096 43.5113 58.9164 41.3935 62.802 40.5226C64.9288 40.0458 66.5632 39.7942 68.8738 39.3765C71.1049 38.973 73.4367 39.1005 75.6138 39.04C75.7651 38.7275 76.5511 36.946 76.5943 36.6446C73.7404 36.2953 70.83 36.071 68.0925 35.7527C65.4818 35.4488 62.5748 34.9147 60.0199 34.5287C60.3577 33.9625 59.7858 34.3439 60.7035 33.9756C63.0248 33.0422 69.0419 33.3924 70.265 32.5524C71.0653 32.0025 71.7734 31.5087 71.95 30.5381C71.3827 30.043 70.3781 27.9615 67.1126 27.8249C66.7981 27.8649 64.7184 29.0314 64.3508 30.6871L64.2034 31.1916C62.9676 31.8748 59.4504 32.4542 57.7505 33.1178C56.1805 33.7308 54.9093 34.4745 54.0455 35.5649C53.2438 36.5762 53.6378 36.7121 53.6378 36.7121C53.6397 36.6888 53.6598 36.797 53.6815 36.8359C54.3349 37.0381 57.5822 37.0765 58.6309 37.2245C59.8829 37.4004 62.2843 37.6248 63.257 37.8968C62.7343 38.3601 60.9585 38.6693 60.0631 38.8557C56.0862 39.6827 52.7992 40.0879 48.5368 39.5149C48.5624 38.8694 49.1657 37.4853 49.3032 36.7477C49.8091 34.0265 48.7957 30.1095 44.5825 33.1239C43.2045 34.1103 42.3374 35.8946 41.6006 37.3074C40.9896 38.4797 41.4612 38.7403 39.7646 39.067C38.662 39.2792 37.4749 39.454 36.2917 39.3165C35.5475 38.0527 35.0358 36.3163 33.5734 35.4513C29.7231 33.1732 27.2196 40.5326 27.7866 41.5176C28.5294 42.8076 31.8917 42.3953 33.4829 42.759C33.0609 43.8171 30.1294 45.2384 28.6532 45.7176C26.4658 46.428 23.92 46.6788 21.2856 46.7396C21.498 46.8994 21.3762 46.8359 21.6895 46.9816C24.6686 48.3636 30.0251 48.5158 32.6656 46.1674ZM69.1819 30.677C69.0886 31.1073 67.7346 31.1092 66.9192 31.1273C66.4548 31.1376 66.4749 30.655 67.0405 30.1898C67.8892 29.4915 69.4152 29.5987 69.1819 30.677Z" fill="#35388A"/>
<path fill-rule="evenodd" clip-rule="evenodd" d="M9.39009 39.3551C9.95213 38.1779 13.4041 35.8467 14.9238 35.4034C16.8102 34.8533 21.6008 35.9937 22.4465 36.9325C21.1287 37.5389 11.3843 39.2715 9.39009 39.3551ZM8.98734 24.2203C7.30839 23.4234 7.77029 23.7992 7.21513 22.6522C7.16423 22.7309 7.11362 22.809 7.06272 22.8874C6.64924 23.6458 6.28583 24.3586 6.39477 25.2775C6.48996 26.0854 6.76753 27.4418 6.97606 28.2539C7.94002 32.0041 8.37826 33.1825 8.15296 37.2685C8.074 38.6984 7.71114 38.868 6.79532 39.5212C4.89821 40.8744 2.25887 40.8388 0 40.5195C0.370839 41.6988 3.16231 42.0076 4.35351 42.1354C7.97084 42.5233 12.2327 41.5462 15.5686 40.9149C18.0624 40.4432 23.6523 39.8263 24.8633 37.7534C25.4891 36.6828 25.8286 36.3144 25.5144 34.7586C14.2294 28.7491 12.745 35.0702 8.8652 37.4965C8.83576 37.1051 9.19615 35.2861 9.23879 33.2698C9.28996 30.8751 9.03576 28.2307 9.11719 27.786C9.28253 26.8864 11.1728 25.0562 8.98734 24.2203Z" fill="#35388A"/>
<path fill-rule="evenodd" clip-rule="evenodd" d="M54.8877 24.6507C56.5807 24.6376 56.4932 24.5599 58.0456 25.1275C57.365 25.7474 56.3215 26.1341 55.5914 26.6654C57.609 26.9132 60.0156 24.8447 60.0816 23.5374C57.6327 22.5578 55.7229 22.8882 54.8877 24.6507Z" fill="#35388A"/>
<path fill-rule="evenodd" clip-rule="evenodd" d="M44.4893 27.7509C44.6615 28.0245 46.0109 29.4082 46.8895 29.38C47.2736 29.3058 48.651 28.2053 48.8667 27.5868C48.4034 27.2289 47.2477 26.1566 46.7594 25.9263C46.0117 26.2718 44.9616 27.1784 44.4893 27.7509Z" fill="#35388A"/>
<path fill-rule="evenodd" clip-rule="evenodd" d="M62.8101 25.7043C64.1798 25.3115 69.1955 23.7536 71.2323 23.0148C73.0807 22.3448 72.8343 22.0442 73.1182 21.304C72.0827 21.5408 66.7003 23.1897 64.1603 24.1945C62.8742 24.7037 62.9936 25.1586 62.8101 25.7043Z" fill="#35388A"/>
<path fill-rule="evenodd" clip-rule="evenodd" d="M13.8994 27.7509C14.0716 28.0245 15.421 29.4082 16.2994 29.38C16.6837 29.3058 18.0614 28.2053 18.2771 27.5868C17.8136 27.2289 16.6584 26.1566 16.1698 25.9263C15.4221 26.2718 14.3718 27.1784 13.8994 27.7509Z" fill="#35388A"/>
<path fill-rule="evenodd" clip-rule="evenodd" d="M6.31836 46.4925C7.68782 46.0994 12.7035 44.5415 14.7404 43.8027C16.5891 43.1328 16.342 42.8321 16.6265 42.0919C15.5907 42.3288 10.208 43.9777 7.66856 44.9827C6.38246 45.4916 6.50158 45.9466 6.31836 46.4925Z" fill="#35388A"/>
<path fill-rule="evenodd" clip-rule="evenodd" d="M5.80225 49.304C7.17171 48.9112 12.1874 47.3533 14.2245 46.6144C16.0729 45.9445 15.8262 45.6438 16.1104 44.9036C15.0749 45.1405 9.6922 46.7894 7.15273 47.7942C5.86607 48.3033 5.98574 48.7583 5.80225 49.304Z" fill="#35388A"/>
<path fill-rule="evenodd" clip-rule="evenodd" d="M40.1905 27.7214C39.8232 28.4581 35.8579 30.5892 35.0488 31.1314C36.2439 30.975 38.626 29.7461 39.2519 29.3524C39.6161 29.123 40.8477 28.2106 40.9457 28.1798C42.212 27.7836 42.1539 28.7714 43.0015 27.0659C41.3878 25.565 43.3996 25.8226 42.6689 24.1937C42.5129 23.847 41.9701 23.3779 41.5377 23.299C40.8557 23.174 40.2851 23.5633 39.8769 23.8151C35.6689 26.4076 39.1305 26.9649 40.1905 27.7214ZM40.9393 24.9234C40.1916 24.9234 39.8144 25.5994 40.1072 25.8473C40.1996 25.9245 40.7044 26.1076 41.0205 26.1083C41.267 26.1088 41.5162 24.9234 40.9393 24.9234Z" fill="#35388A"/>
</svg>
