<svg width="44" height="60" viewBox="0 0 44 60" fill="none" xmlns="http://www.w3.org/2000/svg">
<path fill-rule="evenodd" clip-rule="evenodd" d="M37.253 29.3723C37.4434 27.4452 39.7896 28.6683 40.0779 30.0902C38.8446 30.3166 37.8009 30.235 37.253 29.3723ZM27.1671 44.3853L25.0552 44.5085C25.5588 45.3928 26.5511 45.653 27.9188 45.7459C32.824 46.0793 34.0622 42.6119 35.2472 38.6058C36.9363 38.1616 38.4852 38.3775 40.3054 37.748C42.1455 37.1112 42.5649 36.8286 42.9882 34.7555C43.779 30.8834 43.0568 28.3424 40.9719 26.0038C38.0719 22.7517 36.3687 27.2563 35.9183 29.9686C35.5587 32.1343 35.4706 32.9921 37.5458 33.5968C38.3937 33.844 39.4265 34.0434 40.0636 33.5406C40.3854 33.2863 40.4802 32.94 40.6466 32.5982C40.8087 32.264 40.7047 32.415 40.9198 32.1006C41.1159 31.8131 41.037 31.9363 41.214 31.7601C41.2448 31.7996 41.2807 31.8555 41.2983 31.8844L41.4523 32.1389C41.4725 32.1781 41.4979 32.2281 41.5177 32.27L41.6082 32.9675C41.8478 34.8082 38.7108 35.0852 37.2335 35.2546C36.2806 35.364 35.2148 35.3621 34.2959 35.1462C33.4052 34.9368 32.8308 34.4657 32.1245 34.3449C31.7622 35.1627 31.1654 35.9735 31.7571 37.1293C32.2072 38.0074 33.0674 37.9063 33.9288 38.4839C34.0557 40.4497 31.1411 43.7775 27.1671 44.3853Z" fill="#201E21"/>
<path fill-rule="evenodd" clip-rule="evenodd" d="M3.29618 46.224C6.1149 46.9556 11.3665 45.4399 13.1121 42.8422C14.7307 40.4328 14.5273 36.7455 13.8578 33.9751C13.6441 33.0914 13.2958 31.6165 12.5491 31.0478C11.9342 31.8043 11.4643 33.7303 11.5997 34.6597C11.718 35.4724 12.0574 35.6543 12.2838 36.2578C13.1046 38.4462 14.0137 40.2075 12.3986 41.189C10.1507 42.5542 4.7335 44.6643 2.39407 41.8056C0.411265 39.3835 3.01358 36.2386 2.86687 35.1088C1.92478 35.5216 1.15369 38.095 0.832458 39.2997C0.165669 41.7972 0.2724 45.4394 3.29618 46.224Z" fill="#221F22"/>
<path fill-rule="evenodd" clip-rule="evenodd" d="M20.8379 34.9899C21.6127 35.6434 21.6646 35.6661 22.6678 36.1238C22.3514 37.2115 22.0585 36.8441 21.6514 37.8048C22.4108 37.5835 24.0124 36.5617 24.8027 36.257C27.2083 35.3292 29.166 35.504 29.8636 32.7696C28.7853 32.8215 25.3782 34.7708 23.4097 32.4094C24.2507 31.7905 24.593 32.4286 25.078 32.9309C25.8231 32.692 26.2686 32.1444 26.7166 31.58C27.7635 30.2626 27.1424 29.5032 25.6486 29.5278C22.6975 30.2067 21.2745 31.8745 20.8379 34.9899Z" fill="#221F22"/>
<path fill-rule="evenodd" clip-rule="evenodd" d="M16.894 20.0717C16.8108 19.3781 16.7694 18.5006 16.9623 17.8749C15.8743 17.7558 15.4491 21.1016 15.4721 21.8616C15.5148 23.2819 15.8854 24.8492 16.2042 26.4656C16.4279 27.6017 17.477 36.1159 17.4849 36.1276C19.4425 31.3274 17.2547 25.1069 16.894 20.0717Z" fill="#222123"/>
<path fill-rule="evenodd" clip-rule="evenodd" d="M5.50342 28.2334C5.92057 28.8165 6.78512 29.8747 7.6132 30.2068C8.21596 29.8228 9.44335 28.63 9.65085 28.0435L7.65859 26.0855C6.83105 26.4846 5.82871 27.5845 5.50342 28.2334Z" fill="#221F22"/>
<path fill-rule="evenodd" clip-rule="evenodd" d="M28.9956 25.4836C30.2165 25.4804 30.591 25.3145 31.5936 25.6806C30.9368 26.7153 30.1093 25.907 29.5662 27.3319C31.3145 27.1989 33.5302 26.0031 33.658 24.0592C33.0174 23.905 32.339 23.7367 31.5336 23.6972C29.841 23.6137 29.4327 24.0984 28.9956 25.4836Z" fill="#221F22"/>
<path fill-rule="evenodd" clip-rule="evenodd" d="M34.7861 21.5414C35.1838 22.4219 36.1997 23.2962 36.8097 23.5947C37.567 23.3154 38.6083 22.2163 38.8974 21.5895C38.6121 21.2094 38.394 21.007 37.9988 20.5988C37.4303 20.0128 37.4055 19.8574 36.8097 19.6059L34.7861 21.5414Z" fill="#2B2A29"/>
<path fill-rule="evenodd" clip-rule="evenodd" d="M39.0303 21.5414C39.4282 22.4219 40.4444 23.2962 41.0541 23.5947C41.8112 23.3154 42.853 22.2163 43.142 21.5895C42.8565 21.2094 42.6384 21.007 42.2432 20.5988C41.675 20.0128 41.6502 19.8574 41.0541 19.6059L39.0303 21.5414Z" fill="#2B2A29"/>
<path fill-rule="evenodd" clip-rule="evenodd" d="M19.4507 22.0661C20.1783 21.8978 23.0748 20.622 24.6529 20.0444C26.3163 19.4351 26.3566 19.0039 26.5692 18.1829C25.4685 18.5333 22.2626 19.7323 20.4668 20.5872C19.4077 21.0913 19.6047 21.3782 19.4507 22.0661Z" fill="#2B2A29"/>
<path fill-rule="evenodd" clip-rule="evenodd" d="M40.6086 15.144C40.2477 15.9991 36.3537 18.4736 35.5591 19.1031C36.7327 18.9216 39.0721 17.4948 39.6868 17.0376C40.0442 16.7712 41.2541 15.7119 41.3503 15.6762C42.5936 15.2161 42.5366 16.363 43.369 14.3829C41.7844 12.6403 43.7599 12.9391 43.0423 11.0482C42.8894 10.6456 42.3564 10.1009 41.9317 10.0093C41.2619 9.86425 40.7016 10.3163 40.3001 10.6086C36.1678 13.6186 39.5674 14.2657 40.6086 15.144ZM41.344 11.8954C40.6097 11.8954 40.239 12.6803 40.5268 12.9677C40.6175 13.0574 41.113 13.2703 41.4235 13.2711C41.6658 13.2717 41.9106 11.8954 41.344 11.8954Z" fill="#2B2A29"/>
<path fill-rule="evenodd" clip-rule="evenodd" d="M7.00799 21.7903C6.074 23.3181 2.6482 25.0788 1.15576 26.4743C2.0676 26.3819 4.23682 25.0921 4.70854 24.7276C5.81409 23.8744 6.65812 23.1374 7.54077 22.0937L8.64659 22.306L9.21611 21.151C8.9427 20.6239 8.68658 20.6885 8.96081 19.8737C9.13561 19.3549 9.40578 19.1804 9.22936 18.4304C8.71603 16.2469 5.80923 18.6265 5.59498 19.9758C5.43963 20.9606 6.43711 21.3423 7.00799 21.7903ZM5.43963 21.8573C4.64532 21.5423 3.69323 21.2205 4.16874 19.9066C4.58102 18.7689 6.40199 16.8447 8.03438 16.6183C9.62922 16.3971 9.15912 17.6091 9.96721 18.2737C12.0602 17.3278 10.1569 12.3364 5.2913 17.534C4.32705 18.5644 3.5087 19.6319 3.02698 21.0884C2.7876 21.813 2.84732 22.4511 3.7062 22.8394C4.63235 23.2573 5.24268 22.5724 5.43963 21.8573ZM6.96908 19.7564C6.81833 19.9482 7.70288 20.4235 7.93685 20.3219C8.22918 19.6327 7.78933 18.7125 6.96908 19.7564Z" fill="#2B2A29"/>
</svg>
