<svg width="54" height="60" viewBox="0 0 54 60" fill="none" xmlns="http://www.w3.org/2000/svg">
<path fill-rule="evenodd" clip-rule="evenodd" d="M30.7145 32.6034C29.915 33.7919 28.6905 33.9154 27.9986 32.7766C27.3676 31.7377 28.7531 30.5784 29.8777 30.6295C30.2623 31.1421 30.6194 31.8915 30.7145 32.6034ZM0.35981 30.3298C2.04869 29.619 3.19281 28.9097 5.88608 29.4622C2.55702 33.2951 -3.66838 42.057 3.25721 45.7663C6.09579 47.2868 10.1091 47.7842 13.8139 47.1979C16.0558 46.8431 21.7684 45.0592 22.7733 43.8518C20.0984 43.8664 18.1333 44.1533 15.6697 44.173C11.9744 44.2028 2.91657 44.4059 1.8704 39.6394C1.01532 35.7462 4.76352 32.4017 7.85918 30.7958C7.99598 30.725 8.01009 30.7069 8.14395 30.642C7.55393 31.9868 7.31255 34.828 8.06411 36.4554C9.81367 40.7708 17.9882 38.4772 20.1535 36.1919C20.7935 36.9337 21.0147 37.4622 22.1766 37.8861C24.5343 38.7463 26.0657 38.499 28.365 37.6458C30.0052 37.0369 31.7992 38.2656 34.9449 36.9076C36.097 36.4102 36.0842 35.9897 36.4073 34.8333C37.1405 32.2082 36.5444 30.4019 36.2596 27.9751C36.0723 27.6786 35.3305 23.8569 35.222 23.1104C34.9795 21.4415 34.9971 21.9086 35.7199 20.8587C37.1581 18.7693 35.9589 18.4736 35.6704 18.0318C35.4948 17.7619 35.4253 17.2864 35.2765 16.9428C34.4334 17.2624 34.3522 18.0778 33.7162 18.8579C32.9234 19.8298 33.0626 20.0084 33.3431 21.5719C33.6598 24.6755 35.4088 31.3904 35.334 33.7294C34.2476 34.0445 33.3255 34.3953 31.9978 34.2106C31.6952 31.9668 33.2661 28.6204 30.6258 27.1743C29.0168 27.3473 27.8338 29.1101 27.296 30.2045C26.4566 31.9115 26.4984 33.4223 25.8945 34.972C24.6397 35.4172 21.6574 35.0747 21.3735 32.5108C20.1854 33.2961 20.7142 33.3406 18.491 34.4842C17.3514 35.0702 15.9928 35.4191 14.4947 35.5303C13.119 35.6328 11.1952 35.6647 10.2246 34.8661C9.05148 33.9008 8.38934 31.9085 8.55913 30.4413C10.7401 29.3805 13.4584 29.1599 13.9294 29.1591C14.1014 29.1588 14.5956 28.1356 14.797 26.1332C12.3992 26.1768 10.0362 26.2838 7.62473 26.2934C6.49606 26.2976 5.25295 26.2952 4.1328 26.3695C1.87359 26.5193 0.681832 28.2 0.35981 30.3298Z" fill="#211D21"/>
<path fill-rule="evenodd" clip-rule="evenodd" d="M48.4522 31.0252C48.9065 31.2432 49.2474 31.6996 49.3467 32.2287C48.279 32.5251 47.5088 32.5917 46.9803 31.6685C47.2475 31.0854 47.6206 30.6257 48.4522 31.0252ZM39.6025 41.9982L37.4136 42.1397C37.9187 43.1875 42.2053 43.5561 43.6153 43.3821C47.0095 42.6217 48.5347 41.1109 49.876 38.5794C50.7915 36.8527 52.3516 31.6426 51.0199 29.4212C47.5602 23.6499 43.3877 34.0192 46.468 35.4638C49.0093 36.6558 49.5327 34.622 50.1574 34.2018C49.9817 36.2939 47.5211 38.5746 46.3123 39.5005C44.6016 40.8107 42.2918 41.7554 39.6025 41.9982Z" fill="#211D21"/>
<path fill-rule="evenodd" clip-rule="evenodd" d="M40.1625 32.2344C40.2338 34.4558 40.2958 36.4991 40.5372 36.9148C42.5188 35.4373 40.6229 20.9266 40.4664 17.9499C39.7228 18.5359 39.0636 20.3044 39.1456 21.5749C39.1927 22.3004 39.3319 22.9769 39.4383 23.6595C39.8527 26.3262 40.076 29.5603 40.1625 32.2344Z" fill="#211D21"/>
<path fill-rule="evenodd" clip-rule="evenodd" d="M20.7962 23.1992C20.4607 22.8002 19.2295 21.4009 18.7132 21.1832C18.1421 21.6846 17.0212 22.5735 16.6528 23.436L18.6557 25.3572C19.2931 25.0168 20.5189 23.8472 20.7962 23.1992Z" fill="#211D21"/>
<path fill-rule="evenodd" clip-rule="evenodd" d="M27.0483 23.0349C27.2743 23.4881 28.6244 24.8887 29.1298 25.2374C29.4821 24.9622 30.9581 23.6129 31.2165 23.0668C30.7713 22.4076 29.8023 21.4649 29.1298 21.0399L27.0483 23.0349Z" fill="#211D21"/>
<path fill-rule="evenodd" clip-rule="evenodd" d="M21.1494 16.1228C21.0581 15.6451 16.7404 14.9356 16.2603 17.5767C17.365 17.2536 17.7264 17.3327 18.9889 17.4453C18.6051 18.452 17.4648 17.8639 17.0443 18.8983C17.9957 19.2148 21.4169 17.5214 21.1494 16.1228Z" fill="#211D21"/>
<path fill-rule="evenodd" clip-rule="evenodd" d="M31.0474 17.2038C32.6375 17.0697 34.7301 15.5128 35.0617 14.2785C33.7196 12.7442 30.242 13.5485 30.1079 15.3361C31.4572 15.0737 31.5341 14.7086 33.1397 15.2882C32.6303 16.7328 31.4886 15.8423 31.0474 17.2038Z" fill="#211D21"/>
<path fill-rule="evenodd" clip-rule="evenodd" d="M43.8821 21.372C46.2539 20.5734 50.0444 19.5197 52.1796 18.6016C52.6451 18.4015 52.681 17.7768 52.7401 17.4114C50.8963 18.11 46.924 19.1722 44.2991 20.1665C43.6428 20.4148 43.7679 20.9941 43.8821 21.372Z" fill="#211D21"/>
<path fill-rule="evenodd" clip-rule="evenodd" d="M23.7265 15.3868C26.0977 14.5881 27.6003 14.3268 29.7352 13.4086C30.2004 13.2088 30.2366 12.5839 30.2954 12.2185C28.4519 12.9171 26.7684 13.1872 24.1432 14.1812C23.4872 14.4295 23.612 15.0089 23.7265 15.3868Z" fill="#211D21"/>
<path fill-rule="evenodd" clip-rule="evenodd" d="M36.1646 16.7483C37.401 15.7074 37.4766 15.3324 38.9119 15.5067C39.3608 15.5613 39.6541 15.7151 39.9338 15.8674C40.0557 15.9336 40.0214 16.3743 39.9961 16.6956C40.2268 16.2325 40.4325 16.158 40.5789 16.1896C40.8815 16.2556 41.3821 16.2602 41.9231 16.1423C43.7227 15.7503 45.7704 14.6466 46.0676 12.9519C44.012 10.1705 41.6126 14.3267 40.6819 14.7584C40.2042 14.691 39.2528 14.3286 39.0449 14.0835C38.134 15.0735 36.873 14.929 36.1646 16.7483ZM44.2811 13.8117C44.1454 12.6213 41.6879 14.6112 41.4308 14.8819C41.5551 14.8997 43.4092 14.699 44.2811 13.8117Z" fill="#211D21"/>
<path fill-rule="evenodd" clip-rule="evenodd" d="M24.9774 23.1992C24.6415 22.8002 23.4104 21.4009 22.8944 21.1832C22.3233 21.6846 21.202 22.5735 20.834 23.436L22.8369 25.3572C23.4743 25.0168 24.7001 23.8472 24.9774 23.1992Z" fill="#211D21"/>
<path fill-rule="evenodd" clip-rule="evenodd" d="M7.55654 21.0309C7.20098 21.8732 3.36522 24.3107 2.58252 24.9308C3.7386 24.752 6.04303 23.3465 6.64849 22.8963C7.00058 22.6338 8.19233 21.5903 8.28708 21.5552C9.51182 21.102 9.45567 22.2317 10.2754 20.2812C8.71475 18.5647 10.6607 18.859 9.95387 16.9963C9.80324 16.5998 9.27817 16.0633 8.85981 15.9731C8.20007 15.8301 7.64809 16.2754 7.25261 16.5633C3.1821 19.5283 6.53112 20.1657 7.55654 21.0309ZM8.28097 17.8309C7.55762 17.8309 7.19275 18.6041 7.47592 18.8872C7.56507 18.9756 8.05341 19.1853 8.3592 19.1861C8.59792 19.1866 8.83905 17.8309 8.28097 17.8309Z" fill="#211D21"/>
</svg>
