<svg width="223" height="68" viewBox="0 0 223 68" fill="none" xmlns="http://www.w3.org/2000/svg">
<path fill-rule="evenodd" clip-rule="evenodd" d="M124.388 45.4456C122.005 43.2271 121.828 36.1516 125.879 37.8832C127.13 38.4184 127.952 40.6073 127.615 42.3743C127.345 43.7925 125.721 44.9165 124.388 45.4456ZM111.434 37.2154C110.822 37.7039 111.305 37.1156 110.933 37.8624C110.723 38.2823 110.784 38.2262 110.647 38.6502C109.434 42.3883 105.847 40.9368 107.268 35.937C107.617 34.7069 108.218 33.9383 107.684 32.8126C107.112 33.2601 107.656 32.5382 106.977 33.5688C106.726 33.9471 106.704 34.0484 106.535 34.5037C103.729 42.0541 108.407 44.9399 110.926 42.3322C111.645 41.5875 112.045 39.7946 111.943 38.7401C111.799 37.2497 111.58 37.4336 111.434 37.2154ZM91.0267 6.56457C89.3323 7.36748 90.5195 7.82947 89.544 9.24041C88.909 10.1576 87.2442 10.3349 86.5357 9.3272C85.3729 7.67409 87.2784 4.14337 87.2494 2.13636C84.9987 3.21418 84.1459 10.0547 86.0167 11.8986C87.5423 13.4031 92.3665 13.0824 91.0267 6.56457ZM34.7329 23.0681C33.0634 24.3605 34.3955 27.3882 30.6006 26.1269C29.3048 22.6814 31.8261 20.1153 30.9825 18.5962C29.3322 20.1142 27.908 25.8894 29.932 28.1568C32.8761 31.4552 36.8904 25.9419 34.7329 23.0681ZM217.112 27.9308C216.015 28.954 216.722 29.6909 215.896 30.6809C215.147 31.5794 213.593 31.6657 212.93 30.6227C212.359 29.7237 212.697 27.9609 212.932 27.0327L213.605 24.6162C213.623 22.9657 213.881 26.1082 213.54 24.082L213.361 23.5462C211.732 25.2248 210.247 31.4506 212.571 33.3765C215.923 36.1563 219.36 30.2839 217.112 27.9308ZM109.389 19.9012C108.143 21.0902 109.02 21.601 108.047 22.6908C107.809 22.9564 103.303 25.6649 105.706 17.2186C106.307 15.105 105.756 15.6408 105.639 15.4438C104.088 17.0263 102.576 22.8623 104.586 25.0761C105.593 26.1851 107.918 26.1472 108.949 24.9462C109.402 24.4182 109.724 23.5628 109.849 22.6607C110.015 21.4722 110.012 20.6931 109.389 19.9012ZM165.917 9.71228C164.698 6.29589 167.135 3.60031 166.318 2.17638C164.666 3.6819 163.264 9.45919 165.26 11.7359C168.138 15.0172 172.271 9.60419 170.068 6.60978C168.346 7.78114 169.911 10.8208 165.917 9.71228ZM82.4583 37.7808C80.6589 38.8456 82.3082 42.0339 78.2857 40.8682C77.0752 37.4097 79.4645 34.7495 78.7085 33.3349C77.1249 34.7017 75.5579 40.6261 77.6036 42.9293C80.2998 45.9663 84.7436 41.1296 82.4583 37.7808ZM115.865 60.3823C116.513 59.1329 116.72 56.7227 118.525 57.96C121.374 61.0085 114.177 65.5967 113.552 67.545C120.4 67.3418 122.687 52.4192 117.508 55.055C116.472 55.582 115.301 58.2505 115.529 59.557C115.686 60.4659 115.527 59.9468 115.865 60.3823ZM114.713 27.0644C116.149 27.857 118.1 29.285 119.956 29.5184C120.973 28.4026 121.541 26.7376 121.67 24.9561C120.425 24.2104 118.163 22.3826 116.218 22.3265L114.713 27.0644ZM50.9438 64.3984L50.5862 66.9131C52.6241 66.5389 57.1124 63.9254 58.9103 62.8216C60.9642 61.7412 63.2392 61.2392 63.5404 58.3623C61.5055 58.8159 51.9602 63.4666 50.9438 64.3984ZM15.891 65.1238L15.7591 66.7182C17.3825 66.8845 21.3761 64.4004 22.8717 63.5404C24.0801 62.9038 25.0768 62.2957 26.2029 61.6607C27.817 60.7502 28.4902 60.6603 28.7319 58.3612C27.42 58.6444 16.289 63.254 15.891 65.1238ZM65.2492 8.94627C69.5429 11.5254 72.945 13.5969 72.9181 18.8857L73.1442 21.1234C73.1639 21.1915 73.2038 21.3079 73.254 21.3895C75.1822 19.2536 73.7239 13.5413 72.4943 11.4355C71.4349 9.6203 68.2067 6.10725 65.5762 6.37177L65.2492 8.94627ZM93.519 38.2979C92.0218 37.7325 89.9885 31.5675 87.2095 32.8423C86.2998 33.7683 86.0881 34.9891 86.7774 36.4135C88.3046 38.7817 89.4824 35.2151 92.3277 40.4624L93.1893 42.0167C93.5562 42.5125 93.3394 42.275 93.7073 42.5858C95.1305 40.1848 93.6504 35.8855 95.4565 33.3619C97.6269 33.2055 96.8657 33.8744 98.4146 34.2626C99.0154 29.7907 94.273 26.9709 93.519 38.2979ZM187.948 27.2682C188.453 25.1983 188.173 22.8192 188.48 20.6401C189.109 16.1787 190.724 18.6742 192.468 18.8722C192.607 17.2222 192.889 16.0706 191.558 15.4475C188.955 14.2299 188.207 17.8967 187.91 19.6891C187.732 20.7701 187.744 22.181 187.09 23.053C182.533 13.7871 179.178 18.0869 180.639 20.9343C181.285 22.1919 182.459 21.7928 183.982 22.3C185.918 22.9444 186.5 26.9605 187.948 27.2682ZM152.341 2.23354C153.493 3.31136 153.615 3.81545 153.284 5.82818C152.088 5.19053 150.953 4.65578 150.514 3.14299C151.083 2.39101 151.221 2.34424 152.341 2.23354ZM154.094 0.0716689C151.414 -0.382013 149.677 1.38231 149.271 3.55353C148.77 6.23769 151.089 7.18247 152.22 8.61939C150.648 11.7079 144.528 15.7962 143.769 17.1562C145.65 16.7514 147.879 15.0297 149.17 13.9882C150.918 12.5778 152.032 11.0764 153.364 9.89832C155.023 10.669 154.432 11.158 155.633 11.5831C158.027 8.65213 154.812 8.33668 154.539 6.54482C154.15 3.99786 155.588 3.56809 154.094 0.0716689ZM21.5484 17.0268C30.242 12.3471 28.8007 12.8932 37.8721 9.71436C40.7029 8.72177 42.0608 9.08866 41.8854 5.5595C38.4207 6.3806 33.5597 8.58613 30.2943 9.99239C25.853 11.9064 20.4974 13.5101 21.5484 17.0268ZM166.585 19.1757C168.455 18.5006 171.186 16.637 173.184 15.5114C175.333 14.3005 177.369 13.1557 179.519 11.95C181.798 10.6721 183.848 9.52104 186.066 8.25717C188.949 6.61394 190.517 7.02085 191.006 3.05672L178.079 10.4986C175.798 11.8196 173.905 12.9982 171.601 14.2678C170.585 14.8275 169.293 15.5135 168.293 16.0747C166.938 16.8345 166.509 17.2331 166.585 19.1757ZM204.688 64.2757C204.955 62.6528 207.125 60.1666 209.159 60.6769C212.149 61.4273 210.984 63.5092 214.384 59.623C216.69 59.4931 218.214 59.8168 219.251 57.9756C220.039 56.5761 220.252 54.1222 219.156 52.9274C217.232 53.8218 218.321 55.0534 218.158 56.929L215.748 56.9752C215.689 56.8921 215.649 56.7689 215.623 56.6967C214.866 54.6361 215.567 55.6807 215.066 54.5015C213.867 54.8451 214.08 55.0872 213.758 56.5756C213.495 57.7906 213.571 57.814 212.928 58.8071C208.896 59.518 209.763 54.6491 204.463 61.6326C201.709 65.2636 198.446 66.2011 197.432 67.8293C198.634 68.4477 200.345 67.2311 201.27 66.6413L203.84 64.7699C204.563 64.2752 204.005 64.5621 204.688 64.2757ZM160.522 20.1901C161.574 19.3212 162.527 17.5522 162.556 15.8066C161.485 14.7818 159.467 12.9935 157.731 12.7368C157.22 13.7351 156.629 15.1362 156.076 16.5731L152 14.2449C150.818 15.3347 150.086 16.8943 150.022 18.8867C151.083 19.8798 153.167 21.2409 154.814 21.3677L156.426 17.8458L160.522 20.1901ZM16.378 35.3721C14.6133 34.8394 14.0094 33.679 12.2338 33.2346C11.1352 34.2927 10.4795 35.8793 10.2471 37.7112C11.1238 38.711 13.3185 40.1937 14.9109 40.3724C15.4527 39.4848 16.1193 37.7979 16.7987 36.8542C17.8338 37.5225 19.8137 38.9132 21.211 39.16C21.8398 37.8863 22.8168 36.531 22.8634 34.5084C21.5614 33.733 19.7936 32.0092 17.884 31.7603L16.378 35.3721ZM47.6871 17.9841C46.1387 17.2102 45.1839 16.1449 43.4891 15.7936C42.7025 17.2669 41.9449 18.5162 41.7544 20.7394C43.1615 21.3739 44.6292 22.7194 46.3235 22.946C47.2234 22.1218 46.9057 22.4658 47.3999 21.3454L48.3681 19.5587C49.8358 20.2493 50.8434 21.3111 52.4595 21.72C53.2456 20.952 54.8768 18.5562 54.1445 17.2056C53.7062 16.3959 50.8325 14.6368 49.7318 14.3832C48.3112 15.949 48.6926 16.8636 47.6871 17.9841ZM12.2338 20.2675C13.4143 20.6573 13.9763 21.5782 14.2847 23.0208C12.2349 22.868 10.8081 22.3281 12.2338 20.2675ZM8.29148 20.7919C8.0793 19.3643 8.21074 19.4308 8.93318 18.7126C10.3356 18.921 10.8262 19.555 10.7827 21.1988C9.39531 21.482 9.40515 21.4877 8.29148 20.7919ZM7.30873 14.3057C6.77777 15.9256 6.52109 17.8832 6.53558 19.9266C6.56301 23.8284 7.20316 22.4673 8.7267 24.387C5.28632 30.5188 0.90874 31.4344 0 33.5308C3.69137 33.4565 9.29803 27.4069 10.4883 24.663C12.0786 25.1292 14.0208 26.7116 15.2618 25.3713C16.4924 24.043 15.8284 21.3786 15.1267 20.0966C14.1755 18.3577 10.0412 13.1162 7.30873 14.3057ZM207.412 9.98823C208.82 5.8604 213.918 6.09374 212.224 13.335C211.027 12.9016 208.13 11.1362 207.412 9.98823ZM204.72 13.0252C205.489 14.3452 207.166 15.2843 208.763 16.3138L210.356 17.5179C208.461 21.217 200.4 27.4064 196.621 30.143C195.253 31.1341 192.432 32.7799 191.63 33.9185C197.18 33.3224 209.392 23.3659 211.914 18.4944C213.387 19.0104 213.718 19.7084 215.066 19.924C215.937 18.6311 216.13 17.9461 216.101 16.1491L213.795 14.7069C214.359 11.6159 214.99 10.6134 214.638 6.70436C213.558 2.05581 210.461 2.18781 208.053 4.99617C206.923 6.31408 203.637 10.2917 204.72 13.0252ZM163.273 42.5026C162.754 43.6854 158.776 47.5784 156.823 45.5215C155.924 44.5741 158.835 39.5721 159.5 38.7427C160.541 39.2728 162.701 41.3531 163.273 42.5026ZM161.352 35.3154C163.051 32.5367 165.155 29.4581 165.143 25.2627C164.162 25.786 163.974 26.2158 163.297 27.4927L159.608 34.129C158.487 33.2273 152.429 28.0285 151.087 29.2746C149.634 30.7568 150.479 34.3447 152.316 35.3466C155.293 36.9706 154.31 34.5442 157.526 37.3687C157.111 39.8756 154.873 41.9544 154.598 46.2568C154.05 54.8196 164.068 50.6757 164.564 43.1704C164.931 37.6187 162.962 37.9939 161.352 35.3154ZM138.508 20.5196C138.13 22.0407 137.6 21.5501 136.976 23.0619C138.492 22.7516 138.88 22.1238 140.07 21.652C141.617 24.1475 146.273 44.4499 145.661 48.1354C144.08 57.6446 132.339 64.3313 132.004 66.6444L138.095 63.8776C139.601 61.8711 143.176 61.9907 145.646 54.6164C148.936 44.7908 146.542 35.819 143.966 26.2886C143.369 24.0789 142.753 22.0464 142.18 19.8118C141.516 17.2201 143.86 15.5078 142.512 13.5096C142.041 14.5313 142.242 15.4267 141.432 16.293C140.589 14.8182 141.545 12.6495 141.755 11.0151C140.138 9.07151 140.486 10.4762 139.785 7.92977L139.388 6.80622C136.962 11.1045 139.59 15.7697 139.459 20.0077L138.508 20.5196ZM112.8 6.58795C112.258 7.07646 91.8914 15.3176 89.249 16.4572C85.3501 18.1394 81.4973 19.7744 77.7418 21.679C73.6354 23.7613 70.0082 25.0881 69.0446 30.2148L82.6664 23.5389C87.4388 21.3963 92.0544 19.3311 96.9278 17.3267L125.266 5.31629C125.786 3.86586 126.541 3.18144 126.559 1.46909L112.8 6.58795ZM193.59 45.5802C189.691 45.6467 191.379 43.3559 192.595 43.1631C193.77 42.9766 195.578 43.9718 196.055 45.5443L193.59 45.5802ZM145.943 64.6779C145.332 65.4507 144.888 65.2065 143.751 66.1398L147.738 65.577C153.104 64.1765 156.817 63.6895 161.286 61.0667C164.113 59.4079 170.49 54.4834 172.231 53.7802C172.054 59.0602 171.636 62.6044 175.396 65.2137C178.712 67.5154 183.717 65.5406 186.66 63.954C190.104 62.0972 192.557 60.2721 195.201 58.1565C200.277 54.0941 199.534 49.8966 200.439 49.0205L204.157 46.9942C204.199 47.0654 204.222 47.1803 204.242 47.227C204.263 47.2738 204.306 47.4017 204.332 47.4578C204.789 48.4218 204.835 48.626 206.511 48.7523C213.022 49.2429 212.89 46.4662 214.712 44.9935C216.111 46.2391 216.628 46.8347 219.016 47.4786C223.213 47.8808 223.354 40.1308 222.72 36.5377C220.018 38.1763 221.247 42.881 221.261 43.2032C219.193 43.16 217.43 41.998 216.214 41.0075L217.6 36.3054C216.45 36.5824 216.934 36.003 216.209 37.5074C214.218 41.6384 215.016 45.1686 206.547 44.1833C206.701 43.1709 206.942 42.4886 207.191 41.4695L207.393 39.1938L206.522 39.7384C206.4 40.0118 206.24 40.5964 206.074 41.0033C205.124 43.3164 202.966 44.309 200.407 44.6692C198.721 42.6772 198.013 40.4764 195.573 39.4952C192.574 38.2896 190.376 40.5351 189.327 42.3327C187.949 44.692 187.27 48.1625 189.787 49.403C192.486 50.7333 195.893 49.5168 198.624 49.6919C198.944 51.7348 198.322 52.0388 196.968 53.0833C193.418 55.8231 191.8 56.8962 187.625 59.1028C182.933 61.5827 175.052 63.8148 173.948 56.7881C172.729 49.0397 179.182 50.0354 181.031 43.6007C183.54 34.8649 175.666 33.0439 177.41 27.6995C176.678 27.1455 176.358 27.3492 175.513 26.7843C174.477 26.0916 175.056 25.944 173.821 25.364C172.666 30.5536 173.551 29.5636 175.357 33.4321C178.872 40.9586 182.858 40.5065 176.781 45.4794C170.714 50.4444 152.573 62.7925 145.943 64.6779ZM5.00169 36.1194C4.29737 38.6336 3.64376 42.4153 4.75484 44.8859C5.59061 46.7443 6.1666 45.7751 5.37844 48.2467C4.15195 52.0965 4.15505 57.3089 6.00358 60.7367C6.99823 62.5789 9.29544 65.0064 12.3363 63.2343C16.3847 59.4791 16.4882 49.9424 22.7444 49.7901C25.6352 53.7459 28.2905 62.8658 40.9445 56.9565C45.6497 54.7593 55.9574 48.6848 61.6639 48.8646C63.2583 51.5633 62.7548 56.5756 72.0218 59.1522C82.0614 61.9439 98.1108 59.6864 107.988 56.4924C115.862 53.9465 120.021 51.2593 122.728 50.3446C126.392 61.1503 138.579 58.2916 136.124 42.077C135.26 36.3657 132.862 26.1332 131.2 20.2249C130.133 16.4333 131.844 17.0221 131.533 14.4591L131.145 13.3319L130.44 15.7629C129.957 13.9227 130.585 11.5935 130.363 10.8093C130.174 10.141 129.681 10.0012 129.29 9.20715L128.624 7.43867C128.593 7.37579 128.543 7.2573 128.479 7.18403C126.882 9.82817 127.239 13.5548 128.012 16.6365C128.534 18.7199 128.916 19.2739 127.591 20.7337C126.666 21.7512 125.397 22.274 124.761 23.4417C127.375 23.3622 127.54 22.3702 129.168 21.5137C130.173 27.7858 132.31 35.2765 133.844 41.5885C134.621 44.7892 135.977 49.7075 133.315 51.1179C129.721 53.0215 125.938 51.7758 124.934 48.6634C126.412 46.9506 128.612 45.5568 129.087 42.0874C129.958 35.7244 123.626 28.4089 121.122 37.4893C119.953 41.7273 121.358 43.3591 121.62 46.9521C116.897 50.7318 100.554 54.3061 93.1184 55.2634C87.7881 55.9499 81.2401 56.0777 75.9403 55.2062C71.1891 54.4257 65.3335 51.9941 64.7565 48.0627L69.0373 47.7867C69.7334 46.6253 70.9562 44.7139 71.1565 43.266L63.3706 43.608L58.6386 14.7454C58.1692 12.266 57.7086 7.33422 55.5278 6.65447C54.0943 8.03319 53.775 10.5604 53.8087 12.8013C55.3674 12.1122 55.4368 10.5994 56.965 17.7507C57.9637 22.4242 60.6289 40.545 60.4328 43.6475C55.2722 44.5476 46.9491 43.1112 41.8005 42.4969C42.4826 40.888 44.1608 40.1116 46.1822 36.5471C47.6198 34.0095 48.0468 31.0831 51.4892 31.2572C53.4221 32.1766 52.9331 36.5564 54.1637 37.6519C55.3959 35.12 55.355 27.3456 52.3793 26.8737C47.6561 26.1243 48.9095 35.9494 38.1039 40.4156C33.0096 42.5213 32.2168 40.4821 30.021 46.1534C37.3691 46.1061 43.9321 47.0342 51.1177 47.7223C49.133 49.3214 39.7206 53.5406 36.4143 54.1045C27.4014 55.6422 25.8147 46.0676 23.8239 45.2439C16.4639 44.6577 15.3616 57.8826 10.8702 60.3636C6.58888 60.6348 5.67497 55.7737 5.96581 51.7348C6.40931 45.576 10.449 44.6188 8.48451 41.2476C7.35583 42.3758 8.44207 42.566 7.30045 44.0268C3.13712 44.573 6.42587 35.2468 6.37929 32.6323C5.67859 33.4035 5.28115 34.9033 5.00169 36.1194Z" fill="url(#paint0_linear)"/>
<defs>
<linearGradient id="paint0_linear" x1="111.498" y1="0" x2="111.498" y2="68.0027" gradientUnits="userSpaceOnUse">
<stop stop-color="#CD5666"/>
<stop offset="0.207843" stop-color="#9F3B50"/>
<stop offset="0.501961" stop-color="#C21E51"/>
<stop offset="1" stop-color="#711F3A"/>
</linearGradient>
</defs>
</svg>
