<svg width="222" height="78" viewBox="0 0 222 78" fill="none" xmlns="http://www.w3.org/2000/svg">
<path fill-rule="evenodd" clip-rule="evenodd" d="M125.338 57.0474C124.674 54.8575 126.787 51.7436 128.119 50.6299C129.787 51.0698 132.283 53.6229 132.323 56.0344C130.589 57.3127 128.186 58.587 125.338 57.0474ZM11.0462 56.9954C9.21377 54.4456 11.4616 51.963 11.3267 48.9762C9.24332 50.19 7.89586 57.0261 10.1069 59.2278C11.3205 60.4361 13.6876 59.9794 14.6437 58.8355C15.7838 57.4716 15.936 55.0858 15.0602 53.7141C13.2283 55.3623 14.7865 57.7318 11.0462 56.9954ZM215.087 30.5403C213.428 31.1201 214.454 31.8661 213.489 33.1343C212.616 34.281 211.728 33.929 210.451 33.5529C209.416 29.9829 211.641 27.1169 210.946 25.6764C209.214 27.0481 207.652 33.057 209.677 35.5754C212.138 38.6356 216.799 35.285 215.087 30.5403ZM40.7366 21.2093C39.795 22.3017 40.0983 23.2196 38.9967 24.6047L36.4651 24.5594C35.4159 20.8394 37.6091 18.0613 37.0098 16.5609C34.9944 17.955 33.6269 24.9819 36.1117 26.9188C39.7593 29.7624 42.995 23.6807 40.7366 21.2093ZM94.5714 38.9781C95.9685 39.855 97.8339 41.1618 99.9574 41.4338C101.012 40.2496 101.63 38.5847 101.623 36.805C100.298 35.5704 98.1227 34.1847 96.2311 33.9346C95.2705 35.2598 94.7348 37.2163 94.5714 38.9781ZM118.437 35.1579C121.091 34.6324 126.963 30.9774 129.833 29.3813C131.336 28.5451 132.04 28.3084 132.017 26.2187C130.027 26.2484 122.995 30.1541 120.623 31.3563C118.628 32.3664 118.299 32.3479 118.437 35.1579ZM60.3113 12.9456C63.0988 14.7728 67.3881 16.9011 68.2645 21.216L68.4278 24.7323C68.449 24.8632 68.4702 24.9712 68.4981 25.0899L68.8984 25.9988C70.534 23.3757 69.6103 17.9068 68.0805 15.5944C66.7615 13.5987 63.8659 10.4132 60.6346 10.1675L60.3113 12.9456ZM185.269 24.7099C183.158 23.0298 182.29 18.6926 178.656 18.9886C175.873 25.4615 180.715 21.3028 183.746 26.2769C184.359 27.2843 184.824 28.5715 185.684 29.3594C186.658 27.5893 186.1 24.4771 186.463 22.281C187.144 18.1542 188.26 19.7811 190.586 20.5831L190.525 17.1211C185.21 15.5099 186.538 21.3957 185.269 24.7099ZM189.976 1.35752L189.49 1.85617C185.05 5.67744 173.021 8.84112 171.821 14.8243L190.884 3.77575C191.241 3.42485 191.614 2.94076 191.736 2.47681C192.467 -0.288405 191.852 1.08386 191.224 0.638378C190.737 1.45434 191.095 1.26909 189.976 1.35752ZM122.026 24.7513C121.273 26.0945 121.019 26.1515 121.099 27.976C122.557 27.2451 123.514 26.0077 125.445 24.9791C128.348 23.4322 128.883 24.2409 129.64 20.8203C126.11 21.3134 123.188 23.0808 121.446 19.7637C123.059 16.2419 125.858 18.3159 126.773 18.4346C127.499 16.9185 127.692 17.1463 127.137 15.352C122.156 13.78 117.428 20.629 120.568 23.5844L122.026 24.7513ZM88.5003 23.3819C88.0415 21.2334 88.6247 20.5741 89.1883 18.7872C90.4086 19.3071 94.0635 20.9966 94.9505 21.718C94.024 24.4273 90.8714 24.9992 88.5003 23.3819ZM90.7158 13.7251C87.7221 16.1148 83.731 29.3371 92.2701 27.0626C96.9915 25.8046 98.0257 19.0799 92.9062 17.2873C89.1437 15.9705 91.7037 17.0601 90.7158 13.7251ZM104.767 63.2158C106.983 61.9751 106.382 61.6259 110.376 61.7663C109.629 63.5309 103.727 68.3069 107.266 71.8998C112.156 73.9269 118.143 69.0764 118.83 65.6066C116.211 65.7639 112.287 71.46 108.279 68.8123C108.025 68.4149 107.579 69.213 108.153 67.501C108.402 66.7561 113.914 62.2633 111.492 59.3794C110.476 58.1689 105.235 57.9395 104.767 63.2158ZM208.142 70.597C210.793 68.068 208.301 69.6014 212.103 69.077C214.976 68.6808 215.684 65.0794 214.819 62.0551C212.098 62.9427 213.593 64.1342 213.328 66.2625L210.946 66.3386L210.387 65.0744C210.251 64.6457 210.394 64.5713 210.117 63.785C208.699 64.25 209.12 64.3301 208.65 66.1473C208.341 67.3393 208.271 67.5122 207.633 68.3097C202.983 68.3634 204.794 64.1695 198.88 71.2529C195.4 75.4217 192.288 76.358 191.438 78C194.14 77.8338 197.354 75.5756 198.526 74.2207C199.835 72.7063 201.5 69.2829 204.356 70.4067C205.919 71.0212 206.404 72.2547 208.142 70.597ZM56.6642 60.2726C57.2847 57.7872 58.1465 57.0849 61.0734 57.5606C60.9792 59.9895 59.2348 60.1641 56.6642 60.2726ZM43.5319 70.0407C46.9738 69.7016 48.8125 66.6688 50.5195 64.4957C53.7574 60.3717 55.2844 63.4906 59.7599 62.171C62.8746 61.2526 64.9463 55.7434 62.7721 54.13C59.3909 51.6205 57.2245 57.3065 56.575 59.4556C50.2385 59.0582 49.7914 63.5662 46.3567 66.9733C45.3588 67.9633 44.0565 68.6181 43.5319 70.0407ZM19.2024 22.304C17.2177 20.165 16.0269 16.3588 11.7643 16.8446C10.0924 22.7472 15.0345 20.5724 17.1157 23.0975C20.8208 27.5904 17.1697 26.0497 16.7249 31.4363C18.3299 30.5705 18.879 27.4342 20.4662 30.5705C18.6543 31.8986 13.2522 32.0754 15.0201 41.1182C15.4136 43.1312 16.1495 45.475 16.721 47.6409L18.3734 54.2867C19.6489 51.9848 17.3699 43.3176 16.7879 40.4735C15.0122 31.8068 18.1532 35.6202 23.3194 32.6485C24.8665 28.586 21.221 28.3644 20.6117 26.2825C19.9277 23.9493 20.5214 19.1554 21.735 17.6852C23.4733 17.0741 23.9371 17.8481 25.5132 18.2885L25.5277 15.4852C19.0769 11.369 20.5186 19.4822 19.2024 22.304ZM152.228 52.493C151.652 49.9673 154.499 45.6021 155.965 44.7229C157.124 45.8662 159.177 47.5843 159.401 49.2745C158.321 50.9618 154.926 53.2368 152.228 52.493ZM156.349 39.3995C154.487 39.0464 153.318 37.7491 151.797 36.7272L148.73 34.8126C147.081 34.2569 148.177 34.502 147.721 34.8904C146.262 36.4921 147.051 40.4024 148.587 41.22C150.841 42.4193 150.942 40.0453 153.733 43.4553C144.293 62.9483 158.145 58.4348 160.408 52.1488C161.803 48.2766 160.441 43.2017 157.784 41.5575C158.562 37.5728 160.603 36.758 160.451 32.1168L156.349 39.3995ZM62.277 30.1519C55.6546 24.3254 61.4904 24.9729 58.9588 20.986C58.2714 22.6291 59.0703 23.1524 57.7162 24.7586C56.3626 23.2901 56.5895 21.3962 56.3637 18.9612C52.0231 18.7424 53.1581 17.0651 51.3407 16.665C50.7163 21.0179 52.3626 23.2386 55.4706 26.9664C55.0324 28.3622 54.8295 27.474 54.3528 29.4009C57.0583 29.2022 56.5895 28.8009 58.2976 30.8039L67.2928 40.4925C74.4426 47.7824 73.1704 45.9703 77.5941 54.8547C79.3742 52.3447 76.4914 46.446 75.0999 44.2975C72.9575 40.9889 65.4475 32.9406 62.277 30.1519ZM205.82 9.37277C206.301 8.32959 208.355 5.67464 210.068 6.9053C211.396 7.85894 211.308 11.1927 210.84 13.0312C209.136 12.1956 206.858 10.9818 205.82 9.37277ZM208.884 17.27C207.751 19.9495 202.197 24.7978 199.703 26.7655L189.221 34.5395C194.086 34.5793 204.755 25.8868 208.546 21.0974L210.946 18.5269L213.779 20.1146C214.7 18.8554 215.066 17.6623 214.942 15.7136L212.532 14.4214C213.061 11.0842 214.341 7.95183 212.986 4.3936C211.629 0.830328 208.265 2.14439 206.197 4.599C205.191 5.79496 202.137 9.76341 202.754 12.1341C203.27 14.1141 206.981 15.6358 208.884 17.27ZM91.6474 58.1353C93.1844 52.104 98.3356 51.4996 103.622 54.6778C101.471 56.9332 95.6513 58.2613 91.6474 58.1353ZM116.69 56.049C117.526 55.0013 118.197 52.8198 118.571 51.2842C101.298 50.4156 109.746 49.9567 100.629 48.1708C93.8623 46.8456 92.89 54.1982 90.0184 57.8785C83.0453 56.8678 82.146 44.0345 80.8242 36.8229C79.9596 32.1034 77.0924 15.0672 75.1094 12.3428C72.8905 15.8596 75.6713 25.3832 76.4713 29.5967C77.5612 35.3387 78.6896 40.934 79.1913 46.8976C80.5204 62.7015 65.4904 65.4902 62.7492 70.5164C64.8498 70.3653 68.1446 68.885 70.2397 68.0803C79.3101 64.597 78.17 58.1645 81.1147 49.8867C83.2253 58.249 84.5293 65.3358 95.2677 62.42C103.196 60.267 106.872 56.476 116.69 56.049ZM40.4294 46.6441C43.455 43.9114 49.4798 36.0685 56.0738 42.2084C55.0151 45.1767 44.4094 47.1489 40.4294 46.6441ZM7.15885 42.5962C6.39397 43.9489 6.20777 45.6021 4.6479 45.7492C-0.803814 46.2641 3.88972 32.3877 3.44038 27.277C2.03215 29.0875 1.27285 35.1316 0.753821 37.7933C-0.105275 42.1916 -0.655518 45.0827 1.54267 48.7344C2.884 50.9612 1.91062 50.978 1.20316 53.6615C-2.94849 69.4245 10.2535 74.6472 25.2673 67.0119C31.9829 63.5969 35.8006 61.0382 36.0063 51.6373C41.5723 51.8371 47.3078 51.5203 52.0454 49.4043C61.8556 45.0234 60.8509 35.0639 52.7495 35.0913C45.8416 35.1148 40.1602 45.0391 36.5956 46.3867C35.3184 45.7453 34.7358 45.3693 33.9603 44.4397C33.5461 43.9433 33.4669 43.72 33.0806 43.2426L32.0403 42.1697C28.0592 48.7165 39.5575 52.9295 31.5413 58.7498C15.5279 70.3776 -2.03699 66.7679 3.22463 52.3895C4.19355 49.7401 4.4316 51.3088 6.11801 49.8643C7.54519 48.6426 8.96903 43.7407 8.02018 41.4512L7.15885 42.5962ZM188.927 52.2266C188.904 48.688 192.297 50.1218 193.44 51.7682C192.228 52.6245 190.39 52.4941 188.927 52.2266ZM142.611 72.9307L142.997 73.0852C144.625 71.7387 153.552 70.3021 158.127 68.1681C163.256 65.7762 165.948 62.0081 170.125 59.9503C169.195 84.1757 195.523 67.172 198.103 58.456C199.306 54.3896 198.469 56.1525 201.475 53.9665C202.288 55.0674 202.01 55.2459 203.901 55.3853C208.378 55.7166 210.533 54.0885 212.522 50.9898C214.729 51.921 218.437 54.543 220.341 51.6468C221.715 49.5588 222.747 44.7307 221.298 42.214L220.715 42.8749C219.454 44.8107 219.776 46.4393 219.948 48.2962L214.898 46.779C215.016 44.9372 216.094 43.2885 215.501 41.9123C211.81 44.011 216.08 51.4845 203.869 50.1833C204.229 48.6174 205.471 46.3733 204.733 44.8617C202.306 47.0818 204.733 50.0322 198.561 51.2215C196.057 46.2512 191.055 41.6571 187.288 48.8021C185.953 51.334 185.122 55.1424 187.605 56.485C189.957 57.757 194.238 56.6529 196.911 56.4206C196.807 58.5142 193.931 60.3706 192.479 61.4999C174.86 75.2018 168.843 61.9124 172.897 56.8146C175.859 53.0918 178.853 49.2442 175.942 42.4249C174.138 38.1985 173.85 40.0369 173.641 34.727C172.005 34.0302 171.717 33.5355 170.775 32.5354C170.567 32.8667 170.725 32.3037 170.341 33.3895C170.155 33.9133 170.191 33.7493 170.064 34.3879C169.478 37.3361 170.286 38.0513 171.369 40.3543C172.539 42.8374 173.618 44.5505 174.729 46.9726C176.578 51.0055 171.876 53.8037 166.687 57.6423C159.731 62.7894 149.459 68.3439 141.367 72.5776C142.04 73.3443 141.17 72.7483 142.611 72.9307ZM165.801 2.80085C166.606 3.95764 166.702 4.71707 166.625 6.56223C165.142 5.87162 163.888 5.16423 163.738 3.55357C164.478 2.78014 164.739 2.84618 165.801 2.80085ZM128.592 71.8859C130.311 70.2299 133.181 69.9685 135.263 68.505C141.759 63.9389 142.829 53.0146 142.142 45.2819C141.062 33.113 138.528 39.9172 149.662 25.171C151.834 22.2945 151.988 21.7919 155.695 20.5388C155.237 22.3107 154.849 22.3476 154.974 24.3355C156.073 25.3294 158.012 26.5388 159.592 26.8601C160.818 25.5852 160.854 25.077 161.413 23.3035C163.341 23.9219 164.309 25.3792 166.219 25.5264C167.314 24.2997 167.999 22.7746 168.179 21.019C167.037 20.0514 165.057 18.349 163.32 17.857C161.832 19.0804 162.201 20.1001 161.25 21.6727L157.438 19.4593C158.883 17.7434 161.022 16.6907 162.495 15.1953C164.036 13.63 165.401 12.143 167.047 10.604C168.538 11.4703 167.92 11.7944 169.589 12.3395C171.17 9.03755 169.73 9.89884 168.632 7.75148C167.887 6.29528 168.718 3.73266 168.412 1.7946C167.054 -2.13356 163.64 1.34074 162.952 3.20156C161.687 6.62324 164.747 7.73469 165.763 9.37277C163.683 12.2331 156.897 18.6288 153.054 20.5831C154.132 18.3003 155.933 15.5944 156.309 12.6741C154.914 13.9854 145.789 27.7493 140.129 33.5143C140.06 33.4359 139.973 33.1958 139.949 33.2579L139.005 30.4838C138.753 29.4272 138.23 27.915 138.341 26.9865C138.52 25.504 140.217 22.0852 138.887 19.9876C137.953 21.3979 139.309 22.276 137.644 24.3461C136.415 22.1999 138.486 20.4146 136.794 18.5426C134.084 15.5451 135.806 16.0191 134.745 13.3373C131.801 16.6902 135.5 23.6488 135.547 27.2451C134.07 28.6134 133.378 28.4534 132.495 30.2677L135.986 29.3219C136.858 30.7675 137.2 32.7 137.663 34.3509C138.331 36.7423 137.202 37.2365 136.039 38.5119C133.793 40.971 131.602 43.1766 129.46 45.5696C126.806 44.8661 111.073 31.2119 108.275 28.9084L108.083 23.8531C107.303 24.1889 107.408 26.2249 106.998 27.0419C105.45 25.9741 105.433 24.7284 105.485 22.4512C101.387 22.4064 102.704 21.0599 100.372 20.2461C98.8942 25.2729 103.207 27.502 105.065 30.1547C104.601 32.3519 104.33 30.9052 103.687 33.0285L106.576 32.1913C109.875 34.9296 112.816 37.7748 116.408 40.6598C119.622 43.2415 123.564 46.0419 126.37 48.8586C125.6 51.6362 124.17 53.497 123.826 57.1565C122.876 67.2817 132.509 62.0501 133.547 56.739C134.336 52.7073 132.772 50.1671 131.292 47.6118C132.053 45.9485 133.669 44.5533 134.82 43.1133C135.979 41.6638 137.35 40.1601 138.42 38.8953L139.344 40.9016C140.932 47.5093 142.144 54.0264 138.672 59.4444C136.262 63.2057 131.243 67.7954 127.765 70.5276L125.998 72.23L128.592 71.8859Z" fill="url(#paint0_linear)"/>
<defs>
<linearGradient id="paint0_linear" x1="110.998" y1="0" x2="110.998" y2="78.0031" gradientUnits="userSpaceOnUse">
<stop stop-color="#CD5666"/>
<stop offset="0.207843" stop-color="#9F3B50"/>
<stop offset="0.501961" stop-color="#C21E51"/>
<stop offset="1" stop-color="#711F3A"/>
</linearGradient>
</defs>
</svg>
