<svg width="12" height="23" viewBox="0 0 12 23" fill="none" xmlns="http://www.w3.org/2000/svg">
<path fill-rule="evenodd" clip-rule="evenodd" d="M8.4325 5.75499C9.3295 5.82899 9.77448 7.07 9.92548 7.609C8.04748 7.415 6.6115 5.60599 8.4325 5.75499ZM0.000488281 18C5.22049 16.403 7.30948 14.403 9.54248 11.363C10.7285 11.82 10.6515 11.601 11.4605 11.926C11.9605 10.892 12.0365 10.743 11.9885 9.31099C11.2045 9.21399 10.9365 8.80198 10.9095 8.34798C10.8375 7.12698 12.4835 5.43398 11.2265 3.80498C8.8885 0.778982 4.3925 7.14399 5.1525 8.70699C6.1935 9.82399 6.41249 10.253 7.38049 10.645C4.99149 14.814 2.53949 15.953 0.000488281 18Z" fill="#C43025"/>
</svg>
