<?xml version="1.0" encoding="UTF-8" standalone="no"?>
<!DOCTYPE svg PUBLIC "-//W3C//DTD SVG 1.1//EN" "http://www.w3.org/Graphics/SVG/1.1/DTD/svg11.dtd">
<svg width="100%" height="100%" viewBox="0 0 25 25" version="1.1" xmlns="http://www.w3.org/2000/svg" xmlns:xlink="http://www.w3.org/1999/xlink" xml:space="preserve" xmlns:serif="http://www.serif.com/" style="fill-rule:evenodd;clip-rule:evenodd;stroke-linejoin:round;stroke-miterlimit:2;">
    <path d="M18.848,8.616c-0.29,-1.488 -0.808,-2.791 -1.548,-3.906c-0.662,-1.003 -1.383,-1.743 -2.149,-2.22c-0.775,-0.476 -1.678,-0.718 -2.714,-0.718c-2.681,0 -4.654,1.798 -5.928,5.391l-5.127,-0.44c0.504,-1 1.151,-1.953 1.941,-2.856c2.241,-2.575 5.223,-3.867 8.947,-3.867l0.326,0c3.203,0 5.962,1.056 8.274,3.161c2.407,2.188 3.762,5.01 4.064,8.458l0,0.422l0.032,0.439c0.022,0.224 0.034,0.449 0.034,0.673c0,2.651 -1.131,5.275 -3.385,7.884c-2.254,2.605 -5.263,3.906 -9.019,3.906l-0.326,0.057c-3.606,0 -6.514,-1.23 -8.722,-3.691c-2.365,-2.647 -3.548,-5.323 -3.548,-8.031l18.848,-4.662Zm0.366,3.915l-13.255,3.575c0.495,2.099 1.104,3.593 1.833,4.485c1.415,1.755 2.962,2.635 4.645,2.635c2.301,0 4.061,-1.218 5.286,-3.653c0.992,-1.976 1.491,-4.325 1.491,-7.042Z" style="fill-rule:nonzero;"/>
</svg>
