<svg width="30" height="61" viewBox="0 0 30 61" fill="none" xmlns="http://www.w3.org/2000/svg">
<path fill-rule="evenodd" clip-rule="evenodd" d="M29.5273 45.144C24.2483 46.445 14.5795 48.266 9.24361 46.345C-0.436183 42.86 0.511831 34.265 8.00818 29.49C12.3471 26.724 19.4842 23.438 20.3694 20.807C20.7027 19.815 21.1198 18.944 21.2006 17.859C20.0231 18.462 19.0122 19.624 17.5253 20.523C16.3617 21.226 14.4847 22.141 13.2832 22.477C8.86241 23.711 6.29776 20.309 6.40753 17.593C9.17176 15.181 13.3909 15.48 17.4854 15.123C17.3766 14.072 15.9825 13.354 14.8699 12.881C13.825 12.438 12.3421 12.066 10.9231 12.205C6.96836 12.352 4.78492 14.615 3.76206 17.839C2.05562 23.218 5.93153 25.553 6.61211 26.686C5.71698 28.215 4.11531 29.512 2.84097 31.556C0.47192 35.36 -1.04791 41.93 0.870083 45.505C1.60655 46.88 3.78599 49.075 4.90466 49.846C10.3204 53.58 19.1719 52.615 24.9728 49.181C27.4556 47.712 27.6482 47.225 29.2039 46.138C29.9174 45.638 30.2029 45.659 29.5273 45.144Z" fill="#211D21"/>
<path fill-rule="evenodd" clip-rule="evenodd" d="M17.6072 56.869C17.1701 57.17 16.1392 58.524 16.2171 60.119C16.9895 59.764 23.5079 57.561 26.6922 55.149C27.9236 54.217 27.9815 52.991 27.9695 52.255C26.1703 52.629 19.4014 55.944 17.6072 56.869Z" fill="#5D2E51"/>
</svg>
