<svg width="30" height="61" viewBox="0 0 30 61" fill="none" xmlns="http://www.w3.org/2000/svg">
<path fill-rule="evenodd" clip-rule="evenodd" d="M1.25543 18.6049C0.896085 19.9769 0.586233 20.1739 0.457102 21.8169C2.97894 21.1309 5.57382 20.0859 9.08539 20.7339C8.40651 22.8349 0.253828 27.4859 0.00315119 39.8119C-0.180865 48.8709 7.72333 52.5249 16.1225 51.7589C20.4797 51.3609 24.456 49.7569 27.847 47.2749C27.9105 47.2279 28.5421 46.7269 28.57 46.7009C29.1413 46.1589 28.9014 46.4369 29.2262 45.9119C27.5706 46.1139 25.8611 46.7729 24.0343 47.0239C16.3667 48.0789 -0.0786798 47.1939 2.29896 34.9549C3.91269 26.6479 12.5733 20.9519 20.2214 20.2639C21.9364 19.8699 21.6771 20.3509 22.4301 18.5759C22.8788 17.5189 23.3124 16.7679 23.5985 15.6329C19.0445 15.9909 16.0784 16.394 11.2639 16.114C9.26831 15.999 6.89606 15.8429 4.91759 16.0079C2.24946 16.2299 2.24836 17.5949 1.25543 18.6049Z" fill="#211D21"/>
<path fill-rule="evenodd" clip-rule="evenodd" d="M15.2556 7.93896C17.2761 6.75796 17.1137 7.22698 18.3584 5.88498C18.8522 5.35298 18.9814 4.82497 19.1319 4.07397C17.4267 4.53497 14.6694 6.12997 12.8458 7.02997C10.8297 8.02497 8.45093 8.90697 8.4165 11.284C9.25356 11.282 14.2691 8.51596 15.2556 7.93896Z" fill="#671E5F"/>
</svg>
