<svg width="30" height="61" viewBox="0 0 30 61" fill="none" xmlns="http://www.w3.org/2000/svg">
<path fill-rule="evenodd" clip-rule="evenodd" d="M21.6409 29.7677C21.589 28.2972 21.8814 27.7743 22.555 26.8817C26.356 26.9636 25.5467 32.7185 21.6409 29.7677ZM20.143 44.4115C17.3878 45.6577 13.6366 46.1968 10.2387 45.4076C3.18938 43.7689 6.80883 34.8035 8.70786 29.8378C8.89048 23.9148 4.10347 39.0706 3.97074 40.5346C3.44284 42.969 3.94481 46.1224 4.94472 47.7827C6.24102 49.9378 7.1771 50.6148 10.1718 51.0945C12.6846 51.4967 15.4288 51.2487 17.7769 50.5264C28.752 47.152 32.5042 35.7512 27.8968 25.3196C27.1204 23.5644 26.4269 21.957 24.8183 21.2918C22.7007 20.4153 21.8574 22.2071 20.9184 23.5773C15.6254 31.2965 18.3927 36.6902 23.4801 35.5571C25.5757 35.0913 25.2124 33.1087 26.377 31.8204C30.4245 37.599 24.8791 42.2704 20.143 44.4115Z" fill="#211D21"/>
<path fill-rule="evenodd" clip-rule="evenodd" d="M18.4365 12.1615C17.691 13.1792 16.0295 14.3662 15.748 15.3979C16.3917 16.1515 18.1331 18.0091 18.7328 18.4047C19.2847 18.0931 19.0642 18.2581 19.6449 17.6877L21.8035 15.1305C21.0431 14.0459 19.6749 12.3016 18.4365 12.1615Z" fill="#211D21"/>
<path fill-rule="evenodd" clip-rule="evenodd" d="M28.4835 15.1305C27.8578 14.171 26.5376 12.8223 25.6135 12.1593C24.8162 12.4806 23.0758 14.2486 22.498 15.1305C22.8882 16.1709 24.5707 17.567 25.3591 18.3475C26.6873 17.5325 27.777 16.6592 28.4835 15.1305Z" fill="#211D21"/>
<path fill-rule="evenodd" clip-rule="evenodd" d="M10.9331 12.0095C6.79978 11.0305 10.9162 7.76931 10.9331 12.0095V12.0095ZM9.8424 15.0303C9.23168 17.2231 2.38601 22.027 0 23.1375C1.40207 24.1304 8.71776 18.7734 10.6397 16.0038C11.3812 16.0189 12.2763 17.2673 13.4469 14.3122C12.9369 13.6363 12.0518 13.5608 12.6116 11.9092C13.0437 10.6403 13.5167 10.498 13.2263 8.95738C11.6057 4.48545 2.72229 10.8732 9.8424 15.0303Z" fill="#671E5F"/>
</svg>
