<svg width="36" height="62" viewBox="0 0 36 62" fill="none" xmlns="http://www.w3.org/2000/svg">
<path fill-rule="evenodd" clip-rule="evenodd" d="M6.10707 31.866C4.53735 38.743 3.5295 46.143 11.0847 49.599C17.3666 52.472 26.1462 51.169 31.8314 47.391C32.5339 46.925 34.1605 45.618 34.7203 45.382C33.6885 45.264 30.3495 46.27 28.9853 46.487C26.756 46.842 24.4757 47.005 22.1356 46.921C14.8828 46.664 4.73598 43.057 7.45131 33.589C8.1279 31.229 10.0029 28.287 11.5487 26.639C13.347 24.7235 14.5275 23.6529 16.9345 22.4131C25.2242 18.1439 26.5504 22.3614 28.3227 15.2018C25.798 15.2858 23.7133 15.7958 21.1187 15.8443C11.3072 16.0276 6.59609 12.9151 5.07627 21.7318C9.38527 20.285 7.83347 20.3044 14.0435 20.3249C13.5964 21.4806 11.8631 23.0018 10.943 24.1316C8.74058 26.839 7.56303 28.678 6.10707 31.866Z" fill="#211D21"/>
<path fill-rule="evenodd" clip-rule="evenodd" d="M17 32.9349C17.6486 33.6549 19.2393 35.4669 20.0187 35.8139C20.818 35.5069 22.733 33.5039 23.0443 32.6679L20.0835 29.5709C19.1385 30.1049 17.2764 32.0609 17 32.9349Z" fill="#211D21"/>
<path fill-rule="evenodd" clip-rule="evenodd" d="M11.1637 5.87512C7.03028 4.89622 11.1457 1.63492 11.1637 5.87512V5.87512ZM10.0719 8.89593C9.46122 11.0887 2.61649 15.8927 0.230469 17.0031C1.63055 17.9961 8.94728 12.6401 10.8703 9.86942C11.6107 9.88452 12.5059 11.1329 13.6775 8.17783C13.1675 7.50193 12.2803 7.42643 12.8422 5.77483C13.2723 4.50593 13.7463 4.36362 13.4559 2.82302C11.8353 -1.64888 2.95279 4.73983 10.0719 8.89593Z" fill="#671E5F"/>
</svg>
