<svg width="43" height="62" viewBox="0 0 43 62" fill="none" xmlns="http://www.w3.org/2000/svg">
<path fill-rule="evenodd" clip-rule="evenodd" d="M23.5768 32.4C24.6834 30.851 28.24 27.597 30.2488 26.965C33.2715 26.013 37.1674 28.262 38.5485 29.972C36.4329 31.399 26.8 32.743 23.5768 32.4ZM5.92762 47.44C3.4468 46.244 2.60949 44.574 3.16733 41.193C3.56949 38.742 5.21809 35.942 5.25002 34.075C2.5277 36.318 0.419112 43.807 0.743435 47.28C0.997904 49.991 3.08554 52.328 5.15123 53.063C9.6668 54.667 17.5613 50.635 19.3815 48.106L20.6239 46.191C21.1977 43.316 21.4063 43.953 21.7945 40.15C21.8214 39.882 21.8604 39.406 21.9073 39.161C21.9392 38.998 21.9731 38.838 22.016 38.695C22.466 37.181 26.2931 38.052 30.7528 36.985C33.515 36.326 35.7104 35.697 38.1653 34.674C41.8277 33.148 43.9911 27.9 41.652 25.555C39.6781 23.578 35.4799 21.78 32.7276 22.178C27.5115 22.933 22.6666 30.953 20.594 31.65C19.4404 30.388 19.5741 29.54 18.3197 28.796C17.0095 32.639 16.2051 32.104 18.1101 36.241C23.1287 47.139 9.94424 49.375 5.92762 47.44Z" fill="#211D21"/>
<path fill-rule="evenodd" clip-rule="evenodd" d="M28.0405 17.6339C28.7091 16.0629 26.5067 14.3149 25.1635 13.6679C24.2754 14.2129 22.4661 15.7739 22.0869 16.9939C22.7845 17.9959 24.2594 19.542 25.1635 20.051C26.1854 19.51 27.1334 17.8879 28.0405 17.6339Z" fill="#211D21"/>
<path fill-rule="evenodd" clip-rule="evenodd" d="M14.9577 12.859C10.5968 11.869 14.9378 8.57201 14.9577 12.859V12.859ZM13.8061 15.913C13.1605 18.13 5.93958 22.9869 3.42383 24.1089C4.90074 25.1139 12.6196 19.6979 14.6474 16.897C15.4288 16.913 16.3748 18.175 17.6082 15.188C17.0703 14.504 16.1363 14.427 16.7281 12.758C17.1831 11.474 17.6821 11.331 17.3757 9.77301C15.6663 5.25204 6.29483 11.711 13.8061 15.913Z" fill="#671E5F"/>
</svg>
