<svg width="26" height="61" viewBox="0 0 26 61" fill="none" xmlns="http://www.w3.org/2000/svg">
<path fill-rule="evenodd" clip-rule="evenodd" d="M22.738 36.348C23.219 38.848 23.5543 40.631 21.79 42.048C19.3461 44.011 16.9032 45.436 13.2079 46.481C7.54976 48.082 0.0713286 46.543 3.16787 37.527C3.74466 35.853 5.52293 32.936 4.83437 31.36C2.94132 33.144 0.920539 37.649 0.343743 40.102C-0.228064 42.529 -0.0543687 45.228 0.627209 47.517C3.24574 56.295 26.5571 53.176 25.1809 35.198C24.684 28.687 22.6023 23.58 21.8958 17.477C21.6443 15.301 23.1612 14.384 23.257 11.757C20.6305 10.875 20.4309 10.445 20.7322 8.07404C19.7094 8.49103 18.0718 11.46 17.7574 12.519C17.2345 14.287 18.2125 14.307 19.1056 18.362C20.4448 24.431 21.5715 30.27 22.738 36.348Z" fill="#211D21"/>
<path fill-rule="evenodd" clip-rule="evenodd" d="M13.5791 57.098C15.6129 56.609 18.6426 55.1859 20.5636 54.2979C23.0873 53.1309 25.3555 52.628 25.8495 49.744C24.0782 50.043 20.4388 51.7959 18.8422 52.5479C16.546 53.6319 13.8655 54.152 13.5791 57.098Z" fill="#671E5F"/>
</svg>
