<svg width="39" height="61" viewBox="0 0 39 61" fill="none" xmlns="http://www.w3.org/2000/svg">
<path fill-rule="evenodd" clip-rule="evenodd" d="M3.71731 35.4811C3.17844 38.9931 -1.44194 43.0451 0.454103 49.6471C2.15056 55.5141 10.4931 54.6901 14.7242 52.8781C15.8419 52.4011 16.9396 51.8471 17.9675 51.2931C20.8015 49.7641 22.5379 48.2061 23.5758 45.0121C24.3641 42.5571 24.1346 41.5911 24.4439 38.8841C28.5154 38.6691 28.266 38.0601 30.4614 35.4321C31.6689 36.4251 32.1079 37.0331 34.0539 37.2231C35.91 37.4061 37.0776 37.0011 37.7163 35.7061C38.5046 34.1011 39.1034 28.0161 38.2552 26.1511C36.8381 26.5691 36.429 30.2501 36.3791 31.9611C31.9583 32.3871 32.557 29.5691 32.078 28.7931C30.8107 29.8481 30.0423 32.4891 26.9887 33.3001C22.4082 34.5191 23.5858 31.4851 21.8594 29.2981C20.4523 29.7691 19.7138 33.6661 19.8535 34.2481C21.071 39.0761 26.7392 43.5641 15.6124 47.8491C12.3692 49.0971 5.97262 50.1271 3.60755 47.3311C0.983033 44.2231 3.44788 39.5261 3.97678 36.9581C4.27615 35.5571 3.96679 35.6741 3.71731 35.4811Z" fill="#211D21"/>
<path fill-rule="evenodd" clip-rule="evenodd" d="M16.0019 12.9261C11.641 11.9361 15.992 8.63908 16.0019 12.9261V12.9261ZM14.8543 15.9811C14.2057 18.1961 6.99082 23.0541 4.47607 24.1761C5.95299 25.1801 13.6669 19.7651 15.6926 16.9631C16.481 16.9791 17.419 18.2421 18.6564 15.2551C18.1176 14.5711 17.1895 14.4941 17.7783 12.8251C18.2273 11.5411 18.7363 11.3981 18.4269 9.84008C16.7105 5.31908 7.34 11.7781 14.8543 15.9811Z" fill="#671E5F"/>
</svg>
