<svg width="35" height="61" viewBox="0 0 35 61" fill="none" xmlns="http://www.w3.org/2000/svg">
<path fill-rule="evenodd" clip-rule="evenodd" d="M0.21877 48.8081C0.80754 50.5111 2.42418 51.9121 4.59963 51.9831C7.03455 52.0621 8.35182 50.4991 9.60919 49.4021C14.1697 45.431 15.5168 42.296 20.3268 37.471C21.4445 36.357 27.3221 30.676 30.0065 32.675C31.4136 32.993 31.1941 33.439 32.2918 33.442C33.15 30.954 35.4552 29.259 32.7708 27.663C30.6752 26.422 27.7812 27.507 25.7754 28.605C18.1313 32.777 15.0379 40.846 7.37387 46.876C5.02877 48.715 2.18464 48.4391 1.56593 45.5951C1.0071 43.0041 3.06281 40.825 3.56176 38.613C1.38631 40.082 -0.689333 46.202 0.21877 48.8081Z" fill="#211D21"/>
<path fill-rule="evenodd" clip-rule="evenodd" d="M24.5679 18.954C25.476 20.085 26.9129 21.67 28.1603 22.041C28.9886 20.651 30.0764 20.108 30.9645 18.954C30.5654 18.001 28.4099 16.02 27.7213 15.671C27.1325 16.058 24.8972 18.153 24.5679 18.954Z" fill="#211D21"/>
<path fill-rule="evenodd" clip-rule="evenodd" d="M15.9162 11.626C11.5553 10.637 15.8963 7.34001 15.9162 11.626V11.626ZM14.7687 14.681C14.1201 16.897 6.9051 21.755 4.38037 22.877C5.86727 23.881 13.5812 18.466 15.6069 15.664C16.3953 15.68 17.3333 16.943 18.5707 13.956C18.0318 13.272 17.1038 13.195 17.6925 11.526C18.1416 10.242 18.6406 10.099 18.3412 8.54102C16.6248 4.02002 7.2544 10.479 14.7687 14.681Z" fill="#671E5F"/>
</svg>
