<svg width="147" height="60" viewBox="0 0 147 60" fill="none" xmlns="http://www.w3.org/2000/svg">
<path fill-rule="evenodd" clip-rule="evenodd" d="M81.4315 43.1805C82.6637 42.5014 82.503 41.6405 82.2928 41.6764C79.5343 42.6708 76.761 43.6738 73.9172 44.8598C73.1155 45.2289 73.2758 46.2327 73.2758 46.2327C75.4549 45.5215 79.6423 43.8764 81.4315 43.1805Z" fill="#211D21"/>
<path fill-rule="evenodd" clip-rule="evenodd" d="M11.7894 19.4435C13.0214 18.7644 12.8606 17.9035 12.651 17.9394C9.89173 18.9338 7.25401 19.7715 4.41045 20.9575C3.60848 21.3266 3.76897 22.3304 3.76897 22.3304C5.94763 21.6192 10 20.1394 11.7894 19.4435Z" fill="#211D21"/>
<path fill-rule="evenodd" clip-rule="evenodd" d="M23.2939 45.8855C24.0131 46.8551 24.6268 47.4186 25.5551 48.0013L27.8296 45.9508C27.4072 45.1853 26.2519 44.0873 25.5551 43.7126C24.8304 44.0815 23.6025 45.2845 23.2939 45.8855Z" fill="#211D21"/>
<path fill-rule="evenodd" clip-rule="evenodd" d="M28.6532 49.8357C29.8857 49.1566 29.7245 48.2957 29.5146 48.3317C26.7561 49.326 26.3128 49.4411 23.469 50.627C22.6673 50.9961 22.8275 51.9999 22.8275 51.9999C25.0064 51.2887 26.8644 50.5316 28.6532 49.8357Z" fill="#211D21"/>
<path fill-rule="evenodd" clip-rule="evenodd" d="M24.3437 24.5742C23.0347 24.3142 23.586 23.4972 23.5611 22.664C22.4223 23.8132 22.3734 25.3354 23.1017 25.9731C24.4015 27.1121 25.7902 25.1264 26.1624 25.0354C26.5779 25.1127 27.9158 25.5522 28.5002 24.3415C28.9415 23.4275 28.8429 22.8604 28.8709 21.2156C28.7654 21.2819 28.623 21.2646 28.5619 21.4255C28.3729 21.5263 28.1 22.6951 27.5821 23.3324C27.2731 23.7117 26.6861 23.9196 26.5024 23.5558C26.4966 23.5443 26.1759 22.0181 26.1389 21.9339C24.7169 23.6171 25.6646 24.29 24.3437 24.5742Z" fill="#211D21"/>
<path fill-rule="evenodd" clip-rule="evenodd" d="M41.8388 24.5742C40.5304 24.3142 41.0814 23.4972 41.0559 22.664C39.9174 23.8132 39.8685 25.3354 40.5969 25.9731C41.8969 27.1121 43.2853 25.1264 43.658 25.0354C44.073 25.1127 45.4112 25.5522 45.9954 24.3415C46.4369 23.4275 46.3385 22.8604 46.3663 21.2156C46.2606 21.2819 46.1184 21.2646 46.057 21.4255C45.8685 21.5263 45.5952 22.6951 45.0772 23.3324C44.7687 23.7117 44.1818 23.9196 43.9978 23.5558C43.992 23.5443 43.6715 22.0181 43.6343 21.9339C42.2125 23.6171 43.1602 24.29 41.8388 24.5742Z" fill="#211D21"/>
<path fill-rule="evenodd" clip-rule="evenodd" d="M45.4645 19.4094C46.697 18.7303 46.5363 17.8691 46.3263 17.9053C43.5673 18.8995 43.1241 19.0145 40.2808 20.2007C39.4788 20.5698 39.639 21.5736 39.639 21.5736C41.8177 20.8624 43.6756 20.1053 45.4645 19.4094Z" fill="#211D21"/>
<path fill-rule="evenodd" clip-rule="evenodd" d="M58.3496 29.7668C59.0688 30.7365 59.6825 31.3 60.6106 31.8826L62.8853 29.8322C62.4629 29.0666 61.3076 27.9687 60.6106 27.5939C59.886 27.9628 58.6581 29.1658 58.3496 29.7668Z" fill="#211D21"/>
<path fill-rule="evenodd" clip-rule="evenodd" d="M7.4828 29.3227C8.55302 29.8467 9.55752 29.7987 10.1852 30.4082C9.93965 30.9482 9.20596 31.4421 8.44501 31.6461C7.75641 31.9163 7.47898 31.8293 7.35059 32.4109C9.66885 33.1601 11.2231 31.2479 11.9565 30.0107C13.9334 26.6764 11.7642 27.5845 9.95035 26.3465C10.3941 25.8228 11.3388 24.9777 11.7239 24.3685C11.9751 23.9713 11.8337 23.2576 11.8337 23.2576C10.3788 23.7361 7.44688 27.2399 7.4828 29.3227Z" fill="#211D21"/>
<path fill-rule="evenodd" clip-rule="evenodd" d="M36.4009 45.2731C35.3552 45.4292 34.5323 45.4905 33.4463 45.5583L34.7483 46.0371C36.7989 46.4693 37.8128 46.63 40.1091 46.5863C45.5942 46.1795 48.3252 39.5715 47.2229 35.6897C46.935 34.6752 45.4758 32.2747 44.3814 32.0821C43.6469 32.7344 43.4479 33.9147 43.4943 35.1111C44.377 35.8777 45.0931 36.5851 45.6406 37.7049C46.4405 39.3404 45.7609 39.8911 44.8901 40.964C43.1687 43.0839 39.1245 44.867 36.4009 45.2731Z" fill="#211D21"/>
<path fill-rule="evenodd" clip-rule="evenodd" d="M1.25171 40.6875C4.11107 43.0622 11.0885 41.7596 13.7971 40.6168C16.1426 39.6426 16.5135 38.8151 17.8999 37.0809C18.9902 39.137 17.1002 42.1122 26.0136 41.692C27.83 41.4573 33.7242 40.4199 34.746 39.5804C35.7052 38.7926 37.0607 34.4136 35.5663 31.9668C35.1493 31.2841 35.3218 31.5055 34.7705 31.2303C32.4701 33.6764 34.6265 35.1657 34.7058 36.6075C32.3992 37.936 22.5362 39.5171 20.5758 37.5684C18.5689 35.5736 18.0726 22.0726 17.3789 17.8C15.8853 18.2395 15.6902 20.3652 15.8845 22.5754C16.19 26.0447 17.7009 35.233 14.8161 37.1534C11.9501 38.1727 8.42636 39.4298 4.93852 38.649C-0.43654 37.4457 2.02235 33.119 2.65847 31.4058C2.24882 31.5971 1.91458 32.1264 1.36049 33.1991C0.248489 35.3519 -0.928221 38.8778 1.25171 40.6875Z" fill="#211D21"/>
<path fill-rule="evenodd" clip-rule="evenodd" d="M52.5745 45.9156C55.2015 51.32 65.8396 49.7752 68.8581 43.3661C69.3781 42.2633 69.4069 39.7445 69.8206 39.2025C71.7555 39.0925 74.3624 37.2346 74.9236 37.0242C76.6827 36.3658 79.3267 37.5114 81.11 37.8117C83.9294 38.1895 84.5986 36.3097 83.961 33.7062C83.3328 31.1401 82.5199 30.4294 81.3989 28.8682C78.2423 28.6823 77.2199 31.0595 76.1686 32.9166C75.5075 34.0845 74.1124 34.9474 72.7243 35.2541C68.4747 36.1923 68.2814 33.889 67.6572 32.7562C66.8237 33.4179 65.893 34.374 65.9809 35.0648C66.1524 36.4122 67.2198 38.5606 67.5067 39.7575C67.9629 41.6595 67.4886 42.2876 66.3358 43.1922C65.4205 43.9102 64.5767 44.4092 63.3802 44.9146C61.1725 45.8464 57.2314 46.1533 55.3699 44.6312C52.3806 42.1863 54.9447 39.5757 54.8994 38.315C53.6931 38.9346 51.5117 43.7296 52.5745 45.9156ZM77.733 33.187C78.6208 33.7493 79.8735 33.823 81.0153 33.9579C80.505 32.2416 78.1467 31.709 77.733 33.187Z" fill="#211D21"/>
<path fill-rule="evenodd" clip-rule="evenodd" d="M104.361 26.1572C103.087 27.4945 98.9834 30.4613 98.2158 31.5367C99.1926 31.2472 101.465 29.6777 102.309 29.0632C104.736 27.2938 105.086 26.9044 105.133 26.9019C105.182 26.8997 106.231 26.96 106.893 26.8581C106.63 26.2702 106.327 26.1914 106.362 25.5973C106.373 25.3986 106.577 24.9397 106.673 24.5613C107.028 23.1662 106.805 21.7183 105.078 22.0485C104.206 22.2154 103.581 22.6964 103.072 23.5192C102.311 24.7512 103.57 25.3979 104.361 26.1572ZM104.12 23.5768C104.495 24.1623 104.779 24.5609 105.409 24.926C105.728 23.7181 105.066 23.1059 104.12 23.5768Z" fill="#35388A"/>
<path fill-rule="evenodd" clip-rule="evenodd" d="M141.194 19.3481C141.264 19.6064 141.359 19.7198 141.58 19.921C141.66 19.759 141.572 19.3939 141.803 19.2577C142.76 18.983 144.525 18.5364 145.022 18.1267C145.454 17.7695 146.056 17.1917 145.811 16.7138C144.818 14.7709 141.244 16.0469 141.012 18.2589C140.544 18.4648 139.922 18.1543 139.627 17.9854C139.137 17.7038 138.433 18.3397 137.601 19.3486C137.899 19.4968 138.341 18.8387 139.307 18.7907C139.875 18.9241 140.907 19.3688 141.194 19.3481ZM141.709 18.2016C142.372 18.2119 144.069 17.7291 144.179 17.1745C143.173 16.2232 141.679 17.3077 141.709 18.2016Z" fill="#35388A"/>
<path fill-rule="evenodd" clip-rule="evenodd" d="M142.97 41.8702L143.358 40.7848C143.436 40.2725 143.456 39.6723 143.498 39.1809C143.694 37.3536 143.466 34.5569 143.18 32.7966C142.848 30.7547 141.524 22.412 140.921 20.602C140.079 21.136 139.46 23.1343 139.672 24.5263C139.73 24.9096 140.766 29.5806 141.594 33.9791C142.341 37.9437 142.886 41.6876 142.97 41.8702Z" fill="#35388A"/>
<path fill-rule="evenodd" clip-rule="evenodd" d="M124.87 25.4504C123.607 25.1995 124.139 24.411 124.115 23.6069C123.016 24.716 122.969 26.185 123.672 26.8005C124.927 27.8998 126.266 25.9834 126.626 25.8955C127.027 25.9701 128.318 26.3943 128.882 25.2259C129.308 24.3438 129.213 23.7965 129.24 22.209C129.138 22.2731 129.001 22.2563 128.941 22.4117C128.759 22.5089 128.496 23.637 127.996 24.2519C127.698 24.618 127.132 24.8187 126.954 24.4676C126.948 24.4565 126.639 22.9836 126.603 22.9023C125.231 24.5267 126.146 25.1762 124.87 25.4504Z" fill="#C43025"/>
<path fill-rule="evenodd" clip-rule="evenodd" d="M128.371 20.4659C129.561 19.8105 129.405 18.9794 129.203 19.0143C126.54 19.9737 126.112 20.0848 123.368 21.2295C122.594 21.5858 122.749 22.5545 122.749 22.5545C124.852 21.8682 126.645 21.1375 128.371 20.4659Z" fill="#C43025"/>
<path fill-rule="evenodd" clip-rule="evenodd" d="M124.39 30.4617C124.552 30.6855 126.003 32.2685 126.493 32.4938C127.1 31.9785 127.821 31.3204 128.4 30.4617C128.043 29.6616 127.136 28.9087 126.493 28.4348C126.04 28.6719 125.762 28.972 125.376 29.3347C124.699 29.9701 124.664 29.8834 124.39 30.4617Z" fill="#C43025"/>
<path fill-rule="evenodd" clip-rule="evenodd" d="M120.976 38.3551L120.366 41.8227V41.8864C121.65 42.9428 123.418 42.7257 124.955 42.0974C125.818 41.7446 127.627 40.3477 128.125 39.5631L128.974 37.5045L128.879 36.5143C128.508 36.1841 128.057 36.1984 127.703 36.5315C127.045 37.1517 126.443 38.6869 125.454 39.1148C123.679 39.8829 122.21 39.7965 120.976 38.3551Z" fill="#C43025"/>
<path fill-rule="evenodd" clip-rule="evenodd" d="M118.201 23.7229C118.793 26.6245 118.66 31.007 118.622 33.9689C118.589 36.4555 118.688 37.4991 119.034 39.0452C119.386 40.621 119.264 40.6715 120.366 41.8227L120.975 38.3551C119.938 35.2743 119.923 33.3552 120.144 29.8583C120.229 28.5168 120.363 26.8707 120.329 25.5078C120.298 24.2877 120.396 22.3268 119.486 21.6227C118.947 22.17 118.531 23.2077 118.201 23.7229Z" fill="#35388A"/>
<path fill-rule="evenodd" clip-rule="evenodd" d="M128.973 37.5046L128.124 39.5632C128.707 41.1977 131.557 41.5067 133.598 41.1315C138.608 40.2102 134.493 29.0956 135.145 26.7856C135.592 25.2036 137.732 25.029 135.457 23.3473L134.324 22.3773C131.895 24.7425 132.922 26.0613 133.566 29.3573C133.938 31.2584 134.744 36.3361 134.574 38.1388C132.204 38.8522 130.776 38.9773 128.973 37.5046Z" fill="#35388A"/>
<path fill-rule="evenodd" clip-rule="evenodd" d="M88.5725 46.9632C91.0036 48.8628 97.5903 48.9795 100.552 45.3433C101.65 43.9966 102.742 41.7043 103.11 39.8493C104.996 40.4896 106.923 39.8734 108.15 38.5708C108.973 39.5836 110.652 39.6683 111.444 39.5807C113.675 39.3337 114.65 36.0065 114.367 34.9717C114.237 34.4924 113.553 34.4067 113.401 34.8306C113.169 35.4766 112.648 36.2741 112.388 36.5744C111.722 37.3448 110.404 36.9929 109.758 36.422L109.759 34.6004C108.041 35.5837 108.629 36.6766 105.474 36.8339C101.815 37.0158 102.14 35.8366 101.633 34.111C100.774 34.4458 99.5967 35.6207 99.8047 36.3519C99.968 37.36 101.01 39.0321 101.289 40.2279C101.69 41.9461 101.232 42.647 100.145 43.2851C99.4079 43.7184 98.1253 44.3853 97.3692 44.6229C94.9291 45.3898 92.0153 45.3807 90.1697 44.1355C87.7115 42.4769 89.0443 40.3832 89.5412 37.9085C88.1506 38.6407 85.9013 44.876 88.5725 46.9632Z" fill="#35388A"/>
</svg>
