<svg width="67" height="60" viewBox="0 0 67 60" fill="none" xmlns="http://www.w3.org/2000/svg">
<path fill-rule="evenodd" clip-rule="evenodd" d="M36.0266 31.025C32.926 33.2681 32.0482 36.551 31.0973 37.1359C30.2812 37.6381 25.1476 38.1358 22.7762 36.4691C22.6835 36.4038 22.4948 36.2528 22.4023 36.1884L21.7818 35.7978C21.5733 37.0692 20.9662 37.2792 21.0325 38.6633C21.4805 39.0613 22.457 39.7614 22.8066 40.3058C21.8011 43.1465 18.421 45.5279 15.4586 46.0616C13.6578 46.3861 14.2437 46.0753 14.0977 46.6822C15.7883 46.6257 21.7351 49.9706 24.03 40.5808C24.664 40.5712 30.0326 40.6063 30.1208 40.6289C30.3669 42.0387 27.7372 46.329 33.8809 47.7456C35.1196 46.523 35.4477 47.0752 35.9881 44.943C36.2827 43.7806 36.4354 42.3319 36.9306 41.3349C38.1572 40.6203 46.1932 39.7312 48.1448 39.5886C49.7363 39.4725 51.9164 40.113 53.9493 40.0233C56.485 39.9113 56.904 39.1516 58.3566 38.1273C60.1397 38.6152 63.153 39.7976 65.0667 39.64C66.0521 38.2585 66.8856 36.3755 65.9885 34.5669C65.4372 33.4554 63.8384 31.8111 63.021 31.0775C60.7892 30.9803 60.2284 32.8019 59.4296 34.4492C58.4074 36.5569 57.8135 37.3209 55.1001 37.2566C55.4294 36.0114 56.1978 35.5598 56.2799 34.1619C48.8227 28.0623 46.2625 32.8722 43.1134 34.2863C43.2506 30.8074 42.41 26.5585 42.6016 23.7114C42.634 23.2332 42.7082 22.8939 42.8099 22.6257C43.452 20.9285 43.8821 21.0277 42.7069 20.084C42.4574 19.8708 42.4129 19.5377 42.1023 19.0037C40.6439 21.5277 40.364 20.601 41.0112 24.3255C41.3451 26.2461 41.7682 28.3057 41.9319 30.2487C42.0273 31.384 42.0435 32.6518 41.9494 33.7858C41.8366 35.1458 41.8904 35.4788 41.0228 36.1766C39.2492 37.6039 39.2625 38.172 36.012 37.8943C38.6048 34.1274 38.9635 29.6769 36.0266 31.025ZM32.6631 36.8121C33.5005 36.4675 37.6404 35.4363 36.1186 34.0337C35.0841 33.0805 32.63 35.7336 32.6631 36.8121ZM34.7147 44.4766C34.5014 42.9277 32.4766 42.0688 31.0207 41.7053C31.4254 43.2565 33.1143 44.5336 34.7147 44.4766ZM59.9836 35.1369C60.9722 35.4594 62.1811 36.0335 63.3138 36.0476C62.8392 35.1728 60.5971 32.7191 59.9836 35.1369ZM42.2534 37.1569C42.7878 37.4973 44.0377 37.1776 44.6509 37.1098C46.6724 36.8867 51.1703 36.5229 52.6292 35.8973C51.6578 34.9745 48.7954 33.9926 46.8974 34.5019C44.9196 35.0327 43.872 36.1763 42.2534 37.1569Z" fill="#35388A"/>
<path fill-rule="evenodd" clip-rule="evenodd" d="M10.8545 39.4401C13.8965 40.3047 15.8927 38.3425 17.0228 36.0663C17.5175 35.0696 18.0883 33.4789 17.0733 32.5133C16.3626 31.8369 14.7501 30.5148 13.4225 30.6919L12.4665 32.5454C12.5547 32.8834 12.5561 33.1542 12.4344 33.4112C11.3611 35.6727 9.86367 37.8359 10.8545 39.4401ZM15.56 35.6875C15.0448 34.9163 13.8746 34.2497 12.4738 34.459C12.2842 35.3701 11.9039 36.3981 13.0583 36.538C14.0849 36.6626 15.0876 36.1494 15.56 35.6875Z" fill="#35388A"/>
<path fill-rule="evenodd" clip-rule="evenodd" d="M10.5234 25.6907C11.2447 26.1852 11.8766 27.022 12.4333 27.4635L14.4168 25.6592C14.1121 24.9468 13.1928 23.8762 12.4333 23.5604C11.7914 24.0327 10.8477 24.8225 10.5234 25.6907Z" fill="#35388A"/>
<path fill-rule="evenodd" clip-rule="evenodd" d="M14.9404 25.3616C15.2296 26.2219 16.1259 27.0616 16.8364 27.5052L18.7795 25.6384C18.4017 24.9285 17.381 23.8889 16.8364 23.5854L14.9404 25.3616Z" fill="#35388A"/>
<path fill-rule="evenodd" clip-rule="evenodd" d="M8.3916 46.4169C11.1027 45.2924 12.9412 44.8899 14.654 44.0255C15.3809 43.6588 15.1938 43.2842 15.3178 42.8445C13.4034 43.4193 11.0068 44.2355 9.19077 44.9864C8.13637 45.4225 8.55841 45.8168 8.3916 46.4169Z" fill="#C43025"/>
<path fill-rule="evenodd" clip-rule="evenodd" d="M63.9388 22.1759C63.6811 22.9447 64.1011 23.0455 65.0509 23.2634C65.05 22.7569 64.9919 22.235 64.3839 22.1074C63.4641 21.9142 64.318 22.0652 63.9388 22.1759Z" fill="#35388A"/>
<path fill-rule="evenodd" clip-rule="evenodd" d="M62.8148 24.8515C61.7287 25.9911 58.2324 28.5192 57.5781 29.4356C58.4103 29.1887 60.3469 27.8515 61.0658 27.3278C63.1343 25.82 63.4321 25.4882 63.4722 25.4861C63.5137 25.4841 64.4082 25.5356 64.9728 25.4487C64.7484 24.9478 64.4895 24.8807 64.5196 24.3746C64.5292 24.2051 64.703 23.814 64.7851 23.4918C65.0872 22.3029 64.8976 21.0691 63.4251 21.3505C62.6822 21.4926 62.1496 21.9027 61.7164 22.6037C61.0672 23.6533 62.1401 24.2044 62.8148 24.8515ZM62.6093 22.6527C62.929 23.1515 63.1705 23.4911 63.7079 23.8026C63.9793 22.7732 63.4153 22.2516 62.6093 22.6527Z" fill="#35388A"/>
<path fill-rule="evenodd" clip-rule="evenodd" d="M54.5831 23.5324C55.6995 22.9172 55.5536 22.1371 55.3633 22.1697C52.8637 23.0706 49.8979 23.8615 47.3219 24.936C46.5952 25.2705 46.7403 26.1798 46.7403 26.1798C48.7145 25.5354 52.9622 24.1629 54.5831 23.5324Z" fill="#35388A"/>
<path fill-rule="evenodd" clip-rule="evenodd" d="M27.3916 26.618C28.508 26.0029 28.3622 25.2227 28.1721 25.2553C25.6727 26.1562 22.7069 26.9471 20.1304 28.0216C19.404 28.3562 19.5489 29.2655 19.5489 29.2655C21.5233 28.6211 25.7709 27.2485 27.3916 26.618Z" fill="#35388A"/>
<path fill-rule="evenodd" clip-rule="evenodd" d="M33.8162 25.9575C32.6305 25.722 33.1298 24.9818 33.107 24.2271C32.0757 25.2684 32.031 26.6473 32.6912 27.2251C33.8691 28.2569 35.127 26.4579 35.464 26.3753C35.8402 26.4456 37.0526 26.8438 37.5819 25.7469C37.9819 24.9188 37.8928 24.4051 37.918 22.9149C37.8226 22.9749 37.6936 22.9591 37.638 23.1052C37.4668 23.1962 37.2194 24.2555 36.7504 24.8328C36.4706 25.1764 35.9389 25.3647 35.7721 25.0349C35.7669 25.0247 35.4763 23.6419 35.4428 23.5656C34.1544 25.0906 35.013 25.7001 33.8162 25.9575Z" fill="#35388A"/>
<path fill-rule="evenodd" clip-rule="evenodd" d="M37.1905 21.2319C38.3073 20.6165 37.9297 19.8774 37.7397 19.91C35.5997 20.5948 34.5592 20.7673 32.7553 21.4133C32.0288 21.7476 32.1739 22.6572 32.1739 22.6572C34.2404 22.047 36.2175 21.5658 37.1905 21.2319Z" fill="#35388A"/>
<path fill-rule="evenodd" clip-rule="evenodd" d="M6.87441 41.3256C7.53344 40.754 8.00219 40.3501 8.88363 40.6757C8.80911 41.4374 7.83493 41.384 7.17476 41.748C6.29286 42.2338 6.13585 42.2947 6.11648 43.3779C6.09415 44.6074 6.37148 46.0114 6.9642 47.0029C7.26067 47.4985 7.07882 47.2354 7.37484 47.5053C6.79237 45.4302 6.68732 44.5918 6.77209 42.7807C8.2736 41.8401 9.44399 42.7912 10.8833 42.0225C11.0485 40.5942 9.81224 39.0483 8.4126 39.3725C7.28687 39.634 7.18797 39.9948 6.87441 41.3256Z" fill="#C43025"/>
<path fill-rule="evenodd" clip-rule="evenodd" d="M2.11496 31.7138C3.28307 31.7138 4.22992 32.6619 4.22992 33.8316C4.22992 35.0013 3.28307 35.9494 2.11496 35.9494C0.946844 35.9494 0 35.0013 0 33.8316C0 32.6619 0.946844 31.7138 2.11496 31.7138ZM2.11496 32.2152C3.00665 32.2152 3.72926 32.939 3.72926 33.8316C3.72926 34.7245 3.00665 35.4481 2.11496 35.4481C1.22349 35.4481 0.500658 34.7245 0.500658 33.8316C0.500658 32.939 1.22349 32.2152 2.11496 32.2152Z" fill="#807380"/>
</svg>
