<svg width="184" height="60" viewBox="0 0 184 60" fill="none" xmlns="http://www.w3.org/2000/svg">
<path fill-rule="evenodd" clip-rule="evenodd" d="M3.25432 33.1059C4.52313 33.1059 5.55158 34.1357 5.55158 35.4062C5.55158 36.6767 4.52313 37.7066 3.25432 37.7066C1.98551 37.7066 0.957031 36.6767 0.957031 35.4062C0.957031 34.1357 1.98551 33.1059 3.25432 33.1059ZM3.25432 33.6504C4.22288 33.6504 5.00778 34.4366 5.00778 35.4062C5.00778 36.3761 4.22288 37.162 3.25432 37.162C2.28601 37.162 1.50084 36.3761 1.50084 35.4062C1.50084 34.4366 2.28601 33.6504 3.25432 33.6504Z" fill="#807380"/>
<path fill-rule="evenodd" clip-rule="evenodd" d="M29.0603 21.8078C29.5014 21.5527 29.5373 20.4994 29.3309 20.5348C26.616 21.5133 25.6235 21.6179 22.8252 22.7848C22.0358 23.1482 22.1935 24.1359 22.1935 24.1359C24.3381 23.4362 27.2994 22.4924 29.0603 21.8078Z" fill="#35388A"/>
<path fill-rule="evenodd" clip-rule="evenodd" d="M36.4564 21.8078C36.8977 21.5527 36.9339 20.4994 36.7275 20.5348C34.0124 21.5133 33.0198 21.6179 30.2215 22.7848C29.4319 23.1482 29.5901 24.1359 29.5901 24.1359C31.7341 23.4362 34.696 22.4924 36.4564 21.8078Z" fill="#35388A"/>
<path fill-rule="evenodd" clip-rule="evenodd" d="M44.8585 21.8078C45.2999 21.5527 45.336 20.4994 45.1293 20.5348C42.4147 21.5133 41.4221 21.6179 38.6236 22.7848C37.8343 23.1482 37.9924 24.1359 37.9924 24.1359C40.1365 23.4362 43.0979 22.4924 44.8585 21.8078Z" fill="#35388A"/>
<path fill-rule="evenodd" clip-rule="evenodd" d="M15.8867 25.1008L17.9172 27.244C18.7978 26.7716 19.6615 25.8932 20.1186 25.1008C19.7842 24.4189 18.6738 23.2577 17.9847 22.9449C17.3696 23.371 16.3273 24.2501 15.8867 25.1008Z" fill="#35388A"/>
<path fill-rule="evenodd" clip-rule="evenodd" d="M13.2628 47.1465C13.7041 46.8915 13.74 45.8381 13.5336 45.8735C10.819 46.8521 9.82643 46.9567 7.02792 48.1238C6.23857 48.4872 6.39674 49.4749 6.39674 49.4749C8.54079 48.7749 11.5022 47.8314 13.2628 47.1465Z" fill="#35388A"/>
<path fill-rule="evenodd" clip-rule="evenodd" d="M13.3853 44.2752C13.8266 44.0199 13.8625 42.9665 13.6561 43.0022C10.9407 43.9805 9.94816 44.0851 7.15039 45.2522C6.36103 45.6156 6.51871 46.6033 6.51871 46.6033C8.66276 45.9034 11.6246 44.9598 13.3853 44.2752Z" fill="#35388A"/>
<path fill-rule="evenodd" clip-rule="evenodd" d="M14.3543 41.6852C18.485 41.5308 20.7726 35.775 20.2283 34.0971C19.7823 32.7219 17.6088 32.162 16.1838 31.5699C15.6328 31.363 14.7558 31.008 14.2048 30.8011C13.5464 31.6745 13.0835 32.3264 12.4024 33.6048C12.6105 33.9726 12.6118 34.6074 12.6125 34.9457C11.2687 37.4496 9.61771 41.8622 14.3543 41.6852ZM18.1536 36.9737C17.6147 35.7178 15.209 35.0293 13.4494 34.8515C12.1241 39.5385 16.5375 38.8381 18.1536 36.9737Z" fill="#35388A"/>
<path fill-rule="evenodd" clip-rule="evenodd" d="M78.2965 43.0483C78.7378 42.7933 78.7737 41.7399 78.5673 41.7753C75.8522 42.7538 74.8596 42.8584 72.0613 44.0256C71.272 44.3887 71.4299 45.3767 71.4299 45.3767C73.5739 44.6767 76.5358 43.7329 78.2965 43.0483Z" fill="#35388A"/>
<path fill-rule="evenodd" clip-rule="evenodd" d="M45.2492 44.1693C45.8814 43.6213 46.3314 43.2339 47.1762 43.5462C47.1051 44.2767 46.1707 44.2256 45.5376 44.5746C44.6918 45.0405 44.5413 45.099 44.5227 46.1378C44.5009 47.3171 44.767 48.6635 45.3359 49.6142C45.6203 50.0896 45.4457 49.8373 45.7296 50.0963C45.171 48.106 45.07 47.302 45.1509 45.565C46.5918 44.6631 47.7138 45.5752 49.0943 44.8378C49.2524 43.4681 48.0668 41.9855 46.725 42.2963C45.6455 42.5474 45.5502 42.8934 45.2492 44.1693Z" fill="#C43025"/>
<path fill-rule="evenodd" clip-rule="evenodd" d="M55.677 44.0203C56.4545 43.5917 56.4351 42.5787 56.2287 42.6142C53.5139 43.5927 53.3362 43.4351 50.5381 44.602C49.7485 44.9653 49.9064 45.9533 49.9064 45.9533C52.0505 45.2533 53.9161 44.7048 55.677 44.0203Z" fill="#C43025"/>
<path fill-rule="evenodd" clip-rule="evenodd" d="M71.1992 16.0407C72.4123 15.3722 72.2537 14.5248 72.0472 14.5602C69.3321 15.5388 66.1106 16.3981 63.3123 17.565C62.5227 17.9284 62.6809 18.9161 62.6809 18.9161C64.825 18.2164 69.4386 16.7253 71.1992 16.0407Z" fill="#35388A"/>
<path fill-rule="evenodd" clip-rule="evenodd" d="M86.3535 46.4297C87.1312 46.0012 87.1119 44.9882 86.9055 45.0236C84.1904 46.0022 84.0129 45.8445 81.2149 47.0117C80.4253 47.3748 80.5832 48.3627 80.5832 48.3627C82.7273 47.6628 84.5929 47.1143 86.3535 46.4297Z" fill="#C43025"/>
<path fill-rule="evenodd" clip-rule="evenodd" d="M86.3535 44.0203C87.1312 43.5917 87.1119 42.5787 86.9055 42.6142C84.1904 43.5927 84.0129 43.4351 81.2149 44.602C80.4253 44.9653 80.5832 45.9533 80.5832 45.9533C82.7273 45.2533 84.5929 44.7048 86.3535 44.0203Z" fill="#C43025"/>
<path fill-rule="evenodd" clip-rule="evenodd" d="M101.758 18.8168C102.971 18.1484 102.812 17.3012 102.606 17.3366C99.8906 18.3152 96.6691 19.1742 93.8711 20.3414C93.0817 20.7047 93.2394 21.6925 93.2394 21.6925C95.384 20.9925 99.9976 19.5014 101.758 18.8168Z" fill="#35388A"/>
<path fill-rule="evenodd" clip-rule="evenodd" d="M111.048 18.1059C112.261 17.4376 112.102 16.5902 111.896 16.6256C109.181 17.6042 105.959 18.4633 103.161 19.6304C102.372 19.9938 102.529 20.9815 102.529 20.9815C104.674 20.2815 109.287 18.7907 111.048 18.1059Z" fill="#35388A"/>
<path fill-rule="evenodd" clip-rule="evenodd" d="M125.932 20.7684C127.145 20.1 126.986 19.2528 126.78 19.2882C124.065 20.2665 120.843 21.1258 118.045 22.293C117.256 22.6561 117.413 23.6441 117.413 23.6441C119.558 22.9441 124.172 21.453 125.932 20.7684Z" fill="#35388A"/>
<path fill-rule="evenodd" clip-rule="evenodd" d="M88.457 23.9215L90.5348 26.0878L92.7513 23.9855C92.3805 23.3341 91.3729 22.2302 90.6018 21.7897C90.0006 22.1558 88.8028 23.3088 88.457 23.9215Z" fill="#35388A"/>
<path fill-rule="evenodd" clip-rule="evenodd" d="M104.81 23.9216C105.208 24.6 106.324 25.7513 107 26.1221L109.167 23.9982L107.045 21.7967C106.254 22.1826 105.328 23.2673 104.81 23.9216Z" fill="#35388A"/>
<path fill-rule="evenodd" clip-rule="evenodd" d="M11.2871 25.1008L13.3171 27.244C14.1982 26.7716 15.0614 25.8932 15.5188 25.1008C15.1841 24.4189 14.0742 23.2577 13.3844 22.9449C12.77 23.371 11.7272 24.2501 11.2871 25.1008Z" fill="#35388A"/>
<path fill-rule="evenodd" clip-rule="evenodd" d="M83.6055 23.6933C83.926 24.575 84.9292 25.5837 85.8174 25.9974L87.9359 23.961C87.6921 23.5317 87.8795 23.796 87.5292 23.3449C87.2919 23.0388 87.2045 22.9778 86.982 22.7587C86.432 22.2159 86.3634 22.1323 85.8174 21.8096C84.8332 22.1896 84.3471 22.9966 83.6055 23.6933Z" fill="#35388A"/>
<path fill-rule="evenodd" clip-rule="evenodd" d="M37.2402 46.7622C37.7524 47.5575 38.3172 48.2776 39.3509 48.8528C40.2598 48.2632 41.2796 47.7253 41.6613 46.4781C40.8038 45.8567 40.615 45.2869 39.3509 44.637C38.6331 45.049 37.5613 46.0491 37.2402 46.7622Z" fill="#35388A"/>
<path fill-rule="evenodd" clip-rule="evenodd" d="M61.8702 34.181C62.1858 36.1334 62.047 37.7494 62.1455 39.3709C65.045 35.5968 61.7999 23.8236 61.4556 19.3624L61.2071 18.0211C60.6594 18.4888 60.0051 19.9581 59.8762 20.7733C59.5215 23.0203 61.6217 32.7643 61.8702 34.181Z" fill="#35388A"/>
<path fill-rule="evenodd" clip-rule="evenodd" d="M24.0625 43.3289C21.8288 44.9841 18.4103 45.488 15.6523 45.5822C16.2348 46.2509 17.5761 46.5384 18.4491 46.7215C22.8798 47.6525 26.8706 45.8342 28.3625 41.2479C29.5229 37.6812 28.6263 33.4877 26.0833 32.586L25.2402 35.8174C25.7783 36.4923 27.6486 38.0907 27.4986 39.4313C27.358 40.6902 25.1434 42.5281 24.0625 43.3289Z" fill="#35388A"/>
<path fill-rule="evenodd" clip-rule="evenodd" d="M34.4672 39.6926L35.6548 40.8337C33.9818 43.9956 30.2076 46.3235 25.5615 46.4655L26.9905 47.0851C29.0019 47.6527 30.5128 47.8919 32.5071 46.9679C35.0684 45.7809 36.2298 43.0176 37.3051 40.6156C40.0501 40.2629 41.5937 40.3415 42.3588 37.9003C42.9258 36.092 42.9902 31.7079 41.0142 30.7105C40.564 31.5036 39.5759 32.1121 39.9751 33.7281C40.19 34.5981 40.9858 35.4185 41.0548 36.3859C40.3994 36.6023 38.5647 37.1486 37.9563 37.2004C36.3734 37.3347 35.9986 37.2073 34.8739 36.8085C34.4858 37.5905 34.3689 38.5616 34.4672 39.6926Z" fill="#35388A"/>
<path fill-rule="evenodd" clip-rule="evenodd" d="M86.0362 41.6297C90.1666 41.4752 92.454 35.7197 91.9099 34.0418C91.4639 32.6666 89.2904 32.1067 87.8654 31.5146C87.3144 31.3077 86.4374 30.9527 85.8864 30.7458C85.228 31.6192 84.7651 32.2711 84.084 33.5493C84.2921 33.9174 84.2934 34.5521 84.2941 34.8904C82.9503 37.3943 81.2993 41.8069 86.0362 41.6297ZM89.8352 36.9184C89.2963 35.6623 86.8906 34.974 85.131 34.7962C83.806 39.4832 88.2191 38.7825 89.8352 36.9184Z" fill="#35388A"/>
<path fill-rule="evenodd" clip-rule="evenodd" d="M40.6621 43.6994C42.9331 43.5264 45.4747 42.9474 47.326 42.207C49.9648 41.1516 50.1066 40.4928 51.6505 38.3987L55.068 38.5563C56.6888 38.5843 57.1604 38.0889 57.647 36.7718C58.0948 35.5595 58.1586 34.5039 57.6574 33.4475C54.9752 27.7981 52.8453 28.3303 50.6549 33.4431C48.7792 37.8202 49.5735 37.008 50.1339 38.4222L41.7804 42.8006C41.5443 42.9166 41.3767 42.9848 41.1812 43.1357C40.7834 43.4438 40.9341 43.311 40.6621 43.6994ZM51.2623 34.2213C52.1307 35.0348 53.6725 35.0685 54.9972 34.8425C54.4193 33.9487 53.6769 32.9243 52.0883 32.8824C51.6487 33.3266 51.5307 33.5102 51.2623 34.2213Z" fill="#35388A"/>
<path fill-rule="evenodd" clip-rule="evenodd" d="M71.9072 19.793C70.7476 20.6285 69.5317 23.0032 69.3973 24.4425C69.3461 24.9933 69.5327 25.5051 70.0587 26.24C71.3956 28.1073 70.4961 26.008 72.5473 28.5369C73.2726 29.4314 76.178 32.9343 76.2369 34.4371C74.8699 35.2605 71.7996 36.2484 70.2201 35.0783L69.2949 34.5328C68.8852 36.5541 68.4154 37.2587 68.6783 37.5408C68.9555 37.8385 69.7112 37.9083 70.3904 38.9707C70.03 40.4796 67.8357 42.1958 66.535 42.926C64.1186 44.2822 62.6127 43.9176 59.959 44.3452C62.3543 46.0455 67.5486 46.5992 70.1453 43.1213C71.4169 41.4177 71.9763 39.1238 72.8478 38.7429C75.1062 37.7552 76.3696 38.933 77.6664 36.4611C78.6 31.6611 77.0832 30.0032 74.4991 26.3644C73.7854 25.4687 71.7325 23.382 71.4555 22.5484C76.2005 20.453 83.2193 18.4697 87.0773 16.4591C88.5275 15.7034 89.0305 14.79 89.6594 13C84.7884 14.5694 75.0538 18.1817 71.9072 19.793Z" fill="#35388A"/>
<path fill-rule="evenodd" clip-rule="evenodd" d="M127.264 37.3754C127.334 35.9175 127.615 34.6929 126.816 33.3874C126.059 34.0366 125.518 35.4944 125.394 36.6311C124.618 36.6321 124.064 36.4886 123.578 36.2906L123.375 34.2418C122.265 35.2084 122.512 37.7378 119.742 37.2904C118.793 37.137 119.018 36.7679 118.925 36.0132C118.889 35.7165 118.913 35.6501 118.843 35.3527C118.718 34.8339 118.788 35.0188 118.616 34.7744C117.157 36.2531 118.63 37.2379 115.428 37.564C113.447 37.7658 111.588 37.7653 109.619 37.48C109.58 35.8251 110.278 34.3181 109.854 32.4456C109.493 30.8474 108.657 29.0764 106.779 30.0642C104.242 31.3989 103.408 34.8059 102.269 37.3839C101.258 37.3903 100.061 37.3382 99.034 36.987C97.8375 36.5773 97.3481 36.3032 96.6426 35.4419C96.3662 36.1931 95.7605 37.1157 95.6426 37.9373C95.9355 38.931 96.8775 39.4941 97.2602 40.3386C96.354 41.9866 94.9669 43.3485 93.4813 44.365C91.1602 45.9525 89.7662 45.8335 87.7441 46.1696C89.6845 47.2706 93.2808 47.139 95.0625 46.1833C96.5852 45.3666 98.107 42.7366 98.7758 40.7502C99.9204 40.7282 104.282 40.8132 105.615 40.3024C106.575 40.4489 107.509 40.8672 108.614 41.0092C112.071 41.4539 115.942 40.6932 119.357 40.4283C120.874 40.3103 122.085 40.0436 122.844 39.6163C123.586 39.9955 124.635 40.2979 126.148 40.1118C126.743 39.2581 127.073 38.5629 127.264 37.3754ZM108.335 36.0025C108.124 34.8798 107.611 33.8772 107.015 33.3284C104.586 33.3217 103.702 37.8721 108.335 36.0025Z" fill="#35388A"/>
<path fill-rule="evenodd" clip-rule="evenodd" d="M131.083 34.7492C130.611 36.0531 130.211 37.5906 130.515 39.243C131.002 41.8839 133.621 43.1554 136.336 43.5727C140.85 43.696 145.896 41.6238 147.776 38.2991C148.031 37.8482 148.334 36.9577 148.573 36.366C148.939 35.4577 148.925 34.6228 148.651 33.8059C146.828 32.8475 143.668 33.535 141.189 32.0017L141.344 31.0912C141.836 30.0421 143.315 29.0788 144.166 28.5446C145.824 27.5025 146.642 28.3821 147.99 28.9207C148.442 28.1715 149.283 27.0269 149.208 25.7136C145.225 22.017 134.245 35.2063 142.791 36.2944C144.014 36.4502 145.68 36.242 146.708 36.8453C146.317 38.069 143.316 39.0615 142.188 39.5119C138.246 41.0857 132.843 40.0532 131.951 36.6848C131.42 34.6813 132.452 32.7312 132.872 30.8474C132.287 31.2882 131.383 33.9187 131.083 34.7492Z" fill="#35388A"/>
<path fill-rule="evenodd" clip-rule="evenodd" d="M158.347 29.5766C158.165 30.8479 159.407 34.0061 159.488 35.7607C157.672 37.2268 156.16 38.1027 153.114 37.9237C151.725 37.842 152.039 37.3688 151.954 36.177C151.624 36.7169 150.953 38.8915 151.029 39.8018C151.254 42.4476 155.904 41.4363 157.892 40.2475C159.641 39.2014 159.055 39.3785 159.938 37.601C161.363 38.953 160.228 43.3586 168.033 41.5761C170.035 41.119 170.246 39.8541 170.492 37.6326C170.697 35.7861 170.425 33.7095 169.015 32.9662C167.479 35.5468 168.816 37.0404 168.917 37.7538C168.09 38.4082 166.461 38.5791 165.38 38.5878C163.884 38.5999 162.819 38.1141 162.237 37.2648C160.719 35.0492 160.396 29.0167 159.114 27.5765C159.095 27.4896 159.012 27.4889 158.991 27.4513L158.347 29.5766Z" fill="#35388A"/>
<path fill-rule="evenodd" clip-rule="evenodd" d="M174.201 38.6266C174.665 42.5437 176.232 42.4402 179.451 41.8752C181.612 40.579 182.219 38.7328 182.268 36.1642C182.291 34.9782 181.933 33.3691 180.814 32.9087C178.619 36.1611 180.402 36.4915 180.683 37.9813C174.965 40.9859 175.595 35.7692 175.485 33.027C175.335 29.2741 175.333 25.2918 175.044 21.554C174.547 22.7389 173.267 24.0934 173.217 25.241C173.104 27.8576 173.888 35.9917 174.201 38.6266Z" fill="#35388A"/>
<path fill-rule="evenodd" clip-rule="evenodd" d="M164.604 28.9658L164.297 29.5138C166.095 29.6509 169.266 28.3991 169.467 25.9508C166.645 25.0638 164.415 24.8356 163.402 27.5002C164.434 27.2979 164.021 27.0056 165.374 27.0441C166.056 27.0636 166.769 27.1606 167.328 27.5308C167.041 28.427 165.407 28.7377 164.604 28.9658Z" fill="#35388A"/>
<path fill-rule="evenodd" clip-rule="evenodd" d="M176.624 46.3866C177.051 47.065 178.086 48.0679 178.773 48.3887L180.934 46.4573C180.458 45.6038 179.403 44.6232 178.773 44.2466C177.904 44.7192 176.99 45.6418 176.624 46.3866Z" fill="#35388A"/>
<path fill-rule="evenodd" clip-rule="evenodd" d="M169.315 48.3661C169.933 47.748 171.007 46.9419 171.337 46.1596L169.299 44.0709C168.611 44.4887 167.583 45.4711 167.095 46.1596C167.649 46.913 168.387 47.9744 169.315 48.3661Z" fill="#35388A"/>
<path fill-rule="evenodd" clip-rule="evenodd" d="M182.543 49.1338C183.751 48.4678 183.594 47.6235 183.388 47.6588C180.683 48.6337 177.473 49.4899 174.685 50.6525C173.898 51.0146 174.056 51.9986 174.056 51.9986C176.192 51.3015 180.789 49.8159 182.543 49.1338Z" fill="#35388A"/>
<path fill-rule="evenodd" clip-rule="evenodd" d="M172.558 20.4141C172.413 20.9848 172.246 20.7569 172.021 21.3538C172.727 21.0977 173.809 20.5504 174.523 20.205C175.298 19.8306 176.265 19.1885 176.484 18.4608C175.419 18.6615 174.981 19.6093 173.57 18.9011C173.133 18.682 172.691 18.2373 173.362 18.1168C173.792 18.0392 173.983 18.3689 174.388 18.5302C174.862 18.2034 175.245 17.993 175.345 17.2297C174.233 16.6793 173.956 16.6143 172.732 18.058C170.925 20.1874 171.943 19.8192 172.558 20.4141Z" fill="#35388A"/>
<path fill-rule="evenodd" clip-rule="evenodd" d="M154.184 45.7217C155.392 45.0557 155.234 44.2114 155.028 44.2467C152.324 45.2216 149.114 46.0776 146.325 47.2405C145.54 47.6025 145.696 48.5866 145.696 48.5866C147.833 47.8894 152.43 46.4038 154.184 45.7217Z" fill="#35388A"/>
<path fill-rule="evenodd" clip-rule="evenodd" d="M164.775 48.3661C165.393 47.748 166.467 46.9419 166.797 46.1596L164.759 44.0709C164.071 44.4887 163.042 45.4711 162.555 46.1596C163.109 46.913 163.847 47.9744 164.775 48.3661Z" fill="#35388A"/>
<path fill-rule="evenodd" clip-rule="evenodd" d="M175.715 15.427C176.924 14.7612 176.765 13.9169 176.56 13.9522C173.855 14.9271 173.848 14.7155 171.06 15.8781C170.273 16.2402 170.431 17.2243 170.431 17.2243C172.567 16.5271 173.961 16.1093 175.715 15.427Z" fill="#35388A"/>
</svg>
