<svg width="197" height="60" viewBox="0 0 197 60" fill="none" xmlns="http://www.w3.org/2000/svg">
<path fill-rule="evenodd" clip-rule="evenodd" d="M40.5859 20.1771C39.1351 20.0003 38.1248 21.5194 37.5479 22.678C38.6315 21.7618 39.0074 21.4438 40.5107 21.682C42.8411 22.0512 49.4331 21.3799 49.9386 18.906C48.21 19.8848 46.8915 20.9462 40.5859 20.1771Z" fill="#C43025"/>
<path fill-rule="evenodd" clip-rule="evenodd" d="M51.7725 29.2033C52.4587 29.7171 53.3725 30.6557 53.9912 31C55.1005 30.1396 55.442 29.5679 56.1335 28.5966L54.0259 26.6462C53.3192 27.1484 51.9496 28.3858 51.7725 29.2033Z" fill="#211D21"/>
<path fill-rule="evenodd" clip-rule="evenodd" d="M49.8428 32.3048C50.5286 32.8186 51.4428 33.7573 52.0615 34.1015C53.1706 33.2409 53.5123 32.6692 54.2038 31.6982L52.0962 29.7478C51.389 30.2499 50.0194 31.4874 49.8428 32.3048Z" fill="#211D21"/>
<path fill-rule="evenodd" clip-rule="evenodd" d="M55.2468 22.3666C56.4677 21.6939 56.3082 20.841 56.1005 20.877C53.3678 21.8615 50.1257 22.7263 47.3098 23.9006C46.5152 24.2663 46.6741 25.2606 46.6741 25.2606C48.8319 24.5562 53.4752 23.0555 55.2468 22.3666Z" fill="#211D21"/>
<path fill-rule="evenodd" clip-rule="evenodd" d="M68.114 22.3666C69.3348 21.6939 69.1754 20.841 68.9677 20.877C66.235 21.8615 62.9929 22.7263 60.177 23.9006C59.3824 24.2663 59.5413 25.2606 59.5413 25.2606C61.699 24.5562 66.3424 23.0555 68.114 22.3666Z" fill="#211D21"/>
<path fill-rule="evenodd" clip-rule="evenodd" d="M81.7126 28.2614C80.4168 28.0039 80.9623 27.1948 80.9379 26.3696C79.8099 27.5081 79.7614 29.0154 80.483 29.647C81.7706 30.775 83.1455 28.8084 83.5141 28.7181C83.9254 28.7949 85.2509 29.2302 85.8296 28.0311C86.2665 27.1259 86.1688 26.5644 86.1967 24.9353C86.0919 25.0009 85.9514 24.9837 85.8903 25.1434C85.7033 25.2429 85.4332 26.4008 84.9198 27.0316C84.6142 27.4075 84.0333 27.6133 83.8507 27.2529C83.8452 27.2417 83.5276 25.7301 83.491 25.6468C82.0828 27.3138 83.0214 27.98 81.7126 28.2614Z" fill="#211D21"/>
<path fill-rule="evenodd" clip-rule="evenodd" d="M86.5878 22.3666C87.8084 21.6939 87.6488 20.841 87.441 20.877C84.7091 21.8615 81.4667 22.7263 78.6504 23.9006C77.8562 24.2663 78.0149 25.2606 78.0149 25.2606C80.1731 24.5562 84.8162 23.0555 86.5878 22.3666Z" fill="#211D21"/>
<path fill-rule="evenodd" clip-rule="evenodd" d="M104.718 28.2367C103.531 29.4824 99.7093 32.2459 98.9941 33.2477C99.9036 32.9778 102.021 31.516 102.806 30.9436C105.068 29.2953 105.393 28.9326 105.437 28.9304C105.483 28.9281 106.46 28.9845 107.077 28.8895C106.832 28.3419 106.549 28.2686 106.582 27.7153C106.593 27.5303 106.782 27.1025 106.872 26.7503C107.203 25.4507 106.995 24.102 105.386 24.4095C104.574 24.5649 103.992 25.0132 103.518 25.7794C102.808 26.9269 103.981 27.5295 104.718 28.2367ZM104.494 25.8331C104.843 26.3784 105.107 26.7495 105.695 27.09C105.991 25.9648 105.375 25.3946 104.494 25.8331Z" fill="#211D21"/>
<path fill-rule="evenodd" clip-rule="evenodd" d="M118.857 19.491C120.078 18.8182 119.919 17.9654 119.711 18.0011C116.978 18.9859 113.736 19.8507 110.92 21.025C110.126 21.3907 110.284 22.3847 110.284 22.3847C112.442 21.6805 117.086 20.1799 118.857 19.491Z" fill="#211D21"/>
<path fill-rule="evenodd" clip-rule="evenodd" d="M58.9575 47.4258C58.8399 48.446 59.9953 49.3599 60.8736 50.0568C61.9675 49.6675 62.0143 48.8097 63.0286 48.4392C63.2205 47.5582 62.9509 47.6133 62.2552 46.9012C61.824 46.4597 61.5542 46.1776 61.1031 45.7692C60.0394 46.2991 60.087 46.9192 58.9575 47.4258Z" fill="#211D21"/>
<path fill-rule="evenodd" clip-rule="evenodd" d="M54.0703 32.3048C54.7566 32.8186 55.6703 33.7573 56.2891 34.1015C57.3981 33.2409 57.7399 32.6692 58.4314 31.6982L56.3237 29.7478C55.617 30.2499 54.2474 31.4874 54.0703 32.3048Z" fill="#211D21"/>
<path fill-rule="evenodd" clip-rule="evenodd" d="M63.8398 48.408C64.5423 48.7687 65.0505 49.4182 65.6879 50.0483C66.5349 49.878 65.6551 50.1044 66.2788 49.7929L66.785 49.521C67.2867 48.6016 67.2932 48.9535 68.1922 48.0526C67.9237 47.423 66.4024 46.1284 65.9171 45.7505C65.2249 46.1576 65.13 46.3821 64.5655 46.9336C63.874 47.6091 63.5447 47.533 63.8398 48.408Z" fill="#211D21"/>
<path fill-rule="evenodd" clip-rule="evenodd" d="M40.5868 30.6139C40.873 33.0035 41.4482 43.9803 43.2602 44.8069C42.8649 44.0232 43.4709 42.2686 43.5305 41.1457C42.8649 39.7508 41.9212 25.4901 41.7546 22.6503C40.9983 22.9977 40.2694 25.195 40.245 26.0184C40.2029 27.44 40.522 29.1063 40.5868 30.6139Z" fill="#C43025"/>
<path fill-rule="evenodd" clip-rule="evenodd" d="M92.0916 46.904C92.6065 47.9212 93.6279 52.2994 93.3608 53.5311C93.4012 53.5785 93.4796 53.5762 93.4983 53.658L93.8613 54.0362C94.3493 50.1642 92.692 44.466 93.3658 41.7853L95.3788 41.4458C95.4491 43.2317 95.7811 43.8736 96.7165 44.7558C99.563 47.44 99.6118 47.2155 101.703 43.8469C102.379 42.3704 101.152 41.2462 100.746 40.2542C100.188 39.9035 99.7152 39.7271 99.1866 39.3048C98.254 38.559 97.198 36.8598 93.9706 38.9743C91.505 40.5899 91.8468 43.6027 92.0916 46.904Z" fill="#C43025"/>
<path fill-rule="evenodd" clip-rule="evenodd" d="M62.1336 35.6881C62.8426 36.1596 63.2628 36.9817 63.7281 37.8418C64.1994 38.7131 64.4605 39.4749 64.4702 40.6991C63.6539 41.1292 62.5738 41.7196 61.3103 41.8476C57.8303 42.1998 58.8422 41.1875 58.352 40.5041C55.8537 43.3948 55.7874 41.1686 54.8834 40.1439C54.4888 41.8443 53.5502 42.4898 51.2074 42.1975C50.8719 41.9747 51.1317 41.4544 51.0941 41.0828C51.0824 41.0007 49.8206 42.0174 46.8854 42.1601C44.8502 42.1399 44.7935 41.964 43.5302 41.1456C43.4707 42.2686 42.8646 44.0231 43.26 44.8069C44.9467 45.9072 46.3655 44.9147 48.264 44.9271C49.1749 44.9331 50.1245 45.0281 51.0293 45.0119C52.6918 44.9812 53.4449 44.7191 54.038 44.1501C54.7195 44.55 56.4638 45.97 57.8647 43.2127C59.1409 43.6996 59.5307 44.403 61.5502 44.32C62.9176 44.2641 64.2829 43.6702 64.876 42.8845C66.5228 40.7006 66.1975 35.8194 64.6623 33.6901C64.0956 32.7221 63.7877 31.5879 62.6112 31.3798C62.1197 33.512 61.9035 34.1616 62.1336 35.6881Z" fill="#211D21"/>
<path fill-rule="evenodd" clip-rule="evenodd" d="M75.1475 45.1455L75.4609 45.2218C76.3141 45.4528 77.6254 45.7701 78.5252 44.8259C79.9926 44.2133 80.294 43.468 81.2745 42.2667C83.5065 42.3171 85.3808 43.5047 87.9221 43.2665C90.875 41.0647 88.4816 34.2714 84.9433 34.7703L83.0359 36.7371C81.7189 38.4286 81.2314 40.2303 79.486 41.4418C74.9468 44.5932 74.731 37.913 74.5367 35.4209C74.3337 32.8182 74.1364 30.1467 73.7939 27.6286L73.134 21.7304C72.6363 21.9961 72.2405 23.1193 71.9911 23.8606C71.5789 25.0891 73.2008 40.6219 73.759 42.7149C74.1148 44.0494 74.6264 44.2029 75.1475 45.1455ZM83.2228 38.8738L86.2922 39.6578C85.7734 38.5032 83.6054 37.2854 83.2228 38.8738Z" fill="#211D21"/>
<path fill-rule="evenodd" clip-rule="evenodd" d="M100.745 40.254C101.151 41.246 102.377 42.3703 101.702 43.8467L102.929 43.9969C103.044 45.0635 102.508 44.9345 102.457 45.9871C104.349 46.9854 103.456 47.4843 104.71 48.6826C105.246 49.1947 107.239 50.1807 108.125 50.276C111.903 50.6826 111.549 47.0121 112.06 43.9814C115.388 43.4194 115.322 44.1767 116.946 41.7285C117.601 37.9604 117.396 36.4389 116.444 32.8409C115.961 31.0123 115.513 29.1759 115.469 27.1705C116.111 26.7412 117.303 25.9679 116.561 24.6895C116.362 24.3473 115.078 22.8661 114.737 22.6027C113.944 24.2782 113.192 24.2685 113.518 26.5057L115.552 38.3351C115.965 40.5813 115.804 39.8993 115.501 40.1605C114.991 40.5623 111.263 41.0747 110.415 41.1266C110.251 39.9068 110.652 39.6796 110.912 38.7255C111.136 37.9046 111.09 36.9714 111.046 36.1156C110.968 34.5883 110.601 32.7709 109.699 31.9866C108.984 32.8195 108.657 34.057 108.112 35.2256C105.059 41.7636 104.357 41.2702 100.745 40.254ZM106.984 39.9407C108.129 39.7075 108.641 39.9013 109.184 39.0038C109.698 38.2014 109.05 36.6347 108.615 35.932C108.128 36.949 107.083 38.8534 106.984 39.9407ZM109.847 46.6095C109.304 45.3705 107.073 44.6067 105.372 44.8756C105.502 45.4773 105.249 45.2291 106.046 45.7414C107.2 46.4847 108.469 47.051 109.847 46.6095Z" fill="#211D21"/>
<path fill-rule="evenodd" clip-rule="evenodd" d="M11.0828 21.5793C12.3036 20.9066 12.144 20.0538 11.9362 20.0897C9.20379 21.0742 5.9617 21.939 3.14532 23.1134C2.35093 23.4791 2.5101 24.4733 2.5101 24.4733C4.66784 23.7689 9.3109 22.2683 11.0828 21.5793Z" fill="#211D21"/>
<path fill-rule="evenodd" clip-rule="evenodd" d="M32.7694 30.5143C31.5821 31.76 27.7596 34.5235 27.0449 35.5252C27.9544 35.2553 30.0715 33.7936 30.8567 33.2212C33.1181 31.5729 33.4442 31.2102 33.4873 31.2079C33.5334 31.2057 34.5111 31.2621 35.1276 31.167C34.8828 30.6195 34.6 30.5462 34.6326 29.9929C34.6434 29.8076 34.8332 29.38 34.9226 29.0278C35.2529 27.7283 35.0459 26.3795 33.436 26.6871C32.6239 26.8425 32.042 27.2907 31.5684 28.057C30.859 29.2044 32.0315 29.8071 32.7694 30.5143ZM32.5442 28.1107C32.8934 28.6559 33.158 29.0271 33.7456 29.3676C34.042 28.2424 33.4252 27.6721 32.5442 28.1107Z" fill="#211D21"/>
<path fill-rule="evenodd" clip-rule="evenodd" d="M10.2102 28.1915C9.3441 27.0883 8.89621 26.3472 7.81833 25.768L5.77344 27.7311C6.11073 28.4592 7.24091 29.7335 8.04751 30.0753C8.79009 29.4612 9.39965 28.8253 10.2102 28.1915Z" fill="#211D21"/>
<path fill-rule="evenodd" clip-rule="evenodd" d="M31.0746 36.5829C30.2787 37.3621 28.5347 39.3698 28.4941 40.2785C29.1879 40.951 29.5362 41.7652 30.6295 42.1092C30.5958 42.2344 30.4566 42.5801 30.4536 42.6096L30.5111 43.202C32.022 42.3673 32.7932 42.2596 34.2863 41.6235C35.6599 41.2287 36.9719 40.7086 37.3468 39.0596C35.6013 39.1758 32.0294 40.5941 30.9065 38.286C31.9634 36.9872 31.8349 37.7941 32.8036 38.1997C35.1323 37.0772 35.7304 36.3853 33.9271 34.8755C32.5426 35.4053 32.158 35.522 31.0746 36.5829Z" fill="#211D21"/>
<path fill-rule="evenodd" clip-rule="evenodd" d="M21.6436 33.171C21.1942 33.2706 20.7917 33.5966 20.3727 34.1356C19.1179 35.7487 17.5346 39.9111 19.1969 41.6103C21.8085 44.2798 23.2147 40.3536 23.8646 39.7707C25.3234 42.0443 20.3505 46.311 16.3643 47.5714C14.8311 48.056 13.4431 48.1289 11.9385 48.642C13.6433 49.5784 16.4951 49.5582 18.5325 49.0289C22.9175 47.8899 24.8072 44.3601 25.0929 39.9333C25.2038 38.2192 24.8219 32.4681 21.6436 33.171ZM22.8602 38.6774C23.3315 36.8363 20.6549 36.2681 20.0989 37.3184C19.6062 38.2483 21.3235 39.6562 22.8602 38.6774Z" fill="#211D21"/>
<path fill-rule="evenodd" clip-rule="evenodd" d="M12.0961 35.9834C12.9351 38.036 13.5167 39.0505 13.6136 41.3184C13.6697 42.6327 13.8827 42.5865 12.8566 43.1752C10.9158 44.2877 8.46537 45.9517 5.30772 45.4224C1.82125 44.8375 1.54151 41.3947 2.25968 39.1782L3.36047 36.282C2.09303 35.2348 0.358509 40.8876 0.192855 41.7367C-0.216175 43.8317 0.00677496 45.0827 1.04106 46.4711C3.03589 49.1498 6.00522 49.4331 9.66158 47.9712C12.684 46.7626 14.538 45.2169 15.0716 41.4309C15.4528 38.7292 14.3532 32.8931 12.8611 31.711C10.9522 33.8517 12.0859 35.7337 12.0961 35.9834Z" fill="#211D21"/>
<path fill-rule="evenodd" clip-rule="evenodd" d="M126.707 47.5323C127.928 46.8598 127.768 46.007 127.561 46.0426C124.829 47.0274 124.317 46.9753 121.501 48.1499C120.707 48.5156 120.865 49.5096 120.865 49.5096C123.023 48.8052 124.936 48.2215 126.707 47.5323Z" fill="#35388A"/>
<path fill-rule="evenodd" clip-rule="evenodd" d="M127.068 44.8789C128.288 44.2064 128.129 43.3536 127.921 43.3893C125.189 44.374 124.677 44.3219 121.862 45.4965C121.067 45.8622 121.226 46.8562 121.226 46.8562C123.384 46.1518 125.296 45.5681 127.068 44.8789Z" fill="#35388A"/>
<path fill-rule="evenodd" clip-rule="evenodd" d="M128.387 27.5325C129.071 28.093 129.726 28.7757 130.486 29.1795C131.065 28.7882 132.552 27.609 132.446 26.8542C132.414 26.6265 132.21 26.4494 131.781 26.0144C131.391 25.6198 130.973 25.2172 130.486 24.9101C129.643 25.3205 128.326 26.4429 128.387 27.5325Z" fill="#35388A"/>
<path fill-rule="evenodd" clip-rule="evenodd" d="M143.139 19.4907C144.359 18.818 144.2 17.9652 143.992 18.0011C141.26 18.9856 138.017 19.8504 135.201 21.0248C134.407 21.3905 134.566 22.3847 134.566 22.3847C136.724 21.6803 141.367 20.1797 143.139 19.4907Z" fill="#35388A"/>
<path fill-rule="evenodd" clip-rule="evenodd" d="M164.354 24.1912C165.574 23.5187 165.415 22.6659 165.207 22.7015C162.475 23.6863 155.839 25.6836 153.022 26.8582C152.228 27.2238 152.387 28.2178 152.387 28.2178C154.545 27.5134 162.582 24.8804 164.354 24.1912Z" fill="#35388A"/>
<path fill-rule="evenodd" clip-rule="evenodd" d="M180.908 47.982C182.129 47.3093 181.969 46.4567 181.761 46.4924C179.029 47.4769 175.787 48.3417 172.971 49.5163C172.177 49.8817 172.335 50.876 172.335 50.876C174.493 50.1716 179.137 48.6709 180.908 47.982Z" fill="#35388A"/>
<path fill-rule="evenodd" clip-rule="evenodd" d="M195.539 52.106C196.76 51.4333 196.6 50.5807 196.392 50.6164C193.66 51.6011 190.418 52.4657 187.602 53.6403C186.808 54.006 186.966 55 186.966 55C189.124 54.2956 193.768 52.7952 195.539 52.106Z" fill="#35388A"/>
<path fill-rule="evenodd" clip-rule="evenodd" d="M189.002 47.7269C189.46 48.2802 190.512 49.3625 191.074 49.7608L193.295 47.7975C192.895 46.9112 191.996 46.0008 191.074 45.551C190.45 46.0177 189.376 46.8945 189.002 47.7269Z" fill="#35388A"/>
<path fill-rule="evenodd" clip-rule="evenodd" d="M132.584 27.5325C133.268 28.093 133.923 28.7757 134.684 29.1795C135.262 28.7882 136.75 27.609 136.643 26.8542C136.611 26.6265 136.407 26.4494 135.978 26.0144C135.588 25.6198 135.17 25.2172 134.684 24.9101C133.841 25.3205 132.524 26.4429 132.584 27.5325Z" fill="#35388A"/>
<path fill-rule="evenodd" clip-rule="evenodd" d="M158.22 47.4973L160.293 49.7053C161.241 48.981 162.102 48.3062 162.621 47.4973C162.186 46.5345 161.125 45.7198 160.359 45.3409C159.748 45.7126 158.645 46.6574 158.22 47.4973Z" fill="#35388A"/>
<path fill-rule="evenodd" clip-rule="evenodd" d="M135.372 49.755C137.015 49.6353 137.876 48.9301 138.936 48.0783C141.09 46.3467 141.862 44.9561 142.669 41.53C142.86 39.0518 142.522 37.8882 140.766 36.1456C140.294 35.6839 140.018 35.4427 139.171 35.2132L138.613 38.413C139.304 38.7263 141.476 40.5771 141.411 41.7385C141.35 42.8296 136.691 48.7223 128.645 48.0995C129.501 49.2472 133.89 49.8633 135.372 49.755Z" fill="#35388A"/>
<path fill-rule="evenodd" clip-rule="evenodd" d="M127.697 42.5764C128.612 42.8336 129.467 42.6437 130.258 42.4484C132.588 41.4125 133.712 40.0142 134.727 37.4185C135.846 34.5582 132.82 32.2651 130.096 32.205C130.035 32.5135 129.06 33.4619 128.673 34.192C128.971 34.6954 128.982 35.2494 128.687 35.6779C128.322 36.208 126.78 37.9019 126.448 38.5919C125.639 40.2746 125.635 41.9979 127.697 42.5764ZM128.261 39.0496C129.713 39.754 132.151 39.5814 132.975 38.0892C132.678 37.2661 130.773 35.86 129.902 35.9226C128.745 36.0064 127.912 37.6063 128.261 39.0496Z" fill="#35388A"/>
<path fill-rule="evenodd" clip-rule="evenodd" d="M147.807 42.6775C148.461 42.9002 148.527 44.2768 151.669 44.5091C153.524 44.646 155.169 43.894 156.71 43.3898C159.585 42.4492 162.901 40.8847 166.418 40.7465C166.284 42.2961 165.257 42.8902 166.007 44.3512C166.47 45.2539 167.306 45.6173 168.612 45.874C173.799 46.1162 176.56 44.8997 180.868 43.4754C188.363 40.9975 186.807 41.7934 193.425 41.7815C193.772 41.313 194.007 40.3996 194.841 39.1616C191.759 38.9361 182.143 37.9453 179.93 36.9418C180.086 36.7251 189.274 30.5198 189.277 30.5198C189.767 31.4714 189.427 32.2566 189.93 33.0132C191.08 32.3167 193.946 23.4839 188.071 29.3417C186.375 30.7585 184.472 32.3714 182.511 33.4198C179.102 35.2429 175.686 36.7263 174.255 39.007C175.989 39.6448 178.669 39.968 180.522 40.3542C181.034 40.5644 180.811 40.4682 181.003 40.6133C179.106 41.984 167.667 45.1294 167.536 40.6667L169.504 40.5625C170.097 39.7832 170.554 38.8047 170.78 37.5328C166.192 37.5131 161.563 35.3577 157.151 34.8124C153.78 34.2843 151.454 36.6168 150.602 39.1828C151.859 37.9815 152.388 37.5729 155.323 37.7869C156.497 37.8725 159.397 38.5363 160.299 39.007C159.304 40.2157 153.764 41.9301 151.471 41.2709C147.73 40.196 148.006 33.4041 148.018 30.0578C148.028 27.1651 148.054 23.198 147.67 20.4933C146.456 20.9433 145.899 22.2968 145.866 23.9506C145.783 28.1289 146.678 37.0222 147.807 42.6775Z" fill="#35388A"/>
</svg>
