<svg width="54" height="52" viewBox="0 0 54 52" fill="none" xmlns="http://www.w3.org/2000/svg">
<path d="M3.21811 12.9124C2.16919 12.8879 1.43139 12.6247 1.0017 12.1181C0.572019 11.6116 0.355 10.8455 0.355 9.82449C0.355 9.65037 0.359019 9.37472 0.366722 8.99377C0.382797 8.56017 0.3905 8.20365 0.3905 7.92388C0.3905 5.57348 0.260222 3.65669 0 2.17763L1.00539 0.949781C1.21102 2.29532 1.30948 3.90412 1.30948 5.77996C1.30948 6.07178 1.28939 6.79307 1.24217 7.94005C1.21839 8.59665 1.20667 8.98964 1.20667 9.11525C1.20667 9.69476 1.29374 10.1404 1.4632 10.4608C1.63267 10.7808 2.00341 10.9429 2.57911 10.9429H3.21811V12.9124ZM4.5785 2.03172L5.70278 0.755005L6.96839 1.91024L5.84478 3.18661L4.5785 2.03172ZM6.81098 9.39055C6.51124 9.5165 6.23494 9.58154 5.9908 9.58154C5.537 9.58154 5.12707 9.49207 4.76772 9.31381C4.40535 9.13555 4.22383 8.92082 4.22383 8.6696C4.22383 7.91596 4.4365 7.06046 4.85881 6.10413C5.2808 5.14814 5.80928 4.6698 6.44024 4.6698C6.8937 4.6698 7.33946 5.02253 7.77718 5.73144C8.21524 6.44069 8.43561 7.42111 8.43561 8.67373C8.43561 9.38676 8.35255 10.031 8.18376 10.6067C8.01396 11.1862 7.78489 11.6398 7.50089 11.9681C7.2132 12.2964 6.75539 12.5355 6.11672 12.6856C5.48174 12.8353 4.53965 12.9124 3.29346 12.9124C2.96191 12.9124 2.61896 12.742 2.26798 12.3979C1.91667 12.0531 1.62496 11.5668 1.38417 10.9429H5.30457C5.73828 10.9429 6.17231 10.882 6.61339 10.7564C7.05144 10.6349 7.32339 10.5134 7.4262 10.3957C7.5327 10.2743 7.58394 10.0757 7.58394 9.80006C7.58394 9.33824 7.46539 8.6696 7.22526 7.79827L6.81098 9.39055ZM7.08694 7.58353C6.9493 7.18641 6.76744 6.87429 6.54674 6.64338C6.32604 6.41247 6.11672 6.2989 5.9275 6.2989C5.68704 6.2989 5.47772 6.44894 5.30022 6.74868C5.11904 7.05254 5.02828 7.29171 5.02828 7.4741C5.02828 7.59558 5.12272 7.6971 5.3163 7.77797C5.50954 7.86297 5.71852 7.90357 5.94759 7.90357C6.27881 7.90357 6.65726 7.79827 7.08694 7.58353Z" fill="#C43025"/>
<path fill-rule="evenodd" clip-rule="evenodd" d="M42.6129 23.0974C43.1521 22.7646 43.6538 22.1714 44.0714 21.7357C44.6676 21.1139 45.1271 20.7849 45.4382 20.1885L42.7951 17.495C42.1437 17.6519 40.081 19.897 39.8848 20.238C40.1206 20.7739 42.0044 22.7533 42.6129 23.0974ZM44.6893 34.7668C44.6341 33.4368 45.0839 33.1288 45.7888 32.3517C46.8676 32.4667 47.2822 32.8827 47.7852 33.6257L48.4972 35.8443C47.1137 36.5315 45.5511 35.4386 44.6893 34.7668ZM50.9246 41.9285C45.2908 44.6826 38.0589 45.8309 30.9659 46.0835C14.1041 46.684 19.8202 36.7717 19.9991 34.8542C18.8838 35.4599 15.8821 41.656 17.4384 45.9242C21.0855 55.9235 47.9403 48.5513 50.4373 46.2315C51.2274 45.4978 52.634 42.4523 52.8959 41.2829C54.1545 35.6698 50.0056 25.0531 46.321 27.2252C45.1304 27.9269 37.6369 39.043 45.3417 41.0148C49.1041 41.9774 48.7929 39.8066 50.0746 38.8998C50.6691 39.4656 50.9702 40.8682 50.9246 41.9285Z" fill="#211D21"/>
</svg>
