<svg width="27" height="60" viewBox="0 0 27 60" fill="none" xmlns="http://www.w3.org/2000/svg">
<path fill-rule="evenodd" clip-rule="evenodd" d="M15.3337 16.3678C14.5058 17.1348 13.8941 17.9042 13.6934 18.9281C15.7985 18.1719 22.0755 14.9174 24.4482 13.9318C25.3431 13.1218 26.0671 12.7538 26.4876 10.8602C25.2033 11.1565 16.0804 15.5506 15.3337 16.3678ZM15.3337 10.9593C14.5058 11.7251 13.8941 12.4945 13.6934 13.5184C15.7985 12.7633 22.0755 9.50773 24.4482 8.52209C25.3431 7.71207 26.0671 7.34407 26.4876 5.45044C25.2033 5.74673 16.0804 10.1409 15.3337 10.9593Z" fill="#2198CA"/>
<path fill-rule="evenodd" clip-rule="evenodd" d="M2.27078 25.9626C3.92308 34.052 1.98166 43.5095 12.5239 43.3315C15.4987 43.2813 22.0303 41.6804 23.6085 40.2323C25.7567 38.2599 26.9681 33.058 25.8307 29.2767C25.1975 27.1322 24.0207 25.364 22.4628 24.8574C21.421 26.008 20.875 28.3305 20.734 30.0772C22.2035 30.9983 23.7471 33.021 23.7364 35.4284C21.7794 36.8895 15.1308 38.1476 12.0006 37.8238C6.85256 37.2898 6.42243 34.8262 5.52878 30.1895C4.00192 22.2792 4.18951 10.7108 2.44163 4C1.30187 4.47669 1.08919 5.75384 0.34846 7.7311C-0.34209 9.57814 0.163284 10.3511 0.421344 12.283C0.990032 16.5517 1.96015 21.8205 2.27078 25.9626Z" fill="#211D21"/>
<path fill-rule="evenodd" clip-rule="evenodd" d="M13.4888 49.836C13.7982 50.9701 16.0775 53.1493 16.9658 53.5469L20.4888 50.1545C20.1794 49.4384 17.4492 46.8986 16.9658 46.5469C16.1198 46.8655 14.1801 49.028 13.4888 49.836Z" fill="#211D21"/>
</svg>
