<svg width="38" height="61" viewBox="0 0 38 61" fill="none" xmlns="http://www.w3.org/2000/svg">
<path fill-rule="evenodd" clip-rule="evenodd" d="M26.8083 30.3919C26.8931 25.7349 32.0448 28.6918 32.0448 31.5543C29.3579 32.0227 28.5442 31.7395 26.8083 30.3919ZM25.0939 35.9378C26.0461 37.019 28.5454 37.884 30.3387 37.3201C31.8118 36.8565 32.8739 35.3774 33.6134 33.9414C34.1272 34.7717 34.9455 37.4826 34.8428 38.6295C28.9301 42.1754 11.5481 47.3545 5.05838 42.3869C1.91148 39.9783 2.31291 37.0106 3.39055 32.847C2.52796 32.2425 -3.61769 44.8623 5.38096 48.8909C8.23873 50.1693 12.9292 49.977 16.1681 49.6962C21.3568 49.2446 27.506 47.1347 32.1977 44.8767C34.8273 43.6103 35.0531 42.6521 36.1355 40.062C37.0184 37.9449 37.6839 35.3428 37.2275 32.7288C36.3446 27.6643 34.4235 24.6249 32.4307 22.8233C30.9265 22.2152 29.8071 21.7767 28.2539 23.1304C25.4965 25.5317 22.6315 33.1433 25.0939 35.9378Z" fill="#211D21"/>
<path fill-rule="evenodd" clip-rule="evenodd" d="M26.922 18.1257C26.3091 17.0863 24.2553 15.7267 24.0379 14.6227C22.7966 14.9166 20.7835 17.0648 20.0894 18.1257L23.1335 21.2977C24.5493 21.3192 26.2804 19.2893 26.922 18.1257Z" fill="#211D21"/>
<path fill-rule="evenodd" clip-rule="evenodd" d="M7.82303 14.6956C6.71194 14.7171 6.15998 14.919 5.33323 14.1831C2.79564 11.925 10.1193 5.42216 14.4131 5.3218C15.8946 5.28835 15.3247 6.73756 15.3283 8.07326C17.2733 7.52966 18.8814 0.931184 13.5625 2.46162C11.32 3.10797 8.11097 5.52373 6.84814 6.90483C-2.63317 17.2631 7.84573 20.2618 7.82303 14.6956ZM10.8039 11.4268C11.9568 9.9836 13.0607 10.8044 12.9341 12.7422C11.8971 12.7817 11.0691 12.3037 10.8039 11.4268ZM0 24.9929C8.04765 22.8102 12.492 16.7242 13.0858 16.3861C13.5971 16.4757 14.0631 16.2571 14.5004 16.1866C14.0953 15.4614 13.9687 14.5773 14.1228 13.6012C14.5816 12.8342 14.842 12.2751 15.0463 11.3468C15.5995 8.82831 14.0535 6.78416 11.9783 7.86777C10.4562 8.66226 8.86961 9.92746 8.34273 11.6204C7.35111 14.8043 9.86362 14.3348 10.9293 16.0002C10.1289 18.7421 2.09076 23.6309 0 24.9929Z" fill="#2198CA"/>
</svg>
