<svg width="32" height="61" viewBox="0 0 32 61" fill="none" xmlns="http://www.w3.org/2000/svg">
<path fill-rule="evenodd" clip-rule="evenodd" d="M1.25693 28.4218C1.41583 31.6954 1.93314 34.896 2.15297 38.1504C2.24616 39.5495 2.35248 40.6749 2.56873 42.0094C2.94745 44.3498 3.59501 46.0332 5.1816 47.5553C8.87568 51.0989 21.0774 47.6795 25.9662 46.2088C28.4369 45.4657 29.1203 44.142 29.8502 41.8732C30.5659 39.6474 31.395 37.5925 30.8096 34.8494C30.3771 32.8292 28.855 30.3656 27.0534 29.9021C26.5205 31.4935 25.5062 32.988 25.3019 35.0023C26.6125 36.166 27.8144 37.7084 28.2278 39.7334C25.2649 41.8182 12.4598 44.8923 7.96649 42.9903C5.08004 41.7681 4.82675 38.1253 4.44325 34.7037C4.0227 30.9498 3.4612 27.251 3.20433 23.4362L2.17567 10.5548L1.84592 8.5022C0.992891 8.86659 0.678673 10.5452 0.331009 11.3851C-0.725126 13.9394 1.06697 24.539 1.25693 28.4218Z" fill="#211D21"/>
<path fill-rule="evenodd" clip-rule="evenodd" d="M28.9041 18.968C27.6652 19.1233 25.4645 21.2798 24.9902 22.3837C25.9006 23.5498 27.0452 24.3849 28.1001 25.625C29.1324 25.3359 31.1526 23.4423 31.8264 22.3837C31.5433 21.7207 29.5911 19.5427 28.9041 18.968Z" fill="#211D21"/>
<path fill-rule="evenodd" clip-rule="evenodd" d="M20.6938 25.6166C21.8647 25.1292 23.2804 23.3395 24.2111 22.3837C23.7356 21.3825 21.6687 19.3586 20.6938 18.9393C19.8994 19.6561 17.3331 21.7612 17.4585 22.3323C17.584 22.9034 19.3892 24.8137 20.6938 25.6166Z" fill="#211D21"/>
<path fill-rule="evenodd" clip-rule="evenodd" d="M21.1504 17.612C21.6092 18.5773 23.6748 20.4423 24.4538 21.048C25.3116 20.772 27.7142 18.428 27.9973 17.6514C27.3558 16.6777 25.3964 14.7076 24.2877 14.3802L21.1504 17.612Z" fill="#211D21"/>
<path fill-rule="evenodd" clip-rule="evenodd" d="M8.39177 16.3383C7.56382 17.1042 6.95213 17.8736 6.74902 18.8975C8.85651 18.1424 15.1336 14.8868 17.5063 13.9011C18.4 13.0923 19.1252 12.7231 19.5457 10.8307C18.2602 11.127 9.13847 15.52 8.39177 16.3383ZM8.39177 10.9287C7.56382 11.6945 6.95213 12.4639 6.74902 13.4878C8.85651 12.7327 15.1336 9.47706 17.5063 8.49141C18.4 7.68259 19.1252 7.31344 19.5457 5.4198C18.2602 5.71729 9.13847 10.1103 8.39177 10.9287Z" fill="#671E5F"/>
</svg>
