<svg width="32" height="61" viewBox="0 0 32 61" fill="none" xmlns="http://www.w3.org/2000/svg">
<path fill-rule="evenodd" clip-rule="evenodd" d="M17.112 38.5531C17.0099 37.5082 17.0471 37.5332 17.1888 36.5287C17.2801 35.8943 17.4193 35.6384 17.0604 35.0814C15.7469 35.6301 16.6149 35.7574 15.8838 36.8917C14.7985 38.5746 11.8787 39.0649 9.77656 39.1435C5.03794 39.3232 4.49406 38.4139 3.80734 34.1055C2.79887 27.7798 3.48918 19.6213 2.98855 12.8993C2.8877 10.9034 2.8529 9.05515 1.67635 7.77692C0.546617 8.7588 -0.207342 12.0293 0.0507793 13.7443C0.983617 19.9224 0.963224 29.9233 1.52269 36.6763C2.03293 42.8175 2.73646 45.3953 10.0563 44.6527C12.0504 44.4504 13.5787 43.7565 14.0673 43.3876C14.4803 43.9731 14.6052 44.0302 16.5117 43.8708C19.6728 43.6054 20.8614 43.2079 22.9972 41.8868C24.4222 41.6285 30.5583 47.2008 31.8777 37C32.0302 35.8229 32.1875 33.2748 31.3651 32.2334C29.9856 33.37 30.0253 35.6813 29.0924 37.3784C27.4176 37.6784 26.0274 37.369 24.9709 36.4656C24.9445 35.1303 26.025 33.8223 24.8869 33.445C23.8472 37.0642 21.4364 39.1351 17.112 38.5531Z" fill="#211D21"/>
<path fill-rule="evenodd" clip-rule="evenodd" d="M15.6678 20.3083C14.8254 21.0471 14.2051 21.7892 14 22.7769C16.14 22.0485 22.5162 18.9081 24.9268 17.9584C25.8359 17.1759 26.5715 16.8209 27 14.9942C25.6939 15.2812 16.4252 19.5189 15.6678 20.3083ZM15.6678 15.0899C14.8254 15.8286 14.2051 16.5708 14 17.5584C16.14 16.8301 22.5162 13.6896 24.9268 12.7399C25.8359 11.9586 26.5715 11.6025 27 9.77692C25.6939 10.0627 16.4252 14.3004 15.6678 15.0899Z" fill="#671E5F"/>
</svg>
