<svg width="42" height="61" viewBox="0 0 42 61" fill="none" xmlns="http://www.w3.org/2000/svg">
<path fill-rule="evenodd" clip-rule="evenodd" d="M14.9355 41.0361C15.5191 39.6606 21.2115 34.4555 24.102 33.3591C27.586 32.039 35.2851 34.192 37.0383 36.8698C36.8245 37.0459 36.8832 37.0326 36.4923 37.2176C34.9972 37.9219 28.0213 39.1966 26.4509 39.469C23.5028 39.9807 17.8226 41.0793 14.9355 41.0361ZM14.2942 33.11C14.3131 37.2729 14.7239 36.9197 12.5046 39.1379C10.2409 41.3982 10.0504 42.1768 7.75133 42.2288C4.50092 42.303 1.91499 42.9254 0.000186806 42.5079C-0.0607238 47.1105 14.7926 46.4538 17.1526 46.1338C22.7985 45.3685 27.9858 44.4859 33.212 43.1004C36.2409 42.2975 37.9087 41.8844 39.5001 39.8788C40.4902 38.6329 42.6365 35.0082 41.2433 32.9516C36.9796 26.6612 27.7677 25.721 21.6722 30.6968C20.475 31.6736 17.3951 34.8277 16.1249 35.3626C16.7273 28.5195 16.6576 25.1595 15.9942 18.3497C15.5446 13.7315 18.7529 14.3085 18.7496 11.9009C18.7462 10.6173 17.3431 9.8676 16.6576 9.30279C14.7926 7.77338 15.4704 7.99376 15.7805 5.85303C14.8945 6.25393 15.58 5.7578 14.8158 6.50644C14.5777 6.7368 14.2621 7.22187 14.1182 7.43228C12.6663 9.55087 11.4348 11.8677 12.2487 14.3938C13.5212 18.3419 14.2743 28.4929 14.2942 33.11Z" fill="#211D21"/>
<path fill-rule="evenodd" clip-rule="evenodd" d="M24.5378 57.1133C23.6963 57.9649 23.0746 58.8224 22.8691 59.9611C25.0102 59.121 31.386 55.4982 33.7973 54.4014C34.7058 53.4998 35.4418 53.0896 35.8691 50.982C34.5641 51.312 25.2958 56.2023 24.5378 57.1133ZM24.5378 51.0924C23.6963 51.944 23.0746 52.8003 22.8691 53.9402C25.0102 53.1001 31.386 49.4762 33.7973 48.3805C34.7058 47.4789 35.4418 47.0676 35.8691 44.9611C34.5641 45.291 25.2958 50.1814 24.5378 51.0924Z" fill="#671E5F"/>
</svg>
