<svg width="27" height="61" viewBox="0 0 27 61" fill="none" xmlns="http://www.w3.org/2000/svg">
<path fill-rule="evenodd" clip-rule="evenodd" d="M25.7217 39.439C25.982 38.5098 26.4848 36.5086 26.0274 33.9316C25.7505 32.3722 23.9886 27.5503 22.3218 27.0176C17.3914 33.7809 23.591 33.0688 23.0815 37.3702C20.7404 39.0835 15.2274 40.1732 12.3148 40.1688C10.2449 40.1644 8.52942 39.8044 6.96125 38.8121C5.2624 37.7368 5.04536 37.2573 4.64224 34.8707C3.49601 28.0996 3.01426 5.83848 2.30437 4.55493C1.37521 4.89049 1.01307 6.35566 0.547935 7.38892C-0.209571 9.07116 -0.0146535 9.45433 0.157004 11.5585C0.388464 14.4136 0.601095 17.7925 0.698552 20.6231C0.897896 26.4418 1.27997 32.4918 1.99871 38.1532C2.78723 44.355 6.28018 46.6375 13.1553 46.2034C18.6428 45.8567 22.3871 43.4757 25.7217 39.439Z" fill="#211D21"/>
<path fill-rule="evenodd" clip-rule="evenodd" d="M14.2626 55.7864C15.2948 55.3888 17.1819 53.7464 17.8719 52.8405C17.2472 51.8161 15.6115 51.0132 14.8551 49.8293C13.4575 50.0143 11.5283 51.8405 10.7231 52.8405C11.4197 53.7564 13.2183 55.2603 14.2626 55.7864Z" fill="#211D21"/>
<path fill-rule="evenodd" clip-rule="evenodd" d="M22.789 55.7864L26.2122 52.7752C25.4879 51.8438 23.8655 50.4418 22.7137 49.8293C21.4445 50.3332 20.0635 51.8682 19.0635 52.7752C19.4677 53.4563 21.9008 55.442 22.789 55.7864Z" fill="#211D21"/>
<path fill-rule="evenodd" clip-rule="evenodd" d="M10.0214 22.0939C9.17423 22.9067 8.54743 23.723 8.34033 24.8094C10.4977 24.0076 16.9265 20.5545 19.3563 19.5091C20.2733 18.6497 21.0153 18.2588 21.4461 16.2509C20.1304 16.5654 10.7856 21.2267 10.0214 22.0939ZM10.0214 16.355C9.17423 17.1679 8.54743 17.9841 8.34033 19.0705C10.4977 18.2687 16.9265 14.8156 19.3563 13.7702C20.2733 12.9108 21.0153 12.5199 21.4461 10.512C20.1304 10.8265 10.7856 15.4879 10.0214 16.355Z" fill="#671E5F"/>
</svg>
