<svg width="43" height="60" viewBox="0 0 43 60" fill="none" xmlns="http://www.w3.org/2000/svg">
<path fill-rule="evenodd" clip-rule="evenodd" d="M24.3146 30.8865C22.9735 32.1945 21.5969 34.8114 21.5604 36.1182C21.5426 36.744 22.0776 37.0762 22.855 39.692C23.1839 40.7995 23.4276 41.9324 23.5738 42.9446C24.0622 46.3335 23.3822 47.0345 21.1573 48.565C19.6101 49.6282 17.4461 50.7589 15.064 51.1377C6.98945 53.0436 1.36021 50.8032 2.8121 43.34C3.00701 42.34 3.27834 41.3067 3.57071 40.3654C3.96165 39.1029 4.43343 38.4517 3.8199 37.7528C2.21518 41.9867 -0.848061 46.3878 0.221751 51.5364C2.09558 60.5478 17.2501 57.7149 22.3013 52.3581C24.7078 49.8065 25.8296 44.9259 26.8264 40.7519C28.0036 41.5293 32.6572 40.2746 33.0182 39.0962C33.593 39.0796 36.7914 41.3067 39.8325 40.0353C40.6077 39.1638 41.0529 37.9467 41.2688 36.6365C41.5778 35.3585 41.683 34.5822 41.6952 33.2112C41.7052 32.0937 41.7572 30.84 41.1924 29.9574C40.3939 30.4724 39.797 32.3075 39.3673 33.7161C38.7095 35.8702 35.4192 34.6608 35.0803 33.9509C35.1025 33.1093 35.1246 32.1878 35.1479 31.3462C33.6561 31.6784 33.6893 33.9786 32.0868 34.6652C31.4511 34.9377 26.9139 35.0894 26.2483 35.0108C25.7377 34.3817 24.3069 31.7127 24.3146 30.8865Z" fill="#211D21"/>
<path fill-rule="evenodd" clip-rule="evenodd" d="M32.1689 16.742C33.1524 18.0034 34.262 19.6435 35.6763 20.4265C36.5213 20.019 39.1593 17.6534 39.3176 16.3521C38.1636 16.0531 37.2633 14.0874 35.6231 13.2778C34.2288 14.3255 33.2221 15.341 32.1689 16.742Z" fill="#211D21"/>
<path fill-rule="evenodd" clip-rule="evenodd" d="M35.7439 21.7743C35.4272 20.9104 32.9774 18.4707 32.159 18.0432C31.1966 18.5283 29.0681 20.6358 28.5952 21.7743C29.5853 23.2727 30.9098 23.8508 31.8135 25.1919C33.4182 24.5319 34.7627 23.2361 35.7439 21.7743Z" fill="#211D21"/>
<path fill-rule="evenodd" clip-rule="evenodd" d="M39.2189 25.1919C40.1237 24.8076 42.5767 22.4188 42.8924 21.4985C41.9698 20.3877 40.4803 18.5837 39.2189 18.0432C38.4935 18.5704 38.0693 19.0599 37.4392 19.6978C37.1269 20.0145 36.8877 20.2338 36.6019 20.5494C35.8998 21.3246 36.0848 20.9104 35.7437 21.9459C36.8223 22.7167 38.0738 24.2074 39.2189 25.1919Z" fill="#211D21"/>
<path fill-rule="evenodd" clip-rule="evenodd" d="M15.9409 14.9513C14.8611 14.9723 14.3251 15.1728 13.521 14.4407C11.0569 12.1948 18.1702 5.72718 22.3431 5.62751C23.7817 5.59318 23.228 7.0351 23.2313 8.36295C25.1206 7.82362 26.6833 1.26078 21.5159 2.78355C19.3375 3.42477 16.2211 5.82795 14.994 7.20121C5.78208 17.504 15.963 20.4864 15.9409 14.9513ZM18.8358 11.6997C19.9554 10.2634 21.0285 11.0796 20.9056 13.0077C19.8967 13.0475 19.0938 12.5713 18.8358 11.6997ZM8.34033 25.192C16.1579 23.0213 20.4759 16.968 21.0529 16.6324C21.5491 16.721 22.002 16.5028 22.4262 16.433C22.0341 15.7121 21.9112 14.8328 22.0596 13.8626C22.5048 13.0996 22.7595 12.5436 22.9578 11.6189C23.4938 9.11382 21.9921 7.08163 19.9776 8.15919C18.498 8.94992 16.9564 10.208 16.4459 11.8913C15.4824 15.0587 17.9232 14.5913 18.9576 16.2481C18.1802 18.9758 10.3714 23.8375 8.34033 25.192Z" fill="#671E5F"/>
</svg>
