<svg width="40" height="60" viewBox="0 0 40 60" fill="none" xmlns="http://www.w3.org/2000/svg">
<path fill-rule="evenodd" clip-rule="evenodd" d="M13.5968 20.9022C12.7485 21.7151 12.1216 22.5313 11.9146 23.6177C14.0719 22.817 20.5007 19.3628 22.9305 18.3185C23.8475 17.4591 24.5895 17.0671 25.0203 15.0592C23.7046 15.3737 14.3598 20.0351 13.5968 20.9022ZM13.5968 15.1633C12.7485 15.9762 12.1216 16.7924 11.9146 17.8788C14.0719 17.077 20.5007 13.6239 22.9305 12.5796C23.8475 11.7202 24.5895 11.3282 25.0203 9.32033C23.7046 9.63485 14.3598 14.2962 13.5968 15.1633Z" fill="#671E5F"/>
<path fill-rule="evenodd" clip-rule="evenodd" d="M20.227 34.9549C21.618 35.3104 23.535 35.6504 24.3911 36.8032C18.1572 39.4445 6.92083 43.8201 4.2751 34.8696C3.40352 31.9182 3.6051 27.3842 3.55748 24.105L3.41682 16.7891C3.24627 13.6129 2.95611 10.4068 2.7911 7.17188C2.57182 6.23829 2.70804 5.15186 2.20857 4.55493C1.50976 5.59373 1.03466 7.05671 0.519694 8.25166C0.216248 8.95601 0.0789119 9.46766 0.0312909 9.89847C-0.17359 11.7291 0.690254 15.7104 0.807645 17.8246C1.15982 24.0962 1.01141 34.8651 1.62273 37.8254C2.30382 41.1146 3.68149 44.4857 6.5465 45.7183C10.7161 47.5102 18.5503 44.396 22.6867 42.5155C27.4654 40.3416 31.6051 38.955 36.9176 38.5165C37.8402 37.3426 38.9066 34.6226 39.3175 33.1973C37.2598 33.05 36.0018 33.2228 33.9297 32.8329C29.8011 32.0555 25.0833 29.6966 20.4164 28.9912C15.5901 28.2613 12.0041 31.8329 10.1048 35.4875C9.2587 37.1166 9.24319 38.316 9.04827 39.1422C11.4371 37.3492 12.302 33.0013 20.227 34.9549Z" fill="#211D21"/>
<path fill-rule="evenodd" clip-rule="evenodd" d="M20.3374 48.4188C19.7345 49.1508 17.5483 51.1669 16.9009 51.8642C17.2707 52.6841 19.4872 54.9734 20.2984 55.417C21.6279 54.6513 22.7264 52.9986 23.9009 52.221C23.607 51.3589 20.409 48.3321 20.3374 48.4188Z" fill="#211F21"/>
</svg>
