<svg width="32" height="61" viewBox="0 0 32 61" fill="none" xmlns="http://www.w3.org/2000/svg">
<path fill-rule="evenodd" clip-rule="evenodd" d="M5.07272 25.8078C5.14539 25.8525 5.36682 26.0035 5.42939 26.0482L5.77326 26.3304C4.3804 28.4885 3.77907 27.9638 1.7932 32.1979C0.700267 34.5279 0.0537536 37.2972 0.00326098 40.2372C-0.115631 47.2562 3.01553 50.0869 9.55282 50.799C16.595 52.0452 27.309 49.457 29.9159 44.3453C27.2622 44.4838 23.8506 45.3271 21.1755 45.7341C14.3946 46.7669 0.420946 47.2489 2.27168 36.8755C3.61177 29.3599 10.9072 26.0555 17.8963 22.698C19.2662 22.039 20.0044 21.8881 20.6127 20.4441C21.0195 19.4769 21.6924 17.8611 21.7601 16.9523C18.8315 17.7883 16.2038 20.4254 12.8112 21.5008C8.4602 22.8781 4.48877 20.6856 3.92117 17.4301C6.48308 15.3344 14.0623 14.4464 17.9749 15.2886C16.358 11.6261 6.60489 9.27011 1.58374 16.4182C-1.27727 20.4899 1.56843 23.634 5.07272 25.8078Z" fill="#201D22"/>
<path fill-rule="evenodd" clip-rule="evenodd" d="M4.9624 6.86006C5.39903 7.90635 6.792 9.35761 7.8867 9.93229C8.78474 9.51481 10.4485 7.88344 10.9896 6.86006C10.4765 6.0376 8.94143 4.20112 7.8867 3.90649C6.96389 4.68106 5.60048 6.03135 4.9624 6.86006Z" fill="#211D21"/>
<path fill-rule="evenodd" clip-rule="evenodd" d="M21.1143 57.5526C20.3688 58.2564 19.8177 58.9643 19.6362 59.9065C21.5324 59.2111 27.1829 56.2179 29.3192 55.3112C30.125 54.5668 30.7767 54.2274 31.1556 52.4867C29.999 52.7594 21.7859 56.7999 21.1143 57.5526ZM21.1143 52.5773C20.3688 53.2811 19.8177 53.989 19.6362 54.9312C21.5324 54.2357 27.1829 51.2426 29.3192 50.3358C30.125 49.5914 30.7767 49.252 31.1556 47.5113C29.999 47.7841 21.7859 51.8246 21.1143 52.5773Z" fill="#671E5F"/>
</svg>
