<svg width="47" height="61" viewBox="0 0 47 61" fill="none" xmlns="http://www.w3.org/2000/svg">
<path fill-rule="evenodd" clip-rule="evenodd" d="M19.8912 54.0162C26.7864 56.4869 36.3337 55.6353 42.1426 51.6673C43.0422 51.0538 45.3234 49.0227 46.4605 48.0946C45.154 48.1356 45.6556 48.0713 42.3256 48.6627C38.0232 49.4258 34.7395 50.0493 30.1204 50.1257C21.3013 50.2719 11.3707 45.852 18.066 35.8704C19.5566 33.6477 22.0501 31.559 24.1413 30.1127C26.4867 28.4902 29.1163 27.1746 31.727 25.8434C32.6862 25.3539 35.0161 24.1213 35.4032 23.6296C36.0038 22.8665 37.1653 20.006 36.924 19.0569C33.6677 20.408 30.8068 22.8666 27.4103 23.8898C22.3758 25.4071 18.5726 22.0791 18.1588 19.5209C21.7647 17.4455 28.4434 16.1852 33.1534 17.2273C31.9815 14.6004 28.0291 13.2781 24.2021 13.6812C19.5365 14.0566 16.2578 16.822 14.6981 20.0746C12.1837 25.3185 20.4412 28.8867 20.5397 28.9886C17.7129 32.1991 15.5327 34.5835 14.5488 39.4464C13.4098 45.0668 13.2439 51.6363 19.8912 54.0162Z" fill="#211D21"/>
<path fill-rule="evenodd" clip-rule="evenodd" d="M21.1777 7.4316C21.6627 8.56897 23.2612 9.87576 24.2038 10.7086C25.359 10.2933 27.0801 8.56675 27.6812 7.35518L24.4563 4.19336L21.1777 7.4316Z" fill="#211D21"/>
<path fill-rule="evenodd" clip-rule="evenodd" d="M6.99187 16.6769C5.99914 16.6957 5.50598 16.8806 4.76642 16.2084C2.49888 14.1474 9.0429 8.21026 12.8808 8.11945C14.2047 8.08734 13.6949 9.41186 13.698 10.6301C15.437 10.1339 16.8735 4.11153 12.1201 5.50805C10.1163 6.09722 7.24947 8.30331 6.12096 9.5636C-2.35237 19.0202 7.01203 21.7579 6.99187 16.6769ZM9.65477 13.6922C10.6852 12.3743 11.6718 13.1241 11.5593 14.8938C10.6314 14.9293 9.89232 14.4918 9.65477 13.6922ZM0 26.077C7.19188 24.0847 11.1639 18.5274 11.6943 18.2195C12.151 18.3015 12.5675 18.1011 12.9582 18.0368C12.5965 17.3746 12.4836 16.5672 12.6206 15.6779C13.0305 14.9769 13.2641 14.4674 13.4463 13.6191C13.9402 11.3189 12.5587 9.45397 10.7049 10.4429C9.34457 11.1683 7.92712 12.3234 7.45601 13.8683C6.57037 16.7754 8.81509 16.3457 9.76773 17.8674C9.0522 20.3713 1.8684 24.8333 0 26.077Z" fill="#671E5F"/>
</svg>
