<svg width="20" height="60" viewBox="0 0 20 60" fill="none" xmlns="http://www.w3.org/2000/svg">
<path fill-rule="evenodd" clip-rule="evenodd" d="M4.90724 38.3778C4.6038 40.1431 3.12644 40.9393 2.70671 42.873C6.04018 41.6836 18.4803 36.8871 19.1404 31.692C17.6353 32.3266 15.9542 32.8682 14.3262 33.5072C10.4446 35.0421 5.4355 33.382 3.97143 30.9445C4.67578 29.806 5.98592 29.2379 7.57735 29.476C8.69035 29.6421 9.60954 30.9068 10.2829 31.568C11.5686 30.898 13.3206 28.2877 12.8101 26.3873C11.6761 24.3396 8.74794 24.3717 6.79437 25.6674C1.89384 28.9156 -2.7243 35.175 4.90724 38.3778Z" fill="#211D21"/>
<path fill-rule="evenodd" clip-rule="evenodd" d="M1.57262 19.6815C0.77967 20.4302 0.192699 21.1832 0 22.1855C2.0178 21.4457 8.02801 18.2617 10.3005 17.2971C11.1577 16.5053 11.851 16.1442 12.2541 14.2926C11.0237 14.5827 2.28693 18.8808 1.57262 19.6815ZM1.57262 14.389C0.77967 15.1376 0.192699 15.8907 0 16.8929C2.0178 16.1531 8.02801 12.9692 10.3005 12.0046C11.1577 11.2127 11.851 10.8517 12.2541 9C11.0237 9.29016 2.28693 13.5883 1.57262 14.389Z" fill="#671E5F"/>
</svg>
