<svg width="44" height="60" viewBox="0 0 44 60" fill="none" xmlns="http://www.w3.org/2000/svg">
<path fill-rule="evenodd" clip-rule="evenodd" d="M15.5234 26.1351C17.3074 25.5579 18.1084 23.5887 22.7793 24.848C24.4166 25.2892 27.7565 26.6641 29.0822 27.4479C28.5522 27.8666 16.9465 31.0202 16.0974 33.1201C17.5858 33.1533 19.2146 33.2968 20.6805 33.4488C29.2685 31.4111 32.7701 29.9119 41.6762 30.6679C42.3583 29.3048 42.6871 28.326 43.5898 26.6148C38.0847 26.0237 36.2311 24.7098 31.8343 23.1121C28.0221 21.1129 25.2862 20.3719 23.258 20.3334C19.6161 20.2638 16.9294 23.0586 15.5234 26.1351Z" fill="#211D21"/>
<path fill-rule="evenodd" clip-rule="evenodd" d="M0.275835 45.2161C2.88758 52.6348 13.7361 49.1921 18.8172 45.9582C20.6665 44.7803 27.8057 38.773 25.9853 35.9995C25.2379 34.8591 21.9451 34.6128 19.8259 34.3622C19.4254 34.3151 19.8912 33.6993 19.6 33.6447C18.7958 33.4959 17.1071 33.422 16.396 33.4605C15.2642 33.5216 13.3196 35.5926 13.4491 37.3766C16.1573 38.1915 20.039 38.0984 22.1025 39.6575C20.3752 42.3774 12.494 44.67 9.31574 44.7503C6.28851 44.8263 4.47988 44.0789 3.1028 42.1589C1.2235 39.5408 2.29648 37.7224 3.20133 35.145C2.14656 34.3975 -0.928845 41.7927 0.275835 45.2161Z" fill="#671E5F"/>
<path fill-rule="evenodd" clip-rule="evenodd" d="M27.3291 14.1761C27.812 15.1548 29.4279 16.4344 30.2396 17.3618C31.3297 17.0277 33.2882 14.871 33.7562 14.0979L30.5448 11C29.7524 11.3748 27.7307 13.3655 27.3291 14.1761Z" fill="#211D21"/>
<path fill-rule="evenodd" clip-rule="evenodd" d="M29.228 45.6648C31.8783 44.6572 36.9144 42.2028 39.3077 40.5227C40.0959 39.9691 40.688 39.2591 40.8015 38.0941C38.9329 38.4763 33.4878 41.3076 30.527 43.0552C29.2505 43.808 29.379 44.8638 29.228 45.6648Z" fill="#211D21"/>
</svg>
