<svg width="26" height="61" viewBox="0 0 26 61" fill="none" xmlns="http://www.w3.org/2000/svg">
<path fill-rule="evenodd" clip-rule="evenodd" d="M6.43701 50.9807C8.30989 51.6992 13.8536 52.2528 17.2042 51.2677C24.0992 49.2417 26.2602 39.9962 24.867 33.6408C24.4547 31.7529 22.7575 28.4816 20.9874 28.2278L20.0879 32.4629C20.921 33.779 23.158 35.8285 23.7769 37.9466C24.3016 39.7445 21.6535 43.0127 20.785 43.9486C16.4139 48.657 11.8458 48.8348 6.43701 50.9807Z" fill="#211D21"/>
<path fill-rule="evenodd" clip-rule="evenodd" d="M4.72469 46.3955C5.65524 40.9043 5.75162 38.7508 5.44108 32.9191L1.9052 12.9075C0.931823 13.7481 0.312889 15.5888 0.0848024 16.8524C-0.439903 19.7597 1.6375 26.1975 2.09902 28.7536C3.08097 34.187 4.07898 39.797 4.10896 45.7433C4.33384 46.4265 4.45484 46.3762 4.72469 46.3955Z" fill="#671E5F"/>
<path fill-rule="evenodd" clip-rule="evenodd" d="M11.6971 17.4232C13.3622 16.484 19.4167 13.8541 22.6345 11.9298C24.7312 10.6759 24.6177 10.224 24.7708 9C23.8135 9.14777 14.5937 13.7427 13.0774 14.7375C11.4861 15.4775 10.8597 16.619 11.6971 17.4232Z" fill="#211D21"/>
<path fill-rule="evenodd" clip-rule="evenodd" d="M16.7241 21.0586C17.0775 21.8531 18.779 23.3812 19.6603 24.1586C20.3114 23.9948 22.6212 22.0041 23.0816 21.0586C22.603 20.339 20.4988 18.2059 19.6603 17.9639C18.6612 19.1654 17.3698 20.0531 16.7241 21.0586Z" fill="#211D21"/>
</svg>
