<svg width="44" height="60" viewBox="0 0 44 60" fill="none" xmlns="http://www.w3.org/2000/svg">
<path fill-rule="evenodd" clip-rule="evenodd" d="M23.8053 30.6549C23.3763 32.3768 19.1963 34.9768 17.5337 35.8334C14.8422 37.2212 11.9082 38.1764 8.28079 38.1089C4.93842 38.0468 3.08193 37.0392 1.86665 33.0204C0.735638 29.28 4.18134 25.7677 3.50587 24.2867C1.57538 28.2542 -1.73733 34.9307 1.10732 39.8961C4.1822 45.2631 10.9027 43.6998 15.6651 41.375C19.7262 39.3918 24.4742 35.6546 26.0725 31.3456C29.7674 21.388 18.6681 27.8354 15.6332 22.8604C15.5442 20.7358 17.2338 19.4112 18.5403 18.5246C21.1962 16.7202 22.0487 18.1423 24.1115 18.4625C25.3899 16.5682 25.9094 15.1526 26.1165 14.0004C23.7742 12.4455 21.9072 11.7902 18.821 14.8035C16.1593 17.4024 10.3642 26.0546 14.9815 28.903C17.5333 30.4772 21.073 29.5552 23.8053 30.6549Z" fill="#671E5F"/>
<path fill-rule="evenodd" clip-rule="evenodd" d="M34.6451 25.1562C37.2538 28.2648 38.4699 29.7468 37.1427 32.3339C32.1853 41.9981 21.852 42.0453 19.8564 42.767C22.4437 44.1473 32.5371 44.9815 36.3276 39.4924C36.8291 38.7664 37.1945 38.0972 37.5791 37.2759C40.0626 31.9667 40.4562 23.9698 35.3596 20.0312C35.0838 20.9768 34.5492 25.274 34.6451 25.1562Z" fill="#211D21"/>
<path fill-rule="evenodd" clip-rule="evenodd" d="M34.6538 15.6344L34.7428 15.5209C35.4865 14.3848 36.2239 13.8429 36.9611 13.0387C36.6553 12.3459 34.5462 10.1828 33.7669 9.77698C33.178 10.1325 30.9627 12.0407 30.5728 13.0387L33.7209 16.1698C34.2329 15.7908 34.1074 15.8957 34.6538 15.6344Z" fill="#211D21"/>
<path fill-rule="evenodd" clip-rule="evenodd" d="M32.7808 50.0915C34.7344 49.5068 40.8052 46.8437 42.5099 45.0522C42.7134 44.838 43.6265 43.19 43.013 42.4019C40.6687 44.3712 36.8482 46.0149 34.1088 47.3663C33.0534 48.1555 32.8572 48.7679 32.7808 50.0915Z" fill="#211D21"/>
</svg>
