<svg width="38" height="60" viewBox="0 0 38 60" fill="none" xmlns="http://www.w3.org/2000/svg">
<path fill-rule="evenodd" clip-rule="evenodd" d="M32.857 33.0173C30.9298 33.6508 27.8191 32.3969 29.0433 30.528C30.0174 29.0394 32.9705 31.1021 32.857 33.0173ZM27.7266 37.1329C32.5617 40.5885 34.1011 35.6453 34.2465 35.4503C34.9396 36.2007 35.3253 37.7962 35.203 39.0898C30.8295 41.9394 25.6351 42.1488 23.136 42.5234L22.8462 47.1823C26.7315 47.1944 34.7126 45.9514 36.1936 41.8997C37.5611 38.1587 37.9622 34.5434 36.4162 30.6118C35.5633 28.4366 34.6576 27.2256 32.9805 25.7028C32.262 25.1111 31.57 24.483 30.5497 25.0163C28.7304 25.9672 24.7183 34.9842 27.7266 37.1329Z" fill="#211D21"/>
<path fill-rule="evenodd" clip-rule="evenodd" d="M18.6194 42.3096C15.9726 42.4981 15.5087 42.6545 13.8162 41.4391C14.4079 38.0111 18.4948 40.5598 18.6194 42.3096ZM4.00146 55.3397C8.69449 59.9897 15.9098 58.1022 19.1913 53.0852C19.6441 52.3921 19.9472 51.7398 20.4298 50.8318C23.0027 46.0065 23.4578 38.3758 18.4938 35.3621C14.2195 32.7671 12.3892 38.6348 11.7126 41.7664C11.1947 44.1608 10.5887 45.4886 13.0228 46.7569C15.361 47.9756 16.2745 47.3134 19.1538 47.6021C19.2133 50.964 14.4553 53.9601 10.0454 55.1303C7.68075 55.7584 5.60143 55.3419 4.00146 55.3397Z" fill="#671E5F"/>
<path fill-rule="evenodd" clip-rule="evenodd" d="M0.00261083 18.5426C-0.100968 25.3612 3.62459 35.35 2.81579 42.6524C2.71111 43.5945 2.09515 44.9686 2.34638 45.5746C3.82955 43.9592 4.37058 37.2872 4.32651 34.3572C4.25047 29.4019 3.33146 23.7051 2.5425 18.7399C2.43341 18.0589 2.39817 17.368 2.34087 16.6848C2.31883 16.4027 2.29237 15.9653 2.24389 15.7515L1.80975 14.7069C0.598759 15.7769 0.361833 16.708 0.00261083 18.5426Z" fill="#671E5F"/>
<path fill-rule="evenodd" clip-rule="evenodd" d="M29.6892 15.2424C28.704 15.7911 26.9553 17.5057 26.4639 18.5415C27.017 19.4043 28.8153 21.2709 29.6892 21.7646C30.6941 21.1243 32.1784 19.5112 32.9376 18.5415C32.5122 17.4969 30.6831 15.7548 29.6892 15.2424Z" fill="#211D21"/>
<path fill-rule="evenodd" clip-rule="evenodd" d="M24.4342 5.33074C26.0198 4.66849 27.0446 5.47068 27.136 6.99572C25.8876 6.86129 24.4253 6.65413 24.4342 5.33074ZM21.9428 8.06567C23.3411 9.35711 24.6083 9.55876 25.5967 10.3455C24.9818 12.2485 19.0095 16.4214 18.0376 17.8065C19.2993 17.6115 22.0772 15.7382 23.0546 15.0099C24.6821 13.7945 25.9912 12.416 27.1482 10.7521L28.6291 11.1675C30.4748 9.11358 30.2589 9.02654 28.5123 7.65025C28.5079 6.28168 29.2914 5.6007 29.1801 4.28723C29.0368 2.60352 27.1735 0.925313 24.5973 2.87789C23.2529 3.89716 22.0001 6.38196 21.9428 8.06567Z" fill="#211D21"/>
</svg>
