<svg width="36" height="61" viewBox="0 0 36 61" fill="none" xmlns="http://www.w3.org/2000/svg">
<path fill-rule="evenodd" clip-rule="evenodd" d="M20.9667 36.0821C19.8146 36.757 19.0991 36.8617 17.9296 36.0425C17.2385 35.5573 15.9656 34.7451 16.5788 33.4046C17.5486 31.2914 20.9272 34.1947 20.9667 36.0821ZM11.1689 49.6012C9.38607 50.8323 5.54867 50.2307 3.00049 50.2993C3.25484 52.2624 9.30942 53.9403 11.6694 53.9974C18.0666 54.1521 22.8819 47.4787 24.2315 41.5965C25.8308 34.631 24.5811 34.4798 23.6717 31.203C22.7286 30.7561 21.156 25.8002 18.1305 27.2722C17.0747 27.7854 11.0016 37.6495 16.3384 41.6058C19.6624 44.0716 21.6903 40.7378 22.6949 39.2414C22.8854 39.4962 23.1316 38.6456 22.9051 40.2584C22.6078 42.3727 15.0678 49.9153 11.1689 49.6012Z" fill="#671E5F"/>
<path fill-rule="evenodd" clip-rule="evenodd" d="M33.4582 20C30.6592 22.9201 32.6513 30.848 33.2134 34.9488C33.5805 37.6316 34.2028 49.9249 34.7203 51C36.3993 47.8449 36.0985 39.1325 35.6463 35.0612C35.3497 32.4034 34.7742 30.1282 34.4662 27.5397C34.3054 26.1943 34.1385 24.9012 34.014 23.6047L33.7174 20.6732C33.5878 20.1431 33.621 20.2623 33.4582 20Z" fill="#211D21"/>
<path fill-rule="evenodd" clip-rule="evenodd" d="M0.521135 14.9969C-0.484022 15.8736 0.25777 17.3703 0.357501 18.7029C0.974939 20.4049 1.93415 27.6653 2.35213 30.2883C2.68382 32.3699 2.94831 34.3078 3.24078 36.3803C3.65203 39.2849 2.7578 40.6357 2.97407 43C4.80509 40.825 5.10317 34.9097 4.97431 31.3439C4.8163 26.9654 3.76184 23.2696 3.22621 19.1452L1.88485 12C1.21475 12.4309 0.349687 13.9311 0.521135 14.9969Z" fill="#671E5F"/>
<path fill-rule="evenodd" clip-rule="evenodd" d="M34.3021 17.3974C34.4332 17.0642 34.3618 17.1764 34.622 16.9079C34.9248 16.5963 34.8118 16.7504 35.0005 16.6597L34.9354 16.0048C33.7017 16.3232 31.0168 18.365 30.6489 15.6989C32.1311 15.5165 33.5567 16.2972 33.1963 14.1239C30.4378 13.3863 28.7264 16.1249 29.0367 17.4846L29.4642 20L34.3021 17.3974Z" fill="#211D21"/>
<path fill-rule="evenodd" clip-rule="evenodd" d="M29.7688 7.89662C30.7028 7.51939 31.3067 7.97729 31.3608 8.84564C30.6255 8.76853 29.7638 8.6499 29.7688 7.89662ZM28.3008 9.4542C29.1244 10.1897 29.8719 10.3036 30.4537 10.752C30.0916 11.8362 26.5725 14.2111 26.0005 15C26.7443 14.8885 28.3805 13.8232 28.955 13.408C29.9148 12.7164 30.6869 11.9311 31.3681 10.9833L32.2396 11.2206C33.3271 10.0509 33.1995 10.0011 32.1709 9.21693C32.1696 8.43874 32.63 8.05083 32.5649 7.30229C32.4802 6.34378 31.3816 5.38765 29.8645 6.50038C29.074 7.08046 28.3339 8.49569 28.3008 9.4542Z" fill="#211D21"/>
</svg>
