<svg width="32" height="60" viewBox="0 0 32 60" fill="none" xmlns="http://www.w3.org/2000/svg">
<path fill-rule="evenodd" clip-rule="evenodd" d="M28.2187 41.5005C26.9543 41.5619 25.3777 40.1907 25.486 39.311C25.5782 38.5607 25.7168 37.7907 25.4142 37.3058C24.0005 38.7867 25.629 39.854 22.6004 41.1835C21.2412 41.7802 19.6237 42.3155 17.8591 42.2859C16.488 42.2628 16.8054 42.1971 17.0329 40.9652L17.4687 38.598C15.7856 39.2101 17.1747 41.8109 10.4675 42.6731C8.14891 42.9715 7.44242 41.6003 6.1702 41.3392C6.03082 42.1323 4.96025 44.3712 4.00049 45.1763C4.94545 46.4191 6.42278 48.1632 8.9599 47.9877C11.6351 47.8034 13.1333 47.3724 14.36 46.9555C16.5478 47.5599 17.1744 47.9131 19.6094 47.1365C21.4175 46.5584 22.7807 46.0012 24.019 44.9328C26.2871 46.4707 28.5581 48.2817 30.3967 44.8889C31.6221 42.6292 32.4299 39.5721 31.7566 36.4349C31.5286 35.9445 31.2736 35.8689 30.91 36.2078C30.3642 37.6558 29.6709 41.4292 28.2187 41.5005Z" fill="#211D21"/>
<path fill-rule="evenodd" clip-rule="evenodd" d="M1.447 28.3502L1.97842 32.4373C2.13079 33.9214 2.29011 35.4265 2.46147 36.9907C2.74052 39.5402 3.0418 43.2199 4.29541 45C4.96098 44.4442 5.61885 43.0923 5.85181 42.2556C6.27207 40.7413 5.71028 40.2469 5.29404 38.779C4.36872 35.5147 3.50815 24.645 3.26966 20.9108C3.08713 16.7495 3.3523 15.3976 2.29011 11.7202C1.91335 10.4159 1.80598 11.0924 1.45633 12.0985C0.651931 14.4066 -0.456025 14.9462 0.199139 19.2397C0.707675 22.5794 1.08607 25.0198 1.447 28.3502Z" fill="#671E5F"/>
<path fill-rule="evenodd" clip-rule="evenodd" d="M12.0005 24C13.0429 23.4731 21.9487 19.0358 26.4054 16.8361C28.2103 15.9461 28.1506 14.6767 27.8154 14C25.7713 14.6491 18.9108 17.4909 13.8615 20.6936C12.0226 21.8591 12.2007 22.8564 12.0005 24Z" fill="#211D21"/>
</svg>
