<svg width="34" height="60" viewBox="0 0 34 60" fill="none" xmlns="http://www.w3.org/2000/svg">
<path fill-rule="evenodd" clip-rule="evenodd" d="M25.9224 45.1521C27.5581 43.8785 29.0606 42.5141 30.1254 40.5577C32.7766 36.1713 33.5118 32.9539 26.2348 31.6082C26.3922 29.6517 26.762 29.4819 27.3444 28.2314C26.1245 28.6374 25.2412 28.3257 24.2613 28C23.6537 30.1449 17.8539 30.7265 17.2325 31.1813C16.5582 32.0792 14.9765 35.1221 15.313 36.3818C19.2461 36.8029 25.6961 36.0655 28.183 38.7198C27.5156 40.3366 22.613 42.8561 20.937 43.697C18.5776 44.8823 14.8513 46.4596 11.7934 46.826C3.85368 47.7763 1.23007 43.4086 3.0944 37.9905C3.30805 37.3682 3.66414 36.5214 3.97774 35.8828C5.37455 33.04 4.37404 33.6239 4.27295 33.7623C3.02433 36.9297 0.819983 38.7105 0.130768 42.8607C-0.533176 46.8644 1.40581 49.8049 4.46248 50.996C8.67703 52.6384 11.4959 52.073 15.3578 50.683C16.8764 50.1363 18.5179 49.321 19.9227 48.701C22.2281 47.6832 23.9753 46.6352 25.9224 45.1521Z" fill="#671E5F"/>
<path fill-rule="evenodd" clip-rule="evenodd" d="M24.014 28.5651C25.0404 28.8985 25.968 29.2188 27.2473 28.8021C29.4217 24.3854 26.5281 17.7373 23.1491 16C22.2179 17.061 20.7663 21.3227 21.0326 21.9431C22.2794 23.1601 22.9732 22.8636 23.9743 24.52C24.8706 26.0037 24.8031 27.0231 24.014 28.5651Z" fill="#211D21"/>
<path fill-rule="evenodd" clip-rule="evenodd" d="M16.0005 9.50943C16.685 10.4584 18.3258 12.2927 19.4644 13C20.2131 12.6416 19.6008 13.0731 20.4332 12.3493C20.7417 12.0805 21.0375 11.7316 21.3287 11.4215C21.761 10.9582 22.6565 10.1413 23.0005 9.50943C22.5808 8.52862 20.4183 6.48804 19.4644 6C18.421 6.64012 16.3995 8.88581 16.0005 9.50943Z" fill="#211D21"/>
<path fill-rule="evenodd" clip-rule="evenodd" d="M23.0005 54C25.8288 52.906 29.9471 50.9634 32.7469 49.7062C33.6904 49.2834 33.951 47.4618 34.0005 47C31.5405 48.2171 26.8185 49.971 24.2068 51.6827C23.2006 52.3436 23.1401 53.3412 23.0005 54Z" fill="#211D21"/>
</svg>
