<svg width="31" height="60" viewBox="0 0 31 60" fill="none" xmlns="http://www.w3.org/2000/svg">
<g id="23">
<path id="Vector" fill-rule="evenodd" clip-rule="evenodd" d="M5.48747 35.8489C5.72947 36.1789 6.25847 36.2309 7.16747 36.6749C9.13147 37.6359 11.5635 40.4179 11.7165 42.9029C7.88748 43.8889 4.32847 44.7449 1.26747 42.8449C1.21047 42.9319 1.14647 42.9699 1.12647 43.1229C0.878474 45.0009 -3.33052 50.5589 8.95148 47.9889C12.1475 47.3199 13.1285 46.9649 13.6425 43.4199C14.4945 37.5379 11.5335 32.5579 6.84747 31.7579C6.28547 32.4429 4.74647 34.8389 5.48747 35.8489Z" fill="#35388A"/>
<path id="Vector_2" fill-rule="evenodd" clip-rule="evenodd" d="M18.1776 19.6119C19.2576 23.0689 20.5046 39.7959 21.7246 41.8289C23.4346 37.8959 22.7526 32.3269 22.1046 27.5969L20.5176 16.9709C20.3006 15.2779 19.8616 15.0469 19.3166 13.7879C18.9586 15.3829 17.8246 17.4209 18.1776 19.6119Z" fill="#211D21"/>
<path id="Vector_3" fill-rule="evenodd" clip-rule="evenodd" d="M19.2117 50.5109C18.2927 51.1579 18.1357 51.0589 17.5977 52.2389C21.1627 50.9919 26.3267 49.7429 27.5737 47.0919C25.0737 47.3369 22.2037 48.9299 20.5957 46.2809C22.2867 44.9889 25.3737 46.9829 25.0317 43.6849C22.4427 42.6339 21.2317 44.0819 19.8047 45.4729C18.4047 46.8389 17.5857 47.6359 18.1237 49.0579L19.2117 50.5109Z" fill="#211D21"/>
<path id="Vector_4" fill-rule="evenodd" clip-rule="evenodd" d="M2.98541 19.1769C5.57441 18.1999 9.60041 17.3069 9.76341 13.9199C7.09441 12.5429 3.66241 12.6549 3.02541 15.7809C4.35941 15.2959 5.72141 15.4059 6.94641 15.6239C6.14541 17.1439 1.73841 18.3469 2.98541 19.1769Z" fill="#35388A"/>
<path id="Vector_5" fill-rule="evenodd" clip-rule="evenodd" d="M17.9243 57.2849C19.5493 56.7719 23.9273 54.6639 26.5393 53.0589C28.4953 51.8559 28.9633 51.2689 29.2643 50.0139C27.1803 50.6239 21.8423 53.0099 18.9773 54.8149C17.8563 55.5209 18.0843 56.4599 17.9243 57.2849Z" fill="#211D21"/>
<path id="Vector_6" fill-rule="evenodd" clip-rule="evenodd" d="M4.4873 24.3229C5.1223 25.4419 6.14831 26.6679 7.56731 27.1989C8.28131 26.3909 9.60131 25.1449 10.1443 24.3229C9.56031 23.3019 8.48031 22.1369 7.21931 21.5079C6.59831 21.9789 6.25131 22.2509 5.68831 22.7949C5.68031 22.8029 5.1473 23.3559 5.1413 23.3639C4.4983 24.1409 4.8893 23.6099 4.4873 24.3229Z" fill="#35388A"/>
</g>
</svg>
