<svg width="46" height="60" viewBox="0 0 46 60" fill="none" xmlns="http://www.w3.org/2000/svg">
<g id="36">
<path id="Vector" fill-rule="evenodd" clip-rule="evenodd" d="M6.77983 49.952C0.200828 48.967 2.06384 44.156 1.85484 39.924C1.84784 39.774 1.81085 39.725 1.76585 39.635C0.0588509 44.533 -2.37417 53.62 5.27983 54.873C8.01683 55.321 10.8188 54.578 12.9178 53.511C18.2428 50.803 19.1788 47.738 20.4318 42.815C22.6098 42.927 24.6708 43.0731 26.2228 40.4001C27.4598 40.9331 28.3888 41.879 30.6288 41.413C33.7708 40.758 33.8388 33.752 33.3688 32.743C33.3088 32.802 33.2358 32.897 33.2088 32.939L32.7928 33.594C32.5168 34.176 32.0338 38.626 28.9528 36.381C27.8918 35.608 27.6678 35.0221 27.4398 34.1371C26.5508 35.7501 25.6078 37.923 22.9308 38.244C18.9028 38.464 18.3598 34.988 18.0088 34.019C16.9738 35.353 16.4278 36.58 16.2298 37.669C16.1748 37.976 19.2228 43.279 17.8428 46.138C16.8718 48.153 9.51183 50.858 6.77983 49.952Z" fill="#35388A"/>
<path id="Vector_2" fill-rule="evenodd" clip-rule="evenodd" d="M40.2519 30.4551L43.0729 50.5221C43.2459 51.6441 43.1019 51.3181 43.6859 52.0331C46.1699 46.1561 43.5649 33.4221 42.3889 25.7861C41.4749 26.4781 39.9609 28.8181 40.2519 30.4551Z" fill="#211D21"/>
<path id="Vector_3" fill-rule="evenodd" clip-rule="evenodd" d="M38.204 23.8311C37.388 24.4541 36.471 25.4611 36.333 26.1951C39.173 25.1831 44.49 24.1061 45.582 21.6021C43.577 22.0771 40.373 23.1481 39.28 20.7891C40.558 20.5711 41.835 20.3531 43.113 20.1341C43.183 19.9261 43.253 19.7171 43.322 19.5081C43.397 19.2831 43.473 19.0561 43.549 18.8301C41.732 17.8581 40.333 18.3431 38.929 19.6621C37.211 21.2751 37.156 22.1341 38.204 23.8311Z" fill="#211D21"/>
<path id="Vector_4" fill-rule="evenodd" clip-rule="evenodd" d="M9.91992 19.3181C11.8589 19.1411 12.3609 18.8601 14.3149 19.4361C13.4949 20.8841 12.2199 20.4261 11.1789 22.5041C14.0189 22.4741 16.1369 19.5901 16.7679 16.9211C13.1399 16.9101 10.8189 15.8541 9.91992 19.3181Z" fill="#35388A"/>
<path id="Vector_5" fill-rule="evenodd" clip-rule="evenodd" d="M18.5239 26.364L21.4379 29.151C22.9779 28.44 23.5599 27.481 24.4699 26.364C23.7619 25.277 22.7229 24.351 21.4819 23.468C20.5639 24.227 19.0169 25.38 18.5239 26.364Z" fill="#35388A"/>
<path id="Vector_6" fill-rule="evenodd" clip-rule="evenodd" d="M30.666 25.8001C29.769 25.0961 29.113 24.0431 28.168 23.4501L25.1479 26.2361C26.5899 27.8441 27.5069 28.7391 27.9219 28.8331C28.4969 28.3231 30.117 27.1441 30.666 25.8001Z" fill="#35388A"/>
<path id="Vector_7" fill-rule="evenodd" clip-rule="evenodd" d="M21.978 22.1761C22.789 23.5491 23.889 24.3991 24.825 25.1781C25.949 24.6221 27.201 23.3831 27.738 22.2761L24.952 19.3711L21.978 22.1761Z" fill="#35388A"/>
<path id="Vector_8" fill-rule="evenodd" clip-rule="evenodd" d="M41.2498 14.1631C40.7708 13.5241 40.8478 13.5051 40.8118 13.1051C41.2128 11.8761 41.3068 10.3121 41.1188 9.35313C40.5668 6.54513 36.1939 8.49516 36.2559 11.6672C36.2849 13.1582 36.9408 13.4692 37.9028 14.0802C37.2618 16.2672 33.6248 19.0262 31.8828 20.8182C36.0008 19.7512 38.3358 17.0342 39.4438 14.8912C39.4438 14.8912 40.5098 14.8701 41.2498 14.1631ZM39.3378 12.1141C38.8888 11.9991 37.5888 10.8221 38.4188 10.4651C39.1168 10.1661 40.3128 11.2801 39.3378 12.1141Z" fill="#211D21"/>
</g>
</svg>
