<svg width="56" height="60" viewBox="0 0 56 60" fill="none" xmlns="http://www.w3.org/2000/svg">
<g id="38">
<path id="Vector" fill-rule="evenodd" clip-rule="evenodd" d="M47.1721 12.1111C43.8631 14.5711 46.1131 22.2441 46.6621 26.0561C46.9741 28.2191 48.2381 38.5901 48.8731 39.6471C51.8891 35.1431 47.9321 17.7601 47.1721 12.1111Z" fill="#211D21"/>
<path id="Vector_2" fill-rule="evenodd" clip-rule="evenodd" d="M21.3729 20.454C21.3729 20.454 21.4789 21.272 23.4699 20.35C25.4339 19.44 26.9009 18.033 27.0549 15.557C23.7609 14.634 19.2499 14.237 18.7539 17.949C20.7329 17.341 23.0239 17.159 24.8469 18.412L21.3729 20.454Z" fill="#35388A"/>
<path id="Vector_3" fill-rule="evenodd" clip-rule="evenodd" d="M43.2891 54.505C45.2491 54.11 47.621 53.026 49.493 52.253C51.662 51.356 54.0911 50.824 54.3651 48.474C50.8831 49.741 44.1021 51.788 43.2891 54.505Z" fill="#211F22"/>
<path id="Vector_4" fill-rule="evenodd" clip-rule="evenodd" d="M21.311 37.266C21.8 36.118 24.874 33.162 26.69 32.828C29.239 32.36 32.831 33.922 33.649 35.359C30.422 37.085 25.436 37.329 21.311 37.266ZM24.382 31.249L19.129 36.456C17.892 37.226 16.811 35.821 16.313 34.827C16.063 34.766 15.472 35.033 14.904 35.894C13.35 39.173 14.801 38.548 15.946 41.934C17.304 45.948 15.126 46.862 11.821 48.432C9.42199 49.572 4.76701 50.818 2.84101 48.384C0.449008 45.363 3.01702 41.476 3.17402 38.417C1.34202 40.907 -3.03098 52.83 4.03302 54.254C6.62002 54.776 9.793 53.922 12.396 52.368C17.539 49.297 18.403 45.488 18.89 41.814C26.072 41.799 38.102 40.908 37.071 32.38C33.314 27.84 28.62 27.488 24.382 31.249Z" fill="#35388A"/>
<path id="Vector_5" fill-rule="evenodd" clip-rule="evenodd" d="M45.8151 48.505C45.2211 48.933 44.7341 49.333 44.5181 50.031C47.6391 49.321 52.7811 47.976 53.5281 45.673C52.3511 45.915 50.1891 47.1031 48.2371 46.1961C46.7411 45.5001 47.0901 45.2781 47.2831 44.7881C48.8951 44.0831 50.5491 45.0761 51.5211 43.3011C50.3591 41.1741 48.205 42.1111 46.725 43.3731C45.107 44.7511 44.0931 46.521 45.8151 48.505Z" fill="#211F22"/>
</g>
</svg>
