<svg width="42" height="60" viewBox="0 0 42 60" fill="none" xmlns="http://www.w3.org/2000/svg">
<g id="43">
<path id="Vector" fill-rule="evenodd" clip-rule="evenodd" d="M29.1807 12.7564C31.3597 12.4434 32.6827 11.3074 34.9327 10.6484C37.5017 9.89541 38.6587 9.46942 39.4387 7.45142C37.9897 7.76542 35.3027 8.88539 33.7577 9.42639C31.5277 10.2074 29.8657 11.0924 29.1807 12.7564Z" fill="#211D21"/>
<path id="Vector_2" fill-rule="evenodd" clip-rule="evenodd" d="M15.5186 18.3954C17.0026 17.5684 17.8786 17.5934 19.8546 17.9134C19.4036 19.1264 18.4795 18.9584 15.9675 20.6364C19.1395 20.7634 22.1405 18.8744 22.6685 16.3504C20.0905 14.9794 16.0816 15.4944 15.5186 18.3954Z" fill="#478656"/>
<path id="Vector_3" fill-rule="evenodd" clip-rule="evenodd" d="M33.2313 20.8784C32.3063 21.5824 32.1702 21.4304 31.6562 22.6624C34.9952 21.6454 40.4032 20.1314 41.5142 17.4954C40.1492 17.7704 39.2942 18.2694 37.7592 18.1594C35.9272 18.0274 35.2712 17.5874 34.6252 16.7224L35.5242 16.3124C37.4432 15.8334 38.4583 16.7454 39.2733 14.8644C37.8473 12.3684 35.2203 14.5794 34.0073 15.6444C30.2873 18.9084 32.6213 19.9964 33.2313 20.8784Z" fill="#211D21"/>
<path id="Vector_4" fill-rule="evenodd" clip-rule="evenodd" d="M35.9296 25.6445C35.5286 31.0005 38.0945 40.8015 38.5765 46.8265L39.1725 48.9915C41.1365 46.1685 40.0125 39.3495 39.5295 35.7015C39.2125 33.3045 38.2335 24.5535 37.2485 23.1055L35.9296 25.6445Z" fill="#211D21"/>
<path id="Vector_5" fill-rule="evenodd" clip-rule="evenodd" d="M12.0585 44.9484C13.1055 43.3554 15.8855 40.6023 17.7255 39.8613C20.4515 38.7633 24.3065 40.1273 25.5285 42.0714C21.7415 42.8614 15.9655 44.7934 12.0585 44.9484ZM6.08649 20.3333C6.02849 21.6143 6.67147 22.1643 7.36047 25.5073C10.0335 38.4903 10.1435 43.4474 8.62946 45.3444C7.19746 47.1394 3.28646 46.5353 0.772461 46.7183C1.66346 49.5723 10.9475 49.5343 13.2455 49.0883C16.3795 48.4823 22.8885 47.0494 26.1965 45.6984C27.7585 45.0604 28.4675 44.2584 29.1915 42.7924C31.1575 38.8054 28.6225 37.3893 25.7875 36.0303C19.3885 32.9613 16.1405 37.6763 12.4465 41.2543C11.4925 42.1793 11.9915 41.8984 10.8045 42.4614C10.9755 37.5064 11.0005 34.2183 10.1325 29.4683C9.86451 28.0043 9.1495 24.5593 9.1405 23.2463C9.1205 20.5223 11.3524 22.3583 10.8354 18.2113C9.74645 17.9373 9.25246 16.4233 8.47046 15.3403C7.02146 16.9473 6.19349 17.9773 6.08649 20.3333Z" fill="#288A45"/>
</g>
</svg>
