<svg width="52" height="60" viewBox="0 0 52 60" fill="none" xmlns="http://www.w3.org/2000/svg">
<path d="M12.364 11.3273L13.8742 12.554L12.5056 14.2058L11.0898 12.7901L12.364 11.3273ZM11.5617 21.0604C11.0154 20.553 10.6927 20.211 10.5982 20.0301C10.4999 19.849 10.4528 19.672 10.4528 19.5031C10.4528 19.0823 10.6495 18.5553 11.0427 17.9299C11.4321 17.3046 11.8094 16.8288 12.1673 16.5064C12.5254 16.184 12.8559 16.0226 13.1544 16.0226C13.4768 16.0226 13.7287 16.184 13.9096 16.5103C14.0905 16.8366 14.1808 17.2338 14.1808 17.702C14.1808 18.5001 13.9057 19.4285 13.3589 20.4861C13.5401 20.5923 13.819 20.6474 14.2084 20.6474H15.0776V22.5587C14.122 22.5587 13.2452 22.3109 12.4546 21.8193C12.1006 22.4093 11.2158 22.8418 9.80788 23.1133C8.39632 23.3883 6.99591 23.526 5.60386 23.526C3.13803 23.526 1.58462 23.2312 0.951721 22.6412C0.318541 22.0515 0 21.3514 0 20.5452C0 19.9552 0.164983 19.3772 0.499131 18.8109C0.833835 18.2407 1.06543 17.9575 1.20338 17.9575C1.28224 17.9575 1.32126 17.9929 1.32126 18.0598C1.32126 18.1147 1.28587 18.229 1.21508 18.4059C1.06543 18.8502 0.991016 19.2239 0.991016 19.5226C0.991016 20.1204 1.22679 20.6396 1.69888 21.0761C2.1707 21.5125 3.42926 21.7329 5.474 21.7329C7.15755 21.7329 8.6594 21.6424 9.97704 21.4615C11.0191 21.3199 11.5463 21.1861 11.5617 21.0604ZM12.5491 20.0496C13.0563 19.4204 13.3079 18.9249 13.3079 18.5592C13.3079 18.3193 13.2291 18.1147 13.0719 17.9377C12.9147 17.7608 12.7377 17.6744 12.5449 17.6744C12.2224 17.6744 11.9711 17.7884 11.7977 18.0124C11.6246 18.2368 11.5383 18.4569 11.5383 18.6732C11.5383 18.9329 11.8649 19.3772 12.5137 20.0025L12.5491 20.0496ZM17.7321 13.6119C17.9367 16.2862 18.0389 18.1816 18.0389 19.2947C18.0389 19.9474 17.9762 20.502 17.8539 20.9504C17.7285 21.3985 17.4336 21.78 16.9691 22.0908C16.5014 22.4015 15.7894 22.5587 14.8337 22.5587C14.4486 22.5587 14.0668 22.3187 13.6936 21.8391C13.3196 21.3592 13.131 20.9621 13.131 20.6474H15.6993C16.2612 20.6474 16.6505 20.6198 16.8673 20.561C17.0833 20.502 17.1895 20.3565 17.1895 20.1165C17.1895 19.6249 17.158 18.9956 17.0914 18.2248L16.7411 14.1075C16.6742 13.2385 16.5563 12.6761 16.3871 12.4245C16.4735 12.3024 16.6112 12.0939 16.8002 11.7952C17.0635 11.3783 17.2522 11.0951 17.3665 10.9496C17.4136 11.0165 17.5 11.162 17.6223 11.3861C17.9328 11.9721 18.1922 12.3261 18.3929 12.4479L18.2003 12.7823C17.9721 13.1677 17.8146 13.4428 17.7321 13.6119ZM22.3215 9.32154C22.0303 9.02251 21.7709 8.87313 21.551 8.87313C21.138 8.87313 20.9292 9.0069 20.9292 9.27416C20.9292 9.47092 21.0828 9.64398 21.3893 9.79336C21.6962 9.94274 21.991 10.0135 22.2742 10.0135C22.3887 10.0135 22.5456 9.99401 22.7426 9.94664C22.8488 9.92323 22.9232 9.91124 22.9625 9.91124C23.0213 9.91124 23.0528 9.93493 23.0528 9.97813C23.0528 10.0174 22.9625 10.2379 22.778 10.6428L20.5204 11.2919C20.4376 11.3153 20.3668 11.3273 20.3122 11.3273C20.2531 11.3273 20.2213 11.3075 20.2213 11.2721C20.2213 11.2013 20.3041 11.0951 20.4691 10.9496C20.6344 10.8042 20.8194 10.6821 21.0237 10.5837C20.5045 10.2613 20.245 9.93883 20.245 9.61639C20.245 9.21536 20.3866 8.84554 20.6661 8.50749C20.9451 8.16916 21.2714 8 21.641 8C22.0618 8 22.4241 8.17307 22.7226 8.5192L22.3215 9.32154ZM21.3422 22.9126C21.3107 20.6552 21.2046 18.3823 21.0201 16.1012C20.961 15.3777 20.9292 14.8939 20.9292 14.6501C20.9292 14.0289 21.0513 13.5412 21.2915 13.1989L22.168 11.9643C22.168 12.4008 22.1563 13.081 22.1326 14.0052C22.1248 14.3042 22.1209 14.4773 22.1209 14.5244C22.1209 15.1929 22.1485 16.235 22.2073 17.6585C22.2351 18.6024 22.2508 19.2239 22.2508 19.5226C22.2508 20.9777 21.9478 22.1064 21.3422 22.9126Z" fill="#C43025"/>
<path fill-rule="evenodd" clip-rule="evenodd" d="M48.0568 29.6595L49.8836 42.3109C50.3546 45.6702 49.4865 46.0314 50.0647 46.7969C50.5563 45.6429 51.1477 44.323 51.6488 42.9059C52.1407 38.4413 51.1321 32.8893 50.4948 28.6643C50.1556 26.4117 49.9625 24.1139 49.645 21.8992C49.421 20.3357 49.3951 15.94 49.0654 15.005C47.8578 14.9013 47.6226 16.4322 47.1806 17.5714C46.5207 19.2703 47.8676 27.4136 48.0568 29.6595Z" fill="#211D21"/>
</svg>
