<svg width="53" height="60" viewBox="0 0 53 60" fill="none" xmlns="http://www.w3.org/2000/svg">
<path d="M3.03841 17.4916C2.04786 17.4692 1.35152 17.2272 0.94543 16.7617C0.539869 16.2963 0.335109 15.5925 0.335109 14.6542C0.335109 14.4943 0.338803 14.241 0.346192 13.8911C0.361232 13.4927 0.36862 13.165 0.36862 12.908C0.36862 10.7485 0.245659 8.9872 0 7.62829L0.949388 6.5C1.14307 7.73621 1.23595 9.21438 1.23595 10.9382C1.23595 11.2063 1.21748 11.8691 1.17288 12.923C1.15045 13.5262 1.13937 13.8872 1.13937 14.0028C1.13937 14.5352 1.22117 14.9448 1.38107 15.239C1.5415 15.5332 1.89139 15.682 2.43521 15.682H3.03841V17.4916ZM4.65063 15.682C5.80108 15.682 6.37816 15.5815 6.37816 15.3767C6.37816 15.3134 6.31113 15.1458 6.17313 14.8777C5.91639 14.4123 5.71163 13.9917 5.55173 13.6154L6.63516 12.2414C7.14891 13.2431 7.40591 14.0252 7.40591 14.5835C7.40591 14.9746 7.28295 15.3841 7.03333 15.816C6.78768 16.2443 6.5531 16.5607 6.32961 16.7654C6.10611 16.9741 5.74884 17.1454 5.25383 17.2831C4.75855 17.4209 4.04374 17.4916 3.10913 17.4916C2.84843 17.4916 2.54287 17.3501 2.19299 17.067C1.8431 16.7842 1.54863 16.3224 1.30693 15.682H4.65063ZM4.89259 18.5415L6.46761 19.3458L5.60741 20.9767L3.9878 20.083L4.89259 18.5415Z" fill="#C43025"/>
<path fill-rule="evenodd" clip-rule="evenodd" d="M25.9477 51.0838C26.2793 51.6902 28.7947 53.6992 29.5313 54C30.4824 53.5051 32.6414 51.6964 33.0253 51.0838L29.5485 48.2093C28.889 48.4664 26.3406 50.5265 25.9477 51.0838ZM9.25014 41.5605C9.29136 41.5764 9.35266 41.5729 9.36736 41.6196L10.3166 42.3001C15.2488 46.0708 23.5327 44.6513 30.9387 44.4509C32.6687 44.4043 39.6112 43.1369 41.9369 42.6591C43.0217 42.4357 44.1863 42.1851 45.2159 41.9171C57.5182 38.7131 52.0454 30.7763 50.0735 30C49.3282 30.4465 47.3416 32.8243 47.3143 33.5731C47.2574 35.1099 49.4472 35.7298 49.2444 37.3178C46.2411 38.1653 40.6834 38.8186 37.3786 39.2444C30.5587 40.1232 18.5901 41.4018 12.9646 37.9983C7.70011 34.8132 13.6446 31.7265 12.7255 30.1342C11.8713 30.5029 9.6294 34.3407 9.15657 35.2488C6.75482 39.8626 8.76082 40.5564 9.25014 41.5605V41.5605Z" fill="#211D21"/>
</svg>
