<svg width="68" height="60" viewBox="0 0 68 60" fill="none" xmlns="http://www.w3.org/2000/svg">
<path fill-rule="evenodd" clip-rule="evenodd" d="M58.247 24.5067C59.2229 23.7253 60.0194 23.5534 60.9778 24.461C61.577 25.0287 62.3504 25.9788 62.4475 27.0244C60.212 27.5848 57.8129 27.0673 58.247 24.5067ZM37.1665 18.4914C36.4078 18.8632 35.893 19.0198 35.597 21.2757C35.1474 24.6965 37.6515 28.619 38.0012 31.5268C38.4536 35.279 30.062 36.7426 26.3456 36.5694C25.6267 36.1089 25.4994 35.5145 25.0757 34.9872C24.8632 36.2805 20.8226 44.2126 30.8076 41.966C38.2395 40.2941 37.5787 37.3297 38.9855 35.1815C41.1773 37.604 40.1003 40.1844 46.1414 41.2765C49.8848 41.9527 54.6491 41.6512 58.1459 40.7468C59.9454 40.2819 61.5619 39.7478 63.1601 39.1457C65.3232 38.3308 65.7657 38.0787 66.4344 35.737C68.3541 29.0184 67.1991 25.5167 63.8985 19.9015C63.4625 19.3763 62.6473 18.7329 62.5207 18.4861C58.0047 17.9083 56.1745 24.4059 55.3199 28.2969C54.6953 31.1383 58.27 32.8463 59.1294 33.064C61.4712 33.6576 63.0288 31.1893 63.8738 29.7553C64.1185 29.9815 63.9864 29.7953 64.2347 30.2129L65.1573 33.3072C59.3801 35.3866 52.2334 37.0865 45.8004 35.2551C42.8105 34.4041 41.866 32.6946 40.4079 29.103C38.939 25.4847 38.5129 21.8887 37.1665 18.4914Z" fill="#211D21"/>
<path fill-rule="evenodd" clip-rule="evenodd" d="M15.3815 23.1803L14.515 28.2496C15.9831 29.1192 18.6277 31.4001 19.1349 33.59C19.5857 35.5343 16.2397 38.2025 14.9292 39.2367C10.6578 42.6078 6.88292 43.8682 0 44.1786C3.51984 47.7022 13.7499 46.767 17.8614 42.2193C21.5527 38.1357 22.5513 32.4101 20.1455 27.6026C19.4027 26.1184 17.7532 23.3709 15.3815 23.1803Z" fill="#211D21"/>
<path fill-rule="evenodd" clip-rule="evenodd" d="M64.4604 10.2307L63.9333 10.0256C63.1901 10.2773 60.7815 12.6711 60.4258 13.2574C60.8487 14.2431 61.2287 14.3228 62.0005 14.9282C62.8595 15.6023 62.9748 16.0441 63.9313 16.5568C64.8702 16.1842 66.4374 14.4268 67.2733 13.5479C66.992 12.4716 65.4026 11.1772 64.4604 10.2307Z" fill="#211D21"/>
<path fill-rule="evenodd" clip-rule="evenodd" d="M57.0168 10.5224C56.5541 10.0696 56.7905 10.3314 56.21 10.0162L52.9316 13.189C53.4047 14.2888 55.1628 15.8588 56.208 16.6021C57.3053 16.2068 58.8585 14.3224 59.6598 13.6094C59.1943 12.2919 57.8058 11.5255 57.0168 10.5224Z" fill="#211D21"/>
<path fill-rule="evenodd" clip-rule="evenodd" d="M61.3951 5.41915C62.225 5.15451 64.2577 4.5079 63.9243 2.90918C62.3655 3.3037 57.4706 4.91699 54.0924 6.14668C52.6291 6.67919 52.6578 7.63251 52.5527 8.30988C55.6871 7.31487 58.2783 6.41172 61.3951 5.41915Z" fill="#211D21"/>
<path fill-rule="evenodd" clip-rule="evenodd" d="M35.7668 9.96323L35.2607 10.8381C35.174 11.2119 35.2046 12.9539 34.1834 13.0328C32.7662 12.6516 33.0968 11.3394 32.2609 10.4375C32.0154 11.9269 31.5149 14.2702 32.7192 15.0358C34.1782 15.9644 35.6351 14.2152 36.1126 13.5621C39.2313 14.3811 40.1981 13.1918 39.3682 9.73866L38.6453 8.90106C38.152 11.7667 36.6457 13.6159 35.7668 9.96323Z" fill="#211D21"/>
<path fill-rule="evenodd" clip-rule="evenodd" d="M38.7633 6.35585C39.5928 6.09122 41.6251 5.44461 41.292 3.84589C39.7332 4.24041 34.8384 5.8537 31.4602 7.08339C29.9965 7.61589 30.0251 8.56922 29.9209 9.24658C33.0544 8.25158 35.6457 7.34843 38.7633 6.35585Z" fill="#211D21"/>
<path fill-rule="evenodd" clip-rule="evenodd" d="M14.9498 7.03768C15.7789 6.77304 17.8116 6.12643 17.479 4.52771C15.9201 4.92223 11.0245 6.53552 7.64633 7.76521C6.18301 8.29772 6.21166 9.25104 6.10742 9.92841C9.24094 8.9334 11.8322 8.03025 14.9498 7.03768Z" fill="#211D21"/>
</svg>
