<svg width="76" height="60" viewBox="0 0 76 60" fill="none" xmlns="http://www.w3.org/2000/svg">
<path fill-rule="evenodd" clip-rule="evenodd" d="M37.0741 37.5724C37.8069 35.8219 43.3845 33.206 45.1367 32.8159C48.1461 32.1454 51.3504 33.1983 53.9595 34.6699C54.2925 34.8573 54.1736 34.7671 54.5034 35.0159C54.8551 35.281 54.772 35.2292 55.0147 35.4768C54.6753 35.7447 55.169 35.6047 54.1752 35.9284C53.882 36.0239 53.5438 36.0574 53.2084 36.1036C52.4728 36.2043 51.7574 36.2885 50.9593 36.4131C46.5105 37.1099 41.503 37.7553 37.0741 37.5724ZM32.8186 9.40277C32.6674 9.72608 32.5521 10.0789 32.5039 10.4759C32.3623 11.6376 33.3537 14.224 33.6398 15.4606C34.4248 18.8567 34.7988 22.4863 35.1334 26.1612C35.4115 29.2171 36.3993 34.381 34.2036 36.5527C32.0782 38.6548 27.3242 36.7866 25.1674 35.4808C23.5219 35.1503 25.1611 40.1908 25.4376 42.0137C26.0308 41.9437 29.9815 42.8849 33.1468 42.9577C38.6711 43.0848 46.2646 41.1182 49.1638 42.4657C53.1809 44.3331 63.3124 42.995 67.7103 41.6062C68.5247 41.3493 69.1441 40.8403 70.2577 39.4685C72.5701 36.6187 73.5902 33.2096 72.2108 29.8289C71.7756 28.7626 71.3531 27.4917 70.3031 26.9519C69.5623 27.4468 67.8284 29.9159 67.4763 31.1132C68.2673 32.0847 69.7565 34.1949 69.1266 36.9315C67.3124 37.5433 58.7501 38.8219 56.803 38.7515C57.6035 36.8404 60.0515 35.0891 59.7627 31.986C57.7535 29.5408 51.6042 26.4222 46.8674 27.8842C42.2295 29.3154 38.9476 33.6114 37.0725 34.1014C37.7329 29.0584 37.7003 31.8351 37.1628 21.7968C37.0419 19.5304 36.7705 17.5684 36.5509 15.4112C36.1606 11.5894 37.2181 12.1288 38.062 9.58486C37.0546 8.35152 35.7329 7.60173 35.2229 5.78046C34.0802 6.15556 33.3358 8.29649 32.8186 9.40277Z" fill="#211D21"/>
<path fill-rule="evenodd" clip-rule="evenodd" d="M2.78211 45.9314C2.51714 43.4874 4.26136 41.3893 4.97312 39.6737C3.79547 40.4356 0.855287 45.1508 0.559282 47.4144C-0.00647038 51.7408 2.21875 54.1856 4.92776 55.4214C8.96919 57.2649 17.0135 54.9924 19.9469 53.1655C24.3424 50.4269 24.0631 46.5432 25.4377 42.0137C25.1612 40.1912 23.522 35.1502 25.1675 35.4808C24.0603 33.8109 23.6549 32.1879 22.7275 31.3074C22.2735 32.1466 20.5222 35.2429 20.7386 36.1258C21.0032 37.2042 23.8514 43.633 23.0804 45.8946C22.9646 46.2332 22.7402 46.5602 22.3531 46.9082C17.7017 51.0909 3.64785 53.9161 2.78211 45.9314Z" fill="#C43025"/>
<path fill-rule="evenodd" clip-rule="evenodd" d="M12.4854 28.6445C12.8776 29.3874 15.3181 31.9726 16.0517 32.3599C17.079 31.445 18.8399 30.0943 19.4009 29.0766C19.0667 28.1103 16.7914 26.2822 15.9734 25.6214C14.6752 26.3975 13.7645 27.7474 12.4854 28.6445Z" fill="#C43025"/>
<path fill-rule="evenodd" clip-rule="evenodd" d="M59.1797 53.5612C59.6519 54.4566 61.7526 56.3944 62.3776 56.8055C63.4013 56.475 65.1857 54.6096 65.6818 53.5612C65.2155 52.6338 63.3353 50.6717 62.3776 50.3229C61.3253 51.0379 59.8071 52.4699 59.1797 53.5612Z" fill="#211D21"/>
<path fill-rule="evenodd" clip-rule="evenodd" d="M66.3672 53.5612C66.8394 54.4566 68.9401 56.3944 69.5652 56.8055C70.5897 56.475 72.3733 54.6096 72.8694 53.5612C72.4039 52.6338 70.5228 50.6717 69.5652 50.3229C68.5136 51.0379 66.9954 52.4699 66.3672 53.5612Z" fill="#211D21"/>
<path fill-rule="evenodd" clip-rule="evenodd" d="M47.9297 20.0375C48.4015 20.9329 50.5022 22.8707 51.1277 23.2819C52.1517 22.9513 53.9353 21.0859 54.4315 20.0375C53.966 19.11 52.0853 17.1479 51.1277 16.7991C50.0757 17.5141 48.5575 18.9461 47.9297 20.0375Z" fill="#211D21"/>
<path fill-rule="evenodd" clip-rule="evenodd" d="M72.0767 10.7575C72.9059 10.4928 74.9385 9.84622 74.6059 8.2475C73.0471 8.64202 68.1515 10.2553 64.7733 11.485C63.31 12.0175 63.3386 12.9708 63.2344 13.6482C66.3679 12.6532 68.9591 11.75 72.0767 10.7575Z" fill="#211D21"/>
<path fill-rule="evenodd" clip-rule="evenodd" d="M16.7092 17.99L16.2031 18.8648C16.1164 19.2387 16.147 20.9806 15.1257 21.0595C13.7086 20.6784 14.0392 19.3661 13.2033 18.4642C12.9578 19.9537 12.4573 22.2969 13.6616 23.0625C15.1206 23.9911 16.5775 22.2419 17.0545 21.5888C20.1737 22.4078 21.1405 21.2186 20.3106 17.7654L19.5877 16.9278C19.0943 19.7934 17.5881 21.6426 16.7092 17.99Z" fill="#C43025"/>
<path fill-rule="evenodd" clip-rule="evenodd" d="M48.1223 8.74523C48.8189 8.20989 49.8307 8.55423 50.0706 10.7126C49.0549 10.5147 48.2381 9.43149 48.1223 8.74523ZM47.3739 7.70975C46.7855 8.82494 46.1672 9.6419 46.0423 11.1411C46.7469 12.2203 47.3369 12.546 48.0682 13.106C47.5904 14.5809 42.0824 18.48 40.5996 19.2189C41.7084 19.5867 42.4815 19.2541 43.6945 18.6107C44.9872 17.9253 48.7831 15.0042 49.7814 13.9169C50.0081 14.046 50.9037 14.0622 51.8271 13.5661C50.9272 12.6775 50.7967 11.1358 50.8265 11.1302C50.8035 10.8065 51.1743 10.0854 51.3147 9.66659C51.9811 7.68346 53.0179 3.14948 49.1651 5.82091C48.4016 6.34977 47.9317 6.91788 47.3739 7.70975Z" fill="#211D21"/>
<path fill-rule="evenodd" clip-rule="evenodd" d="M15.424 8.74523C16.1207 8.20989 17.1324 8.55423 17.3727 10.7126C16.3566 10.5147 15.5398 9.43149 15.424 8.74523ZM14.6757 7.70975C14.0868 8.82494 13.469 9.6419 13.344 11.1411C14.0482 12.2203 14.6387 12.546 15.3699 13.106C14.8921 14.5809 9.38458 18.48 7.90137 19.2189C9.0098 19.5867 9.78322 19.2541 10.9967 18.6107C12.2889 17.9253 16.0853 15.0042 17.0831 13.9169C17.3099 14.046 18.2055 14.0622 19.1289 13.5661C18.2293 12.6775 18.0984 11.1358 18.1283 11.1302C18.1048 10.8065 18.4756 10.0854 18.6164 9.66659C19.2832 7.68346 20.3201 3.14948 16.4664 5.82091C15.7033 6.34977 15.2335 6.91788 14.6757 7.70975Z" fill="#C43025"/>
</svg>
