<svg width="60" height="60" viewBox="0 0 60 60" fill="none" xmlns="http://www.w3.org/2000/svg">
<path fill-rule="evenodd" clip-rule="evenodd" d="M34.8901 16.13C32.2085 18.0666 28.2666 23.7129 32.752 27.4525C35.5143 26.7416 41.5633 35.2543 41.88 37.7279C39.6679 38.0965 38.0936 38.7092 35.7518 38.8941C31.7215 39.2113 31.1693 38.3802 29.5743 37.25C27.2564 43.1484 30.4353 42.9724 31.5282 44.0674C30.8335 46.4596 27.2779 49.447 25.5814 50.6111C21.6772 53.2894 19.3084 53.3825 14.9229 54.125C17.4484 56.4594 25.4024 55.445 28.0032 53.6423C32.9975 50.1818 32.3382 46.269 34.485 44.194C37.5354 43.4317 41.7384 43.1994 43.1448 41.9709C44.7971 39.917 44.6722 35.5 43.8096 32.9568C43.0688 30.775 41.097 27.8038 39.6174 26.1609C38.7143 25.1582 37.8895 24.3279 36.8611 23.4373C35.7252 22.4541 34.641 21.7565 34.2276 20.7404L47.7902 15.0261C59.9769 10.2146 56.1026 12.2038 59.2425 7.11992C58.9656 6.6643 37.3644 14.3431 34.8901 16.13Z" fill="#35388A"/>
<path fill-rule="evenodd" clip-rule="evenodd" d="M8.71732 40.2852C8.69344 38.4923 9.73782 37.5754 10.2125 36.0912C12.8101 36.2526 15.0616 37.4414 16.3108 38.8305C15.1411 41.0107 11.3034 41.786 8.71732 40.2852ZM6.35687 45.1538C8.46989 48.4917 14.3072 45.2279 16.3232 43.2269C18.1016 41.4603 18.5078 40.3516 19.3524 37.5584C20.2834 34.4811 19.5804 33.5601 17.1909 32.377C15.9862 31.7806 11.9961 30.4416 10.4882 30.336L8.46749 34.7579C8.64971 34.8748 8.83868 34.9748 9.21743 35.7201C7.591 38.0439 4.44835 42.1393 6.35687 45.1538Z" fill="#35388A"/>
<path fill-rule="evenodd" clip-rule="evenodd" d="M6.15527 20.7991C6.7262 22.0749 8.31446 24.0293 9.71372 24.3632C10.8599 23.4135 12.0002 22.3958 12.8548 21.0844C12.5282 20.5223 10.3025 18.1337 9.42765 17.7918C8.03037 18.5404 7.0421 19.7648 6.15527 20.7991Z" fill="#35388A"/>
<path fill-rule="evenodd" clip-rule="evenodd" d="M26.0998 26.7173L25.5942 27.5922C25.5074 27.966 25.5377 29.708 24.5164 29.7869C23.0992 29.4057 23.4294 28.0935 22.5939 27.1916C22.3484 28.681 21.8479 31.0243 23.0523 31.7898C24.5112 32.7185 25.9678 30.9692 26.4456 30.3162C29.5644 31.1351 30.5312 29.9459 29.7012 26.4928L28.9783 25.6552C28.4846 28.5208 26.9783 30.37 26.0998 26.7173Z" fill="#35388A"/>
<path fill-rule="evenodd" clip-rule="evenodd" d="M29.8873 17.8821C30.7172 17.6175 32.7499 16.9709 32.4165 15.3721C30.8577 15.7667 25.9628 17.3799 22.5846 18.6096C21.1213 19.1421 21.1496 20.0955 21.0449 20.7728C24.1792 19.7778 26.7701 18.8747 29.8873 17.8821Z" fill="#35388A"/>
<path fill-rule="evenodd" clip-rule="evenodd" d="M46.2027 7.44363C47.0326 7.179 49.0653 6.53237 48.7319 4.93365C47.1731 5.32818 42.2782 6.94147 38.9 8.17116C37.4367 8.70367 37.4654 9.65699 37.3604 10.3344C40.4947 9.33935 43.0859 8.4362 46.2027 7.44363Z" fill="#35388A"/>
<path fill-rule="evenodd" clip-rule="evenodd" d="M13.3262 20.7991C13.8979 22.0749 15.4857 24.0293 16.8846 24.3632C18.0308 23.4135 19.1719 22.3958 20.0265 21.0844C19.6998 20.5223 17.4742 18.1337 16.5985 17.7918C15.2013 18.5404 14.2138 19.7648 13.3262 20.7991Z" fill="#35388A"/>
<path fill-rule="evenodd" clip-rule="evenodd" d="M10.1986 12.9641C8.70782 15.4457 3.2365 18.3057 0.852539 20.5721C2.3083 20.4224 5.77283 18.3272 6.52677 17.7352C8.29206 16.3493 9.64038 15.152 11.05 13.4569L12.8161 13.8013L13.726 11.9258C13.2891 11.0692 12.8805 11.174 13.3186 9.8504C13.5975 9.00795 14.0291 8.72429 13.7471 7.50633C12.9271 3.95927 8.28449 7.82478 7.94313 10.0167C7.69367 11.6158 9.2883 12.2361 10.1986 12.9641ZM7.69369 13.0725C6.42532 12.5611 4.90472 12.0383 5.66462 9.90422C6.32347 8.05584 9.23099 4.9304 11.8385 4.56259C14.386 4.20287 13.6357 6.17225 14.9255 7.25142C18.2683 5.71501 15.2287 -2.39273 7.45773 6.04963C5.91723 7.72362 4.61071 9.45791 3.84085 11.8238C3.45812 13.0009 3.55438 14.0372 4.92579 14.6676C6.40502 15.3466 7.38018 14.2342 7.69369 13.0725ZM10.1369 9.66022C9.89623 9.97179 11.3094 10.7434 11.683 10.5788C12.1497 9.45912 11.4467 7.96397 10.1369 9.66022Z" fill="#35388A"/>
</svg>
