<svg width="127" height="62" viewBox="0 0 127 62" fill="none" xmlns="http://www.w3.org/2000/svg">
<path fill-rule="evenodd" clip-rule="evenodd" d="M10.52 38.21C10.668 37.7572 15.7689 34.4165 16.4282 34.2203C18.9204 39.4874 14.3689 38.3508 10.52 38.21ZM70.185 19.3883C70.8303 20.4614 73.7279 36.3296 73.5242 38.3783C71.2321 39.3964 67.8734 39.1168 65.3948 38.492L65.5575 35.8651C64.58 36.3074 63.7504 38.1084 60.1797 38.9181C49.1077 41.4289 48.4632 35.2056 46.5702 27.1751C45.383 28.0297 44.7285 31.0912 44.7822 32.5609C44.8666 34.8204 46.0184 35.2561 45.8358 38.3261C44.3629 39.0504 42.3127 40.0766 40.3616 39.3616C37.5416 38.3277 37.6813 37.2794 37.4402 36.1484L37.3109 35.6713C36.5995 36.3139 35.9184 36.9827 35.0698 37.5496C32.4288 39.311 29.3458 40.0989 26.1566 40.1175C18.1485 40.164 19.0019 31.9693 18.7696 25.4635C18.2189 25.8823 18.3132 25.2968 17.792 26.3687C16.5491 28.9228 18.0483 30.9989 15.1729 32.1214C12.6867 33.0917 9.47763 35.28 7.73502 37.3878C6.81358 38.5022 4.53983 41.087 5.17044 42.2111C5.93631 43.5755 12.2885 43.9506 15.3794 42.2604C16.2527 41.7834 17.0588 40.7333 17.8581 40.5249C19.6285 44.3953 21.2745 46.0907 26.6977 45.521C32.7538 44.8849 34.8155 41.7854 36.5784 40.9053C37.552 42.6541 38.9703 44.3682 41.6081 44.5365C44.6903 44.734 45.7578 42.7844 47.0369 41.0607C48.0781 41.5871 48.7894 43.1195 50.1549 43.9296C52.9403 45.5805 57.4667 44.8995 60.4005 43.8397C62.0862 43.2308 62.9134 42.2669 64.2012 41.5652C65.3964 42.0451 72.3362 46.0041 74.2809 42.5093C74.7639 41.6421 75.2907 39.9852 75.2203 38.8295C76.3832 33.5243 73.8691 26.6799 73.5739 22.3672C73.3738 19.4466 74.9752 20.1559 75.3671 18.0137C75.2851 16.8338 73.6857 16.6007 73.0527 15.1432L72.4973 13.6687C71.5238 14.7738 70.1826 17.5597 70.185 19.3883Z" fill="#211D21"/>
<path fill-rule="evenodd" clip-rule="evenodd" d="M121.127 36.0982C122.05 36.267 122.259 36.8767 123.302 38.4957C123.884 39.3984 124.455 40.3125 124.502 41.4961C122.55 41.6761 121.431 41 120.005 40.3089L121.127 36.0982ZM113.136 38.0874C113.365 35.8255 116.375 33.7242 117.921 36.1164C119.879 39.146 114.904 39.4409 113.136 38.0874ZM93.2213 40.55C89.0012 44.3399 92.4236 56.8064 94.2374 59.4673C96.4479 56.5082 92.8282 49.0442 93.1031 45.3604C94.0409 44.3293 95.6916 43.6026 97.3037 43.4367C98.4185 46.026 97.6407 45.6982 99.5937 47.7676C100.663 48.9018 101.877 49.9348 104.065 50.0983L105.496 47.2387C112.696 46.8669 111.452 45.7784 115.198 45.0694C118.278 44.4864 120.881 48.3919 124.392 47.1784C126.551 46.4331 126.971 40.3922 126.723 37.8491C126.366 34.1891 121.555 27.0084 118.285 25.2717C117.141 24.6643 116.16 24.1173 115.666 24.4167C114.883 24.8909 114.296 30.6562 114.437 31.9782C110.678 34.9118 111.081 40.6156 109.555 41.4698C105.273 42.8136 101.488 39.8723 99.3869 37.8353C97.7131 38.0247 94.414 39.4798 93.2213 40.55Z" fill="#211D21"/>
<path fill-rule="evenodd" clip-rule="evenodd" d="M83.8834 40.5941L84.0966 44.9784C84.9317 44.1185 84.8211 42.6214 85.2178 41.577C85.6224 33.409 85.2472 29.1898 83.7839 21.3229C83.6176 20.429 83.4382 19.4005 83.2882 18.3148C83.2214 17.8333 83.17 17.253 83.1 16.8702C83.0853 16.7889 82.9568 16.2366 82.9448 16.2062C82.5382 15.1732 83.02 15.9327 82.3974 15.2979C80.175 19.8468 80.9516 20.2506 82.1308 27.2027C82.8959 31.7116 83.3025 35.8388 83.8834 40.5941Z" fill="#221F22"/>
<path fill-rule="evenodd" clip-rule="evenodd" d="M33.5913 30.8307C34.504 30.1816 36.4249 28.4732 36.8068 27.3232C36.0322 26.2433 34.3548 24.3399 33.131 24.1238C32.3297 24.6243 30.7876 26.1235 29.9326 27.6421C30.8218 28.7213 32.3611 30.212 33.5913 30.8307Z" fill="#211D21"/>
<path fill-rule="evenodd" clip-rule="evenodd" d="M43.2656 52.0514C43.7275 52.8744 45.607 55.0882 46.7509 55.4568C47.8923 54.512 49.5291 52.8457 49.9067 52.0514C49.3918 51.0471 47.8092 49.6057 46.7509 48.6427C45.7152 48.9502 43.6575 51.2429 43.2656 52.0514Z" fill="#211D21"/>
<path fill-rule="evenodd" clip-rule="evenodd" d="M35.876 52.0514C36.2854 52.808 38.145 54.8603 39.0262 55.3827C40.0742 55.0699 40.0925 54.7774 40.8818 53.9365C41.6027 53.1685 42.0288 52.9585 42.5138 52.0514C42.0881 51.145 40.0865 49.0874 39.0262 48.7297C38.0582 49.3055 36.3745 51.0584 35.876 52.0514Z" fill="#211D21"/>
<path fill-rule="evenodd" clip-rule="evenodd" d="M60.7236 52.0514C61.131 52.8898 63.0177 54.7823 63.9148 55.3792C64.9182 54.9239 66.8049 52.8591 67.3086 52.0514C66.8451 51.1414 64.9596 49.2262 63.9148 48.7168C63.1008 49.314 61.2408 51.0742 60.7236 52.0514Z" fill="#211D21"/>
<path fill-rule="evenodd" clip-rule="evenodd" d="M9.2761 17.5913C8.39405 18.0061 6.27586 20.1255 5.80957 20.9231C6.3984 21.719 8.39683 23.8405 9.2761 24.2374C10.2556 23.5848 12.0531 21.6518 12.6479 20.8749C11.6147 19.8192 10.143 18.6575 9.2761 17.5913Z" fill="#211D21"/>
<path fill-rule="evenodd" clip-rule="evenodd" d="M14.1448 19.9095L13.293 20.9231L16.7141 24.2351C17.4219 23.7965 17.4573 23.6791 17.9543 23.1551L20.08 20.981C19.4649 20.1341 17.8293 18.4771 16.7141 17.5214L14.1448 19.9095Z" fill="#211D21"/>
<path fill-rule="evenodd" clip-rule="evenodd" d="M69.9219 10.0983C71.3152 9.82715 72.79 9.51717 73.902 10.4499C73.1616 11.7665 72.3261 10.8488 71.6466 12.4767C74.2128 12.4811 76.9429 10.3269 76.8486 7.93262C75.9594 7.65828 73.6848 7.20792 72.4658 7.27671C71.493 7.33214 70.0699 8.7411 69.9219 10.0983Z" fill="#221F22"/>
<path fill-rule="evenodd" clip-rule="evenodd" d="M46.3625 15.7765L45.8565 16.6513C45.7697 17.0252 45.8004 18.7672 44.7791 18.8461C43.3619 18.4649 43.6925 17.1527 42.8566 16.2508C42.6111 17.7402 42.1106 20.0835 43.3149 20.8491C44.7739 21.7777 46.2308 20.0284 46.7083 19.3754C49.8271 20.1944 50.7939 19.0051 49.9639 15.5519L49.241 14.7144C48.7477 17.58 47.2414 19.4292 46.3625 15.7765Z" fill="#2B2A29"/>
<path fill-rule="evenodd" clip-rule="evenodd" d="M63.9527 20.8721C64.7822 20.6074 66.8145 19.9608 66.4815 18.3621C64.9227 18.7566 60.0278 20.3699 56.6497 21.5996C55.1859 22.1321 55.2146 23.0854 55.1104 23.7628C58.2439 22.7678 60.8351 21.8647 63.9527 20.8721Z" fill="#242123"/>
<path fill-rule="evenodd" clip-rule="evenodd" d="M34.8726 15.6531C35.7022 15.3885 37.7348 14.7419 37.4014 13.1432C35.8426 13.5377 30.9478 15.151 27.5696 16.3807C26.1063 16.9132 26.1345 17.8665 26.0303 18.5438C29.1638 17.5488 31.755 16.6457 34.8726 15.6531Z" fill="#242123"/>
<path fill-rule="evenodd" clip-rule="evenodd" d="M47.3726 58.4774C48.2022 58.2128 50.2352 57.5662 49.9018 55.9674C48.3434 56.3619 43.4478 57.9752 40.0696 59.2049C38.6067 59.7375 38.6353 60.6908 38.5303 61.3682C41.6646 60.3731 44.2558 59.47 47.3726 58.4774Z" fill="#242123"/>
<path fill-rule="evenodd" clip-rule="evenodd" d="M87.4687 9.79543C87.3084 8.36263 84.4008 10.7569 84.0969 11.0826C84.2441 11.104 86.4379 10.8629 87.4687 9.79543ZM77.8672 13.3279C79.3301 12.0755 79.4196 11.6248 81.1177 11.8344C81.6488 11.8999 81.9958 12.0849 82.326 12.2686C82.4704 12.3479 82.4298 12.8784 82.4 13.2644C82.6725 12.7076 82.9156 12.6178 83.0891 12.6558C83.4471 12.7351 84.0392 12.7408 84.6793 12.5991C86.8083 12.1273 89.2308 10.7997 89.5825 8.76038C87.15 5.41446 84.3117 10.4149 83.2112 10.9341C82.6459 10.8531 81.5203 10.417 81.2744 10.122C80.197 11.3128 78.7055 11.1392 77.8672 13.3279Z" fill="#2B2A29"/>
<path fill-rule="evenodd" clip-rule="evenodd" d="M119.59 11.9668C120.287 11.4315 121.298 11.7758 121.538 13.9342C120.523 13.7363 119.706 12.6531 119.59 11.9668ZM118.842 10.9313C118.253 12.0465 117.635 12.8635 117.51 14.3627C118.215 15.4418 118.805 15.7675 119.536 16.3276C119.058 17.8025 113.55 21.7016 112.067 22.4404C113.176 22.8083 113.949 22.4756 115.162 21.8323C116.455 21.1468 120.251 18.2257 121.249 17.1385C121.476 17.2675 122.371 17.2837 123.295 16.7876C122.395 15.8991 122.264 14.3574 122.294 14.3518C122.271 14.028 122.642 13.3069 122.782 12.8881C123.449 10.905 124.486 6.37104 120.633 9.04246C119.869 9.57132 119.399 10.1395 118.842 10.9313Z" fill="#221F22"/>
<path fill-rule="evenodd" clip-rule="evenodd" d="M99.0295 20.7846C99.7261 20.2493 100.738 20.5936 100.978 22.752C99.9621 22.5541 99.1453 21.4709 99.0295 20.7846ZM98.2811 19.7492C97.6923 20.8643 97.074 21.6813 96.9495 23.1805C97.6537 24.2596 98.2441 24.5854 98.9754 25.1454C98.4976 26.6203 92.99 30.5193 91.5068 31.2582C92.6153 31.626 93.3887 31.2934 94.6022 30.65C95.8944 29.9646 99.6907 27.0435 100.689 25.9562C100.915 26.0853 101.811 26.1015 102.734 25.6054C101.835 24.7168 101.704 23.1752 101.734 23.1695C101.71 22.8458 102.081 22.1248 102.222 21.706C102.889 19.7229 103.926 15.1889 100.072 17.8603C99.3088 18.3892 98.8393 18.9573 98.2811 19.7492Z" fill="#221F22"/>
<path fill-rule="evenodd" clip-rule="evenodd" d="M7.52306 10.1496C8.21931 9.61429 9.23146 9.95865 9.47176 12.117C8.45524 11.9191 7.63884 10.8359 7.52306 10.1496ZM6.7747 9.11417C6.18587 10.2293 5.5676 11.0463 5.44267 12.5455C6.14728 13.6247 6.7373 13.9504 7.46856 14.5104C6.99153 15.9853 1.48361 19.8844 0 20.6233C1.10883 20.9911 1.88186 20.6585 3.09572 20.0151C4.38796 19.3297 8.1843 16.4086 9.18173 15.3213C9.4089 15.4504 10.3045 15.4666 11.2279 14.9705C10.3284 14.0819 10.1971 12.5403 10.2277 12.5346C10.2038 12.2109 10.5746 11.4898 10.7159 11.071C11.3823 9.08788 12.4191 4.5539 8.56545 7.22533C7.80236 7.75419 7.33289 8.32229 6.7747 9.11417Z" fill="#221F22"/>
</svg>
