<svg width="55" height="60" viewBox="0 0 55 60" fill="none" xmlns="http://www.w3.org/2000/svg">
<path fill-rule="evenodd" clip-rule="evenodd" d="M37.4203 37.4116C38.0064 38.8372 37.5206 37.463 37.441 38.0873C35.6924 38.5142 33.7744 38.2185 33.2842 36.6978C33.8738 35.7275 34.5816 35.5078 35.852 36.067C36.3127 36.2697 37.192 36.8577 37.4203 37.4116ZM51.9914 35.4564C52.1522 34.2215 52.176 32.8534 52.1215 32.0328C52.0515 30.2394 50.5787 23.713 48.6534 23.0753C47.8143 24.3184 45.6651 28.0714 46.8038 29.0478C48.5388 31.4861 50.4848 34.3258 49.7225 35.4438C48.5213 36.4546 45.0206 37.4678 42.9541 37.4618C41.6058 35.488 40.5769 32.861 38.7551 31.3655C32.5931 26.3071 29.8877 40.395 30.728 41.8594C32.2116 44.4475 36.3994 43.5653 39.3555 43.8652C39.1383 45.6747 34.7376 49.1299 32.9142 50.0472C28.8959 52.07 26.7124 51.8349 21.8271 52.1638C23.7078 53.2414 28.3934 55.006 31.2396 54.8389C35.6515 54.5799 39.2584 49.7377 41.1017 46.435C41.8135 45.1604 42.1154 43.3537 43.5195 42.788C45.6747 41.9197 47.8939 41.876 49.4483 40.8077C50.8862 39.8192 51.7678 37.1745 51.9914 35.4564Z" fill="#35388A"/>
<path fill-rule="evenodd" clip-rule="evenodd" d="M4.53969 43.195C6.51664 45.1162 10.5083 44.0573 12.7678 42.9636C17.2118 40.8133 17.1617 34.6434 15.7397 30.9466C15.2428 29.6526 14.5764 28.17 13.3339 27.5509C12.9826 28.5775 11.5229 31.3934 11.8236 32.5126C12.1113 33.5849 13.8794 35.2957 13.9717 37.2796C11.9728 38.4701 7.6362 39.8782 5.95287 37.6814C4.30575 35.5332 3.1818 18.6732 2.62839 14.2967C2.55399 13.7172 2.09088 9.46243 1.92577 9.27063C0.22573 11.6349 -0.143481 13.886 0.0443075 16.4077C0.396013 21.1496 3.13844 41.8326 4.53969 43.195Z" fill="#35388A"/>
<path fill-rule="evenodd" clip-rule="evenodd" d="M23.9491 42.6677C27.0408 40.524 25.3559 29.1662 24.9493 26.5398C24.5845 24.1815 22.8287 12.2715 21.7859 11.1426L20.2236 14.1498C19.2544 16.1738 21.2512 22.077 21.9188 25.8009C22.8904 31.2182 23.7545 37.0239 23.9491 42.6677Z" fill="#35388A"/>
<path fill-rule="evenodd" clip-rule="evenodd" d="M47.791 16.9151C48.0325 17.3205 50.4165 19.718 51.2508 20.1979C52.1412 19.7892 54.0453 17.7247 54.6234 16.9151C54.1921 15.9792 52.0891 14.0551 51.2508 13.6715C50.4531 14.0786 48.1161 16.2907 47.791 16.9151Z" fill="#35388A"/>
<path fill-rule="evenodd" clip-rule="evenodd" d="M40.3291 16.9151L43.4288 20.329C44.4561 19.9183 46.6654 17.4787 46.951 16.9151L44.5949 14.3728C43.9158 13.7638 44.3057 13.9883 43.5267 13.6278C42.5937 14.1287 40.7846 16.1034 40.3291 16.9151Z" fill="#35388A"/>
<path fill-rule="evenodd" clip-rule="evenodd" d="M33.1712 19.7602L32.6651 20.635C32.5784 21.0089 32.6082 22.7509 31.5877 22.8298C30.1706 22.4487 30.5004 21.1364 29.6653 20.2344C29.4198 21.7239 28.9193 24.0672 30.1228 24.8328C31.5826 25.7615 33.0387 24.0122 33.5166 23.3591C36.6357 24.1781 37.6025 22.9888 36.7726 19.5356L36.0489 18.698C35.5556 21.5637 34.0493 23.4129 33.1712 19.7602Z" fill="#35388A"/>
<path fill-rule="evenodd" clip-rule="evenodd" d="M36.3004 13.0602C37.1299 12.7956 39.1629 12.149 38.8295 10.5503C37.2711 10.9448 32.3755 12.5581 28.9973 13.7878C27.5344 14.3203 27.563 15.2736 27.458 15.9509C30.5923 14.9559 33.1836 14.0528 36.3004 13.0602Z" fill="#35388A"/>
<path fill-rule="evenodd" clip-rule="evenodd" d="M51.3004 8.50991C52.1295 8.24528 54.1622 7.59871 53.8296 6C52.2708 6.39452 47.3751 8.00778 43.9969 9.23746C42.5336 9.76996 42.5622 10.7233 42.458 11.4006C45.5915 10.4056 48.1828 9.50248 51.3004 8.50991Z" fill="#35388A"/>
<path fill-rule="evenodd" clip-rule="evenodd" d="M13.9312 12.7922C14.7608 12.5276 16.7934 11.881 16.4608 10.2822C14.902 10.6768 10.0064 12.2901 6.62818 13.5198C5.16486 14.0523 5.1939 15.0056 5.08887 15.683C8.22319 14.688 10.8144 13.7848 13.9312 12.7922Z" fill="#35388A"/>
<path fill-rule="evenodd" clip-rule="evenodd" d="M13.9312 8.50991C14.7608 8.24528 16.7934 7.59871 16.4608 6C14.902 6.39452 10.0064 8.00778 6.62818 9.23746C5.16486 9.76996 5.1939 10.7233 5.08887 11.4006C8.22319 10.4056 10.8144 9.50248 13.9312 8.50991Z" fill="#35388A"/>
<path fill-rule="evenodd" clip-rule="evenodd" d="M7.63086 49.5017L10.7306 52.9156C11.7578 52.5049 13.9675 50.0654 14.2528 49.5017L11.8967 46.9594C11.2175 46.3504 11.6074 46.575 10.8284 46.2145C9.89546 46.7154 8.0864 48.69 7.63086 49.5017Z" fill="#35388A"/>
</svg>
