<svg width="140" height="60" viewBox="0 0 140 60" fill="none" xmlns="http://www.w3.org/2000/svg">
<path fill-rule="evenodd" clip-rule="evenodd" d="M113.252 31.7805C110.775 33.7653 109.497 34.8944 104.393 36.4422C103.322 36.767 103.5 36.651 102.89 37.5698C102.4 38.3085 101.123 40.0185 100.968 41.0368C103.262 41.2887 108.99 41.1613 109.886 42.985C108.319 44.016 105.574 45.319 103.614 46.1105C95.7089 49.3028 84.3845 47.3553 89.3456 38.3861C90.0887 37.4312 89.9383 37.0958 89.8905 36.3984C87.8105 39.2651 83.1015 43.7141 85.9063 48.0805C89.2809 53.3352 95.0378 52.1401 99.9947 51.0833C105.491 49.9119 114.212 46.1701 113.959 39.658C112.591 37.8834 111.351 37.9677 109.191 37.3183C109.385 36.9857 112.636 34.7466 113.296 34.2891C114.273 32.972 115.456 31.3787 115.505 29.0411C115.673 26.2278 114.958 9.50617 114.674 9C114.522 9.16261 114.355 9.3224 114.228 9.50582L113.166 11.1083C112.607 12.1636 112.474 12.3774 112.482 13.6462L113.252 31.7805Z" fill="#211D21"/>
<path fill-rule="evenodd" clip-rule="evenodd" d="M73.4707 16.6752C74.3805 17.8644 74.4256 18.5217 74.6513 20.2507C74.8948 22.1161 75.3536 23.9124 75.6741 25.7308C76.1629 28.5034 77.6035 35.4091 77.4187 37.2666C76.3172 37.7694 72.9536 38.5381 71.8101 37.8673C71.1386 36.6418 72.0378 36.2804 71.5746 35.1634C70.2075 35.6384 70.8789 39.1028 67.839 37.9699L67.7252 35.6412C66.6024 36.3847 66.6248 37.0872 64.8728 37.7121C63.8948 38.0607 61.6732 38.8265 60.7936 37.9688C60.3621 37.466 60.4675 37.9136 60.5346 36.9074C60.5581 36.5592 60.7082 36.1508 60.7575 35.5818C58.4352 36.4616 56.2969 37.884 53.7891 38.2219C52.9868 38.3907 52.4619 37.7114 51.6596 37.5974C50.6497 38.7799 50.5707 39.6729 50.1284 40.1336C51.1435 41.1558 51.5885 43.2117 50.9335 44.1165C46.1401 50.7327 38.3841 51.176 33.8906 50.2595C39.5577 55.4537 50.1295 53.3618 53.9592 43.1498C54.3686 42.0599 54.1334 42.0535 55.1405 41.7127C56.1332 41.3766 57.9849 40.6858 58.8568 40.5676C59.2561 44.1884 64.1138 43.0543 64.5127 41.9143C69.8331 43.4004 68.4856 41.571 70.2239 41.4122C70.591 41.3787 71.119 41.5379 72.217 41.9057C84.0442 45.8643 77.1461 22.6196 77.0509 19.054C77.0261 18.1293 77.404 17.2424 77.7074 16.2761C78.353 14.2188 77.9467 14.7194 76.5919 13.2553C75.7636 12.3594 76.0771 12.4257 75.9417 11C75.1684 11.2888 73.2716 14.1333 73.4707 16.6752Z" fill="#211D21"/>
<path fill-rule="evenodd" clip-rule="evenodd" d="M31.6368 33.2105C31.7549 33.339 32.4119 34.5122 32.8765 36.7334C30.0212 37.9022 26.1669 38.4904 22.519 38.216C18.2162 37.8921 16.9733 36.8942 14.0239 34.8951C13.3174 36.0909 12.7053 37.7688 12.5162 38.9829C13.7075 39.7958 14.7469 40.6481 15.6558 41.7289C15.4261 42.8296 14.0835 44.7738 13.3548 45.547L11.0975 47.6777C7.35269 50.4225 3.23363 51.5994 0.448242 52.2408C6.69321 53.7178 10.2073 52.8495 12.3623 51.2622C14.8388 49.4369 16.5312 45.5318 17.5136 42.5607C21.6847 42.7836 26.4425 43.7778 31.5945 41.9361C36.4158 40.2121 34.9106 29.1817 33.4108 28C32.3749 28.6763 31.775 31.8341 31.6368 33.2105Z" fill="#211D21"/>
<path fill-rule="evenodd" clip-rule="evenodd" d="M113.562 34.3882C114.176 34.6221 113.687 34.0314 114.061 35.182C114.447 36.3713 114.25 36.2428 115.289 37.7968C117.892 41.6896 123.493 39.819 125.262 36.8436C125.815 37.0272 125.784 36.9497 126.157 37.1981C125.67 36.0656 126.561 34.1263 127.331 33.2264L127.333 31.7662C126.369 32.2717 124.372 35.8277 120.025 35.3573C115.472 34.8647 116.668 30.2136 115.73 29C115.683 31.4 114.521 33.0359 113.562 34.3882Z" fill="#288743"/>
<path fill-rule="evenodd" clip-rule="evenodd" d="M126.797 33.1575C125.958 34.1105 124.987 36.1641 125.517 37.3633C126.506 39.3291 129.782 40.1141 132.547 39.9868C134.622 35.9992 135.461 34.8521 135.133 29C133.055 29.9875 133.067 33.643 132.876 34.8913C130.72 35.7349 127.715 34.8395 126.797 33.1575Z" fill="#211D21"/>
<path fill-rule="evenodd" clip-rule="evenodd" d="M21.1035 49.6202C22.0057 50.1161 22.9355 50.4084 23.8025 50.9527C23.445 52.2496 22.8 51.6754 22.6861 53C24.513 51.8507 25.1573 51.5414 27.3214 50.6993C28.8173 50.1171 30.9538 49.0564 30.9395 47.5858C29.7731 47.9504 28.7497 48.7656 27.3493 48.794C25.8285 48.8251 24.0391 48.288 23.74 47.3215C24.711 47.0656 25.0926 47.4407 26.0092 47.5681C26.4243 46.9635 27.7633 46.2861 27.2678 45.4817C26.7399 44.626 25.0236 45.0876 24.2925 45.5098C23.1071 46.1947 21.1843 47.7572 21.1035 49.6202Z" fill="#211D21"/>
<path fill-rule="evenodd" clip-rule="evenodd" d="M117.497 47.487C118.022 48.2501 118.761 49.7936 120.358 51C121.468 50.6178 123.204 48.1977 123.399 47.487C122.937 46.6642 121.205 44.3472 120.358 44C119.918 44.3503 118.024 46.7221 117.497 47.487Z" fill="#288743"/>
<path fill-rule="evenodd" clip-rule="evenodd" d="M124.376 13.624C123.015 12.5395 119.893 12.8039 119.59 14.929C120.816 14.9165 121.849 14.6868 122.559 15.5536C122.132 16.7647 120.703 16.6024 119.465 17.9116C120.551 18.5028 124.565 16.0242 124.376 13.624Z" fill="#288743"/>
<path fill-rule="evenodd" clip-rule="evenodd" d="M127.334 21.0235L129.7 24C130.233 23.6843 131.999 21.7868 132.252 20.7814C131.639 19.95 130.456 18.3796 129.737 18C128.982 18.5758 127.604 20.3996 127.334 21.0235Z" fill="#211D21"/>
<path fill-rule="evenodd" clip-rule="evenodd" d="M133.235 21.0235L136.074 24C136.714 23.6843 138.834 21.7868 139.137 20.7814C138.402 19.95 136.982 18.3796 136.12 18C135.213 18.5758 133.56 20.3996 133.235 21.0235Z" fill="#211D21"/>
<path fill-rule="evenodd" clip-rule="evenodd" d="M116.271 5.11418C116.986 4.89127 118.736 4.34662 118.449 3C117.107 3.33231 111.895 5.14246 108.987 6.17791C107.727 6.62644 107.752 7.42945 107.661 8C110.36 7.1619 113.588 5.95024 116.271 5.11418Z" fill="#211D21"/>
<path fill-rule="evenodd" clip-rule="evenodd" d="M81.1579 17.7796C82.3904 24.8477 84.4951 31.8572 84.1661 39C84.6593 38.6508 84.7755 38.5865 85.0853 37.6597C87.0963 31.6492 85.3946 25.0461 84.3711 19.0284C83.9387 16.4865 83.8217 14.712 83.5667 12C81.4033 12.6022 80.9222 16.4258 81.1579 17.7796Z" fill="#211D21"/>
<path fill-rule="evenodd" clip-rule="evenodd" d="M87.1984 7.90815C87.0634 6.65405 84.6226 8.74964 84.3667 9.03474C84.4907 9.05352 86.3326 8.84243 87.1984 7.90815ZM79.1367 11C80.365 9.90386 80.4401 9.50933 81.8658 9.69278C82.3117 9.75016 82.603 9.91201 82.8803 10.0728C83.0012 10.1422 82.9675 10.6065 82.9424 10.9444C83.1712 10.4571 83.3753 10.3784 83.521 10.4117C83.8216 10.4812 84.3186 10.4861 84.8561 10.3622C86.6436 9.9492 88.6775 8.78719 88.9728 7.0022C86.9305 4.07362 84.5474 8.45038 83.6235 8.90477C83.1488 8.83394 82.2038 8.45215 81.9974 8.19396C81.0928 9.23626 79.8405 9.08433 79.1367 11Z" fill="#211D21"/>
<path fill-rule="evenodd" clip-rule="evenodd" d="M36.7149 11.3238C34.1834 11.379 32.3823 10.9717 30.9404 14C31.6964 13.6679 32.6595 13.0277 33.8767 12.8377C38.0093 12.1922 48.4825 12.5522 49.629 9C47.723 10.5917 43.1025 11.1852 36.7149 11.3238Z" fill="#C43025"/>
<path fill-rule="evenodd" clip-rule="evenodd" d="M36.9071 19.9937C38.3853 27.3236 40.9116 34.5927 40.5167 42C41.1082 41.6379 41.2481 41.5712 41.6198 40.6101C44.0332 34.3769 41.9911 27.5293 40.7627 21.2887C40.2434 18.6527 40.1034 16.8125 39.797 14C37.2011 14.6245 36.6243 18.5897 36.9071 19.9937Z" fill="#C43025"/>
<path fill-rule="evenodd" clip-rule="evenodd" d="M70.0424 13.1142C70.7567 12.8913 72.5069 12.3466 72.2198 11C70.8776 11.3323 65.6654 13.1425 62.7567 14.1779C61.4971 14.6264 61.5214 15.4294 61.4316 16C64.1297 15.1619 67.3581 13.9502 70.0424 13.1142Z" fill="#211D21"/>
<path fill-rule="evenodd" clip-rule="evenodd" d="M54.3047 23.1142C55.0189 22.8913 56.769 22.3466 56.4826 21C55.1405 21.3323 49.9286 23.1425 47.02 24.1779C45.7605 24.6264 45.7848 25.4294 45.6943 26C48.393 25.1619 51.6212 23.9502 54.3047 23.1142Z" fill="#211D21"/>
<path fill-rule="evenodd" clip-rule="evenodd" d="M65.8289 18.8297L65.377 19.5131C65.2995 19.8052 65.3262 21.1659 64.414 21.2275C63.1477 20.9298 63.4428 19.9047 62.6962 19.2002C62.4769 20.3637 62.0296 22.1941 63.1054 22.7922C64.4097 23.5176 65.7109 22.1511 66.1378 21.641C68.9246 22.2807 69.7888 21.3518 69.0472 18.6543L68.4005 18C67.9597 20.2385 66.6138 21.683 65.8289 18.8297Z" fill="#211D21"/>
<path fill-rule="evenodd" clip-rule="evenodd" d="M29.5707 52.8053C30.3319 52.615 32.1962 52.1499 31.8904 51C30.461 51.2838 26.5978 52.56 23.4997 53.4441C22.158 53.8268 22.1842 54.5128 22.0879 55C24.9626 54.2843 26.712 53.5192 29.5707 52.8053Z" fill="#211D21"/>
<path fill-rule="evenodd" clip-rule="evenodd" d="M21.3825 16.1273C22.0456 15.6801 23.0094 15.9679 23.2377 17.77C22.2701 17.6045 21.493 16.7004 21.3825 16.1273ZM20.6702 15.2627C20.1096 16.1936 19.5204 16.8761 19.4018 18.1275C20.0726 19.0289 20.634 19.3008 21.331 19.7685C20.876 20.9999 15.6315 24.2556 14.2188 24.8725C15.2744 25.1794 16.0111 24.902 17.1666 24.3647C18.3976 23.7923 22.0113 21.3533 22.9618 20.4455C23.1779 20.5529 24.0308 20.5669 24.9104 20.1522C24.0537 19.4106 23.929 18.1231 23.9576 18.1187C23.9355 17.8482 24.2884 17.2462 24.4222 16.8965C25.0567 15.2406 26.0446 11.455 22.3753 13.6853C21.6489 14.1272 21.201 14.6013 20.6702 15.2627Z" fill="#211D21"/>
<path fill-rule="evenodd" clip-rule="evenodd" d="M133.513 6.12735C134.176 5.68007 135.14 5.96795 135.369 7.76999C134.401 7.60447 133.624 6.70039 133.513 6.12735ZM132.801 5.2627C132.24 6.19363 131.651 6.87611 131.533 8.12755C132.203 9.02891 132.765 9.3008 133.462 9.76848C133.007 10.9999 127.762 14.2556 126.35 14.8725C127.405 15.1794 128.142 14.902 129.298 14.3647C130.528 13.7923 134.142 11.3533 135.093 10.4455C135.309 10.5529 136.162 10.5669 137.041 10.1522C136.185 9.41059 136.06 8.12313 136.088 8.11871C136.066 7.84817 136.419 7.24623 136.553 6.89649C137.188 5.2406 138.175 1.45502 134.506 3.68531C133.78 4.12715 133.332 4.60129 132.801 5.2627Z" fill="#211D21"/>
</svg>
