<svg width="54" height="62" viewBox="0 0 54 62" fill="none" xmlns="http://www.w3.org/2000/svg">
<path fill-rule="evenodd" clip-rule="evenodd" d="M24.4615 38.417C25.1955 38.815 27.4495 40.277 28.7805 37.277C29.4455 35.78 30.2405 33.289 29.9135 31.624L29.3765 30.524C28.0785 31.758 28.2305 33.686 26.8555 34.184C25.2395 33.536 26.2925 32.977 25.5945 31.891C24.6705 33.375 24.3025 35.364 21.7305 34.949L21.3095 33.062C19.7775 33.71 19.1595 35.3 16.7715 35.142C15.5025 33.24 14.8185 28.973 11.9795 29.133C9.43253 29.942 7.32552 34.875 7.61152 38.393C9.39452 40.77 11.5975 40.419 14.8145 40.562C14.8985 42.671 15.2055 43.451 11.9125 45.623C10.3965 46.624 7.96652 47.647 5.56452 47.035C3.87252 46.604 1.89151 44.901 1.79551 42.688C1.66551 39.67 3.34551 38.663 3.39851 36.158C2.04951 37.953 0.028506 43.447 0.00150596 45.447C-0.122494 54.587 11.1205 52.861 14.3705 47.083C15.3335 45.371 15.6165 44.79 16.1015 42.499C16.5085 40.57 16.7995 39.297 18.7885 38.596C19.4905 38.928 19.7805 39.434 20.7985 39.497C22.6385 39.612 23.7695 38.941 24.4615 38.417ZM13.0525 36.291C12.4755 36.612 8.69452 34.536 11.8275 33.316C13.1105 32.817 13.0995 35.342 13.0775 36.153L13.0525 36.291Z" fill="#35388A"/>
<path fill-rule="evenodd" clip-rule="evenodd" d="M53.6303 31.459C52.1873 31.591 50.9342 32.7971 49.6912 33.4991C48.5642 34.1351 46.7672 34.915 45.6612 35.205C43.4072 35.797 42.6873 36.019 41.2883 34.541C40.5093 33.719 39.5002 31.941 39.4852 30.579C42.2302 28.109 45.6302 28.145 49.9122 28.186C49.2432 25.297 43.8612 24.696 40.7182 27.044C39.4462 27.994 38.4443 29.581 37.8103 30.696C36.6663 32.712 36.6723 33.673 37.1343 36.087C35.0923 35.101 35.2033 32.1721 35.0983 30.701C34.9463 28.5441 33.8843 11.218 33.4823 9.85403L33.1413 9.17004C30.7133 14.036 31.7312 16.506 32.3242 23.485C32.5292 25.898 33.2972 36.603 33.9282 38.134C34.8642 40.405 35.5722 41.85 38.6992 41.437C40.2092 41.237 43.6833 40.081 45.0903 39.513C46.7083 38.861 48.8373 37.8871 50.3103 36.6371C51.4783 35.6451 53.2483 33.579 53.6303 31.459Z" fill="#35388A"/>
<path fill-rule="evenodd" clip-rule="evenodd" d="M52.3344 6C49.7184 6.663 43.8074 8.776 41.0294 9.733C39.9004 10.121 39.6124 11.352 39.4414 11.871C41.3324 11.323 47.1434 9.59401 50.6864 8.23401C52.2564 7.63201 52.1644 6.61 52.3344 6Z" fill="#35388A"/>
<path fill-rule="evenodd" clip-rule="evenodd" d="M41.9946 17.604C42.7826 18.105 44.2636 19.141 45.1976 19.813C46.1276 18.605 47.3126 17.088 47.5576 16.507C46.6516 15.911 45.3716 14.8851 44.3816 14.1591C44.0236 14.7971 42.4796 16.92 41.9946 17.604Z" fill="#35388A"/>
<path fill-rule="evenodd" clip-rule="evenodd" d="M4.67969 21.854C5.46769 22.354 6.94868 23.39 7.88168 24.062C8.81168 22.855 9.9967 21.338 10.2417 20.756C9.3357 20.161 8.05569 19.1351 7.06769 18.4091C6.70869 19.0471 5.16469 21.17 4.67969 21.854Z" fill="#35388A"/>
<path fill-rule="evenodd" clip-rule="evenodd" d="M10.5615 21.14C11.3505 21.641 12.8315 22.677 13.7645 23.349C14.6955 22.142 15.8795 20.625 16.1245 20.043C15.2175 19.447 13.9385 18.422 12.9495 17.696C12.5915 18.333 11.0465 20.457 10.5615 21.14Z" fill="#35388A"/>
<path fill-rule="evenodd" clip-rule="evenodd" d="M30.4097 40.302C28.4987 40.678 24.1816 42.143 22.1526 42.795C21.3286 43.06 21.1177 44.259 20.9927 44.759C22.3737 44.419 26.6177 43.326 29.2057 42.356C30.3527 41.926 30.2847 40.894 30.4097 40.302Z" fill="#35388A"/>
<path fill-rule="evenodd" clip-rule="evenodd" d="M21.0059 48.1011C19.0959 48.4771 14.7778 49.9411 12.7488 50.5941C11.9248 50.8591 11.7148 52.0571 11.5898 52.5571C12.9708 52.2171 17.2138 51.1251 19.8018 50.1541C20.9498 49.7241 20.8819 48.6921 21.0059 48.1011Z" fill="#35388A"/>
<path fill-rule="evenodd" clip-rule="evenodd" d="M21.0508 51.354C19.1408 51.73 14.8238 53.194 12.7938 53.847C11.9708 54.112 11.7598 55.31 11.6348 55.81C13.0158 55.47 17.2597 54.378 19.8467 53.408C20.9947 52.977 20.9268 51.946 21.0508 51.354Z" fill="#35388A"/>
</svg>
