<svg width="48" height="62" viewBox="0 0 48 62" fill="none" xmlns="http://www.w3.org/2000/svg">
<path fill-rule="evenodd" clip-rule="evenodd" d="M39.911 28.5321C41.137 25.4851 43.703 28.5421 43.56 30.1821C42.075 30.2951 40.381 29.8651 39.911 28.5321ZM45.427 32.3291C46.035 33.1201 46.389 34.3041 46.308 35.4671C42.993 37.5291 36.847 38.5951 32.763 37.1501C30.845 36.4721 30.208 35.1951 29.292 34.8871C28.64 35.6331 28.346 37.7621 28.623 39.0711C28.819 39.9971 30.55 40.9611 31.308 41.6411C31.136 43.9391 28.582 46.4461 26.939 47.8591C24.563 49.9021 23.03 50.3331 19.041 50.5521C20.276 52.8361 26.678 52.1041 28.844 50.7901C31.63 49.1001 32.035 45.9771 33.503 42.5671C36.532 42.4821 44.009 43.2831 46.552 39.2271C50.282 33.2791 45.512 19.6271 41.156 23.2581C39.506 24.6331 35.53 32.8911 40.401 34.8301C44.808 36.5851 43.643 33.2731 45.427 32.3291Z" fill="#35388A"/>
<path fill-rule="evenodd" clip-rule="evenodd" d="M2.62769 24.251C2.51669 22.013 2.39468 19.897 2.25568 17.694C2.01568 16.416 2.09668 13.707 1.55968 12.75C1.04668 13.219 -0.0163102 16.196 0.000689779 17.43L0.617679 23.178C0.994679 27.131 0.848686 31.397 1.15969 35.398C1.47069 39.405 1.69668 43.394 6.09668 43.35C10.6637 43.304 12.4327 41.856 15.1737 39.627C16.5927 41.278 20.5947 44.503 22.5657 41.808C23.7307 40.216 24.3837 35.142 24.2517 32.697C23.6807 33.109 24.2107 32.625 23.7337 33.113C22.4057 34.473 22.9527 37.226 22.1507 37.785C20.7707 38.122 19.8397 37.721 18.9357 37.044C17.6217 36.062 17.2677 35.723 16.9827 34.267C16.9757 34.227 16.9647 34.145 16.9387 34.091C15.8447 35.128 16.7667 35.474 13.4957 37.183C10.9297 38.524 5.31368 39.74 3.77568 36.644C2.90368 34.889 2.74069 26.539 2.62769 24.251Z" fill="#35388A"/>
<path fill-rule="evenodd" clip-rule="evenodd" d="M41.4855 16.7241C40.6325 16.1991 39.8125 15.3201 38.5395 14.4531C37.8335 15.5041 37.0645 16.6882 36.5205 17.6812C37.2175 18.1192 38.4955 19.2361 39.4365 19.8761C40.1745 18.8391 41.1585 17.2871 41.4855 16.7241Z" fill="#35388A"/>
<path fill-rule="evenodd" clip-rule="evenodd" d="M46.6569 16.2781C45.8029 15.7541 44.9829 14.8741 43.7099 14.0071C43.0039 15.0591 42.2349 16.242 41.6909 17.235C42.3879 17.673 43.6659 18.7911 44.6069 19.4301C45.3459 18.3931 46.3289 16.8411 46.6569 16.2781Z" fill="#35388A"/>
<path fill-rule="evenodd" clip-rule="evenodd" d="M46.9179 8L40.8079 10.032C38.3789 10.868 36.5169 11.459 35.9849 13.27C37.9339 12.548 42.2949 11.23 44.8389 10.313C46.6509 9.65899 46.6459 8.919 46.9179 8Z" fill="#35388A"/>
<path fill-rule="evenodd" clip-rule="evenodd" d="M18.309 15.9321L12.2 17.9641C9.77097 18.8001 7.90798 19.3911 7.37598 21.2031C9.32498 20.4801 13.686 19.1621 16.23 18.2451C18.042 17.5911 18.036 16.8511 18.309 15.9321Z" fill="#35388A"/>
<path fill-rule="evenodd" clip-rule="evenodd" d="M20.4467 11.386L14.3367 13.418C11.9087 14.254 10.0456 14.845 9.51465 16.657C11.4626 15.934 15.8237 14.617 18.3667 13.699C20.1797 13.045 20.1747 12.305 20.4467 11.386Z" fill="#35388A"/>
<path fill-rule="evenodd" clip-rule="evenodd" d="M40.9467 48.8201L34.8367 50.8521C32.4087 51.6881 30.5456 52.2791 30.0146 54.0911C31.9626 53.3681 36.3237 52.0501 38.8667 51.1331C40.6797 50.4791 40.6737 49.7391 40.9467 48.8201Z" fill="#35388A"/>
<path fill-rule="evenodd" clip-rule="evenodd" d="M20.8708 46.2639C20.0158 45.7399 19.1968 44.8599 17.9238 43.9929C17.2178 45.0449 16.4488 46.2279 15.9048 47.2209C16.6018 47.6589 17.8798 48.776 18.8208 49.416C19.5588 48.379 20.5428 46.8269 20.8708 46.2639Z" fill="#35388A"/>
<path fill-rule="evenodd" clip-rule="evenodd" d="M26.0388 45.8181C25.1848 45.2941 24.3648 44.4151 23.0928 43.5481C22.3858 44.5991 21.6168 45.7831 21.0728 46.7761C21.7708 47.2141 23.0478 48.3311 23.9898 48.9701C24.7278 47.9341 25.7118 46.3821 26.0388 45.8181Z" fill="#35388A"/>
<path fill-rule="evenodd" clip-rule="evenodd" d="M11.1447 47.8191C10.2907 47.2941 9.47072 46.4151 8.19772 45.5481C7.49172 46.5991 6.72273 47.7831 6.17773 48.7761C6.87573 49.2141 8.15273 50.3311 9.09473 50.9711C9.83273 49.9341 10.8167 48.3821 11.1447 47.8191Z" fill="#35388A"/>
</svg>
