<svg width="49" height="62" viewBox="0 0 49 62" fill="none" xmlns="http://www.w3.org/2000/svg">
<path fill-rule="evenodd" clip-rule="evenodd" d="M33.9455 30.344L33.4265 31.984C34.7545 32.536 35.7475 32.172 35.8745 33.779C34.5695 34.643 33.0535 35.287 31.0705 34.854C27.4825 34.07 28.8385 33.575 28.5455 31.355C27.4295 31.854 25.8275 35.027 19.9325 34.145C18.0215 33.858 16.9815 33.496 15.6465 32.668C14.4655 31.936 13.6745 31.632 13.2025 30.586L12.7625 29.445C10.6825 30.094 9.05947 32.228 8.14447 33.964C6.07547 37.892 6.81249 37.594 8.92249 40.081C6.85949 42.007 0.973488 43.876 0.000488281 46.285C0.935488 46.204 3.33349 45.198 4.44449 44.849C7.54449 43.515 9.46547 41.622 10.0705 40.712C12.4555 40.32 13.5695 41.627 15.6005 41.856C15.7595 41.587 17.2935 38.906 17.5535 38.631C19.8345 38.68 20.9675 39.162 23.2605 38.483C25.8075 37.729 26.1105 37.503 27.1335 36.099C28.6915 37.738 29.3325 40.04 32.8865 39.342C35.4905 38.831 36.9855 36.925 38.7305 35.965C40.0955 36.922 41.3045 37.958 44.0465 38.214C47.0145 38.49 47.7665 37.341 48.3545 34.841C48.8615 32.684 49.1895 30.185 48.5595 27.957C48.0915 26.298 47.1315 23.741 45.4795 23.167C44.9905 24.754 44.0705 26.155 43.7895 27.03C45.5785 28.742 47.1495 30.432 46.9305 33.527C45.2025 34.504 42.8135 34.554 40.6145 34.163C39.8425 31.682 43.9005 29.336 39.6105 27.098C35.6815 25.049 34.9945 27.341 33.9455 30.344ZM11.3525 33.161C12.5375 33.082 12.3445 36.919 11.8765 36.905C10.6655 36.867 9.54748 33.283 11.3525 33.161Z" fill="#35388A"/>
<path fill-rule="evenodd" clip-rule="evenodd" d="M48.9755 8L42.8645 10.032C40.4365 10.868 38.5735 11.459 38.0425 13.271C39.9905 12.548 44.3515 11.23 46.8955 10.313C48.7075 9.65899 48.7015 8.919 48.9755 8Z" fill="#35388A"/>
<path fill-rule="evenodd" clip-rule="evenodd" d="M46.4943 16.902C45.6403 16.378 44.8203 15.4991 43.5473 14.6321C42.8413 15.6831 42.0733 16.867 41.5283 17.86C42.2253 18.298 43.5033 19.4151 44.4443 20.0551C45.1833 19.0181 46.1673 17.466 46.4943 16.902Z" fill="#35388A"/>
<path fill-rule="evenodd" clip-rule="evenodd" d="M44.6967 43.2061L38.5857 45.238C36.1577 46.074 34.2947 46.6651 33.7637 48.4771C35.7117 47.7541 40.0727 46.436 42.6157 45.519C44.4287 44.865 44.4227 44.1251 44.6967 43.2061Z" fill="#35388A"/>
<path fill-rule="evenodd" clip-rule="evenodd" d="M13.5013 44.989L7.39236 47.021C4.96336 47.857 3.10036 48.448 2.56836 50.259C4.51736 49.537 8.87836 48.219 11.4224 47.301C13.2344 46.648 13.2293 45.907 13.5013 44.989Z" fill="#35388A"/>
<path fill-rule="evenodd" clip-rule="evenodd" d="M13.2743 48.782L7.16431 50.814C4.73531 51.65 2.87329 52.241 2.34229 54.053C4.29029 53.33 8.65131 52.012 11.1943 51.095C13.0073 50.441 13.0023 49.701 13.2743 48.782Z" fill="#35388A"/>
<path fill-rule="evenodd" clip-rule="evenodd" d="M25.2824 45.78C24.4284 45.255 23.6084 44.376 22.3354 43.509C21.6294 44.56 20.8604 45.7441 20.3154 46.7371C21.0134 47.1751 22.2914 48.292 23.2324 48.931C23.9714 47.895 24.9544 46.343 25.2824 45.78Z" fill="#35388A"/>
<path fill-rule="evenodd" clip-rule="evenodd" d="M29.8283 45.6902C28.9743 45.1662 28.1543 44.2872 26.8813 43.4202C26.1753 44.4712 25.4063 45.6552 24.8623 46.6482C25.5593 47.0852 26.8373 48.2032 27.7783 48.8422C28.5173 47.8062 29.5013 46.2542 29.8283 45.6902Z" fill="#35388A"/>
</svg>
