<svg width="35" height="60" viewBox="0 0 35 60" fill="none" xmlns="http://www.w3.org/2000/svg">
<path fill-rule="evenodd" clip-rule="evenodd" d="M27.3892 19.898C27.8372 21.04 28.0792 23.522 28.4222 25.173C29.4702 30.212 31.3442 36.368 31.7072 40.983C30.8802 41.585 24.5982 42.495 23.6472 42.668C19.6722 43.387 9.6962 44.733 5.9612 43.967C2.3782 43.232 2.13421 40.432 1.51421 38.99C0.284209 39.569 -1.11478 44.651 1.40422 47.146C2.68422 48.414 8.66321 48.661 10.9922 48.648C17.1642 48.615 24.2122 47.545 30.6982 46.178C38.4422 45.134 30.3652 23.365 30.8432 19.321C31.0162 17.849 32.8132 17.411 32.9742 15.826C33.1292 14.321 30.1772 13.09 28.8902 11C28.1922 11.526 26.6602 13.456 26.6002 14.725C26.5422 15.985 27.2562 18.408 27.3892 19.898Z" fill="#C43025"/>
<path fill-rule="evenodd" clip-rule="evenodd" d="M17.2362 18.868C16.9202 19.3 17.1242 19.06 16.8272 19.369C14.4302 21.857 11.5262 24.354 11.2312 28.313C12.7082 30.161 14.1072 29.307 16.3792 29.822C15.7742 32.24 11.3062 32.092 10.8452 33.61C11.7342 34.055 13.8282 33.755 14.7542 33.486C17.9282 32.565 21.1132 28.848 19.2802 25.541C17.0382 25.349 14.6452 26.158 14.0222 24.165C14.4082 23.303 14.9532 23.095 15.8202 22.821C16.7092 22.54 17.0502 22.243 17.5622 21.555C17.7682 21.278 18.6392 19.81 18.7052 19.398C18.9402 17.953 17.8482 18.899 17.2362 18.868Z" fill="#C43025"/>
</svg>
