<svg width="35" height="61" viewBox="0 0 35 61" fill="none" xmlns="http://www.w3.org/2000/svg">
<path fill-rule="evenodd" clip-rule="evenodd" d="M28.8912 35.06C29.2592 36.122 31.6162 36.666 31.6382 40.066C23.9432 45.448 11.9822 43.428 8.97324 42.426C8.32124 43.269 7.00423 45.248 6.63623 46.318C11.2672 51.129 31.7532 49.362 33.9432 40.42C34.7832 36.989 33.6882 33.62 31.0002 31.246C30.2422 31.843 28.6112 34.251 28.8912 35.06ZM14.5382 26.506C14.9302 27.151 16.9552 29.173 17.6432 29.514L20.7512 26.795C20.4832 26.008 19.9432 25.601 19.3802 25.038C18.7432 24.405 18.4082 23.836 17.6432 23.527C17.0792 23.777 14.9532 25.836 14.5382 26.506ZM21.5282 26.844C22.9092 27.588 23.3242 28.992 24.6722 29.528C25.5902 29.074 27.4072 27.279 27.7382 26.506C27.2592 25.653 25.3742 24.031 24.6722 23.548C23.8402 23.945 21.9272 25.854 21.5282 26.844Z" fill="#2198CA"/>
<path fill-rule="evenodd" clip-rule="evenodd" d="M5.92714 46.027C6.53414 45.522 8.11314 43.233 8.36714 41.942C7.07314 39.9 5.61614 38.356 5.11214 35.836C4.86814 34.617 4.68516 33.113 4.58516 31.801C4.14916 26.083 3.66815 12.801 2.60915 10.223C1.44615 10.353 0.848148 12.286 0.467148 13.312C0.00514847 14.552 0.646157 16.8 0.813157 18.211C1.71616 25.832 1.33014 42.487 5.92714 46.027Z" fill="#211D21"/>
</svg>
