<svg width="24" height="60" viewBox="0 0 24 60" fill="none" xmlns="http://www.w3.org/2000/svg">
<path fill-rule="evenodd" clip-rule="evenodd" d="M12.5405 31.123C14.1875 32.135 14.6815 32.332 15.8515 33.836C16.3625 34.493 17.8465 36.481 17.9065 37.615C18.0445 40.243 14.2555 43.258 12.4305 44.823C7.80448 48.256 5.08849 47.803 0.000488281 48.972C1.30249 50.406 7.39349 51.411 9.97649 50.835C14.6365 50.048 18.2255 44.047 19.2835 39.532C20.6985 33.496 18.6145 27.593 13.6095 25.702L12.5405 31.123Z" fill="#211D21"/>
<path fill-rule="evenodd" clip-rule="evenodd" d="M10.7124 16.995C12.1874 16.588 17.8194 13.493 20.7174 12.027C22.3284 11.278 22.6054 10.916 23.0314 9C21.1484 9.835 14.4684 12.698 11.4654 14.899C10.7084 15.453 10.7154 16.368 10.7124 16.995Z" fill="#211D21"/>
<path fill-rule="evenodd" clip-rule="evenodd" d="M0.935295 9.44501C0.517295 10.484 -0.2897 11.274 0.1343 12.492C0.8973 14.675 2.4243 15.872 2.3223 21.176L2.3563 22.716C2.4863 23.313 2.3773 23.011 2.6003 23.317C4.4813 20.722 4.04129 10.804 0.935295 9.44501Z" fill="#2198CA"/>
</svg>
