<svg width="28" height="60" viewBox="0 0 28 60" fill="none" xmlns="http://www.w3.org/2000/svg">
<path fill-rule="evenodd" clip-rule="evenodd" d="M16.9145 34.482C18.3945 30.805 21.7005 33.761 22.5915 36.096C21.1845 36.155 19.1795 35.862 17.9585 35.305C16.9395 34.841 17.3665 35.14 16.9145 34.482ZM6.69849 47.073C5.46449 47.775 4.4735 48.336 3.3075 49.01C2.5385 49.454 0.524488 50.534 0.000488281 50.978C3.73649 51.193 8.31049 49.811 11.0445 48.366C16.4515 45.51 15.2105 43.827 16.9805 40.884C18.9515 41.11 21.7675 42.133 24.0215 41.299C25.8455 40.623 25.7465 38.159 26.1425 36.006C26.1895 33.756 25.4695 32.094 24.4545 30.577C23.9625 29.841 21.3225 27.57 21.3005 27.494C17.4455 27.095 14.9675 34.318 14.6305 36.984C14.5505 37.622 14.3555 38.575 14.5355 39.239C15.4985 42.792 10.3165 44.694 6.69849 47.073Z" fill="#211D21"/>
<path fill-rule="evenodd" clip-rule="evenodd" d="M16.4908 15.956C15.0198 16.921 14.8208 16.869 14.6558 18.811C15.7918 18.51 26.0628 12.435 26.7628 11.262C27.1018 10.692 27.0818 10.283 27.2618 9.67603C23.1638 11.557 20.3118 13.446 16.4908 15.956Z" fill="#211D21"/>
<path fill-rule="evenodd" clip-rule="evenodd" d="M3.5586 9C3.1576 9.997 2.3826 10.756 2.7906 11.924C3.5226 14.02 4.98761 15.168 4.88961 20.258L4.9226 21.736C5.0476 22.309 4.94361 22.019 5.15661 22.313C6.96161 19.823 6.5386 10.305 3.5586 9Z" fill="#2198CA"/>
</svg>
