<svg width="25" height="60" viewBox="0 0 25 60" fill="none" xmlns="http://www.w3.org/2000/svg">
<path fill-rule="evenodd" clip-rule="evenodd" d="M4.97818 37.6521C5.21918 39.6861 6.67618 39.546 7.81018 40.671C8.02418 43.14 4.17019 44.035 5.20119 45.961C5.69419 46.515 14.3922 41.005 15.7292 40.275C17.7112 39.192 21.2692 36.944 21.9502 34.818C19.4252 34.99 17.2422 37.1171 14.3912 37.0021C11.7632 36.8971 8.69219 35.838 8.10219 33.869C9.94319 30.638 14.1352 34.201 14.1352 34.202C16.8052 32.597 18.6142 28.403 13.3802 28.473C9.49519 28.525 4.49218 33.5401 4.97818 37.6521Z" fill="#211D21"/>
<path fill-rule="evenodd" clip-rule="evenodd" d="M0.00242396 17.104C-0.054576 18.736 1.16342 20.66 1.52542 22.919C1.95142 25.571 1.48943 26.817 1.42543 29.075C4.27943 26.446 2.68742 17.305 1.45042 15.953C0.959422 15.416 1.49043 15.803 0.71443 15.455L0.00242396 17.104Z" fill="#671E5F"/>
<path fill-rule="evenodd" clip-rule="evenodd" d="M10.7056 21.307C12.1116 20.843 18.1776 17.698 21.6586 16.33C23.8106 15.484 23.8216 14.634 24.0646 14C22.7106 14.2 15.6856 16.937 12.1646 19.14C11.1206 19.793 10.9566 20.581 10.7056 21.307Z" fill="#211D21"/>
</svg>
