<svg width="33" height="60" viewBox="0 0 33 60" fill="none" xmlns="http://www.w3.org/2000/svg">
<path fill-rule="evenodd" clip-rule="evenodd" d="M2.86614 17.634C2.52614 18.98 1.61716 20.963 1.56616 22.554C2.48716 22.199 4.05216 19.689 9.79516 20.718L10.8471 21.129C9.34113 22.542 8.25016 23.308 6.84216 24.965C2.54616 30.015 0.049132 35.016 0.498132 42.526C1.71913 50.32 5.67614 53.553 14.1551 54.209C17.7401 54.486 22.2331 53.839 25.2021 52.663C27.1411 51.895 32.1581 49.492 32.8101 47.439C30.0151 47.65 26.9731 48.4909 23.9481 48.7589C18.8991 49.2059 11.4092 49.673 6.95016 46.945C-2.83484 40.956 5.16213 26.672 14.7871 22.531C20.7701 20.014 22.3702 21.106 23.4072 20.242C23.6962 20.002 23.9412 19.609 24.2252 18.943C24.7192 17.966 25.0881 17.039 25.1381 15.732C23.2011 16.36 21.2941 16.296 19.2451 16.37C17.0421 16.45 15.2352 16.154 13.1732 15.851C6.56515 14.883 6.55214 15.751 2.86614 17.634Z" fill="#211D21"/>
<path fill-rule="evenodd" clip-rule="evenodd" d="M2.86828 11.794C2.93528 10.235 2.69626 6.745 1.03826 6C0.373259 6.484 -0.114748 7.47602 0.0242519 8.28302C0.182252 9.20302 2.26428 11.659 1.30828 16.448C2.49328 15.924 2.81828 12.974 2.86828 11.794Z" fill="#874F28"/>
<path fill-rule="evenodd" clip-rule="evenodd" d="M22.0155 35.6811C21.8255 36.3401 19.4575 38.8441 18.6525 39.0421C17.6525 38.1451 15.9195 36.3921 15.6455 35.7291C16.7485 34.8021 18.5945 32.5651 19.0475 32.6541C19.3915 32.8811 21.5535 35.1411 22.0155 35.6811Z" fill="#211D21"/>
<path fill-rule="evenodd" clip-rule="evenodd" d="M13.1544 13.553C13.5134 13.187 20.3264 10.589 22.1874 9.57104C23.2484 8.99104 24.3634 8.81803 23.8874 7.00903C23.6034 7.02803 15.7994 10.0961 14.6294 10.8691C13.9674 11.3061 12.8704 12.037 13.1544 13.553Z" fill="#211D21"/>
</svg>
