<svg width="22" height="60" viewBox="0 0 22 60" fill="none" xmlns="http://www.w3.org/2000/svg">
<path fill-rule="evenodd" clip-rule="evenodd" d="M17.3895 38.7621C16.3565 40.7061 15.7725 41.7911 14.0355 43.6011C8.45349 49.4181 0.940488 49.0891 0.000488281 49.6461C1.95249 51.1121 7.60348 51.7411 10.2475 50.8921C15.9565 49.0591 19.8455 39.8961 19.1585 34.3881C18.8405 31.8421 15.4175 27.5641 13.4005 27.1381L12.3425 31.6921C13.0965 32.2891 13.6475 32.8421 14.3255 33.5131C15.4735 34.6441 17.9235 37.0391 17.3895 38.7621Z" fill="#211D21"/>
<path fill-rule="evenodd" clip-rule="evenodd" d="M14.9475 23.756C16.3375 22.644 17.0755 21.457 17.8655 20.378C17.4475 19.62 15.5425 17.676 14.6725 17.312C13.9935 17.606 12.1765 19.317 11.6265 20.378C12.2385 21.612 14.1925 23.111 14.9475 23.756Z" fill="#211D21"/>
<path fill-rule="evenodd" clip-rule="evenodd" d="M10.4606 14.543C10.8186 14.177 17.6326 11.58 19.4926 10.562C20.5536 9.98101 21.6686 9.809 21.1926 8C20.9086 8.019 13.1056 11.086 11.9346 11.859C11.2726 12.296 10.1766 13.027 10.4606 14.543Z" fill="#211D21"/>
<path fill-rule="evenodd" clip-rule="evenodd" d="M5.61457 19.923C7.27057 18.065 7.30457 10.761 4.67857 8.71899C1.87257 10.114 5.50257 11.669 5.61457 19.923Z" fill="#874F28"/>
</svg>
