<svg width="33" height="60" viewBox="0 0 33 60" fill="none" xmlns="http://www.w3.org/2000/svg">
<path fill-rule="evenodd" clip-rule="evenodd" d="M2.33506 37.9356C3.67406 33.6906 8.17503 29.8696 12.168 27.9946C18.912 24.8286 20.427 25.7266 23.923 24.7306C24.297 24.6246 24.5441 24.6686 24.7191 24.4996C24.9681 24.2576 26.564 20.7776 26.397 19.8436C26.373 19.7116 23.663 20.6546 23.334 20.7456C19.423 21.8276 16.238 20.7716 12.383 20.4806C7.53803 20.1146 5.46904 20.6866 2.91404 25.4056L1.92005 26.7766L1.95606 27.5756C3.13806 27.0966 2.54404 27.1596 3.61704 26.3896C5.40604 25.1036 8.05305 24.9376 10.3131 25.1816C10.1591 25.9856 7.66404 27.8246 7.00904 28.4586C2.65404 32.6786 1.36603 37.2686 0.297031 43.1746C-0.0479693 49.9596 3.53004 53.5626 9.80204 55.0606C15.421 56.4026 21.1901 55.3226 26.2751 53.0926C27.2121 52.6816 30.822 50.6936 31.614 49.8646C32.296 49.1506 31.822 49.8816 32.246 48.9576C25.874 49.8146 18.495 51.6946 11.837 50.3856C5.91104 49.2206 1.01906 45.1616 2.33506 37.9356Z" fill="#211D21"/>
<path fill-rule="evenodd" clip-rule="evenodd" d="M17.9832 9.02563C17.4142 9.48863 15.3882 11.4696 14.9932 12.1706L17.9622 15.3046C19.1212 14.2266 20.2502 13.4556 21.0262 12.1706C20.7152 11.2696 18.6472 9.29163 17.9832 9.02563Z" fill="#211D21"/>
</svg>
