<svg width="54" height="60" viewBox="0 0 54 60" fill="none" xmlns="http://www.w3.org/2000/svg">
<path fill-rule="evenodd" clip-rule="evenodd" d="M35.671 30.5817C32.581 30.5757 29.757 34.8957 29.64 35.7947C30.535 35.6817 31.305 34.9997 32.493 34.8317C35.454 34.4107 39.771 36.5907 40.467 38.0537C38.013 39.1747 34.517 40.3457 31.887 40.5697C28.162 40.8867 28.064 39.9637 25.436 39.1647L25.699 42.2427C27.338 43.3787 28.346 44.8937 31.669 44.7777C33.691 44.7077 36.453 43.6427 38.243 43.0107C45.61 40.4087 45.353 41.2047 52.234 40.3597L53.853 36.5617C51.388 36.4937 50.346 36.6727 48.179 35.9037C44.346 34.5437 39.559 30.5887 35.671 30.5817Z" fill="#C43025"/>
<path fill-rule="evenodd" clip-rule="evenodd" d="M1.63107 36.3976C1.48407 37.4156 0.537065 38.9406 0.255065 40.2156C-0.923935 45.5616 2.09807 47.3396 6.97307 48.0506C9.66607 48.4446 12.8501 48.2706 15.5541 47.8366C21.0361 46.9576 25.2041 45.7556 24.9731 39.2926C23.5631 39.7136 22.9451 41.2056 19.4431 42.3526C17.2071 43.0866 14.7981 43.3966 12.1691 43.4966C5.70407 43.7426 2.06108 42.7056 2.60808 36.0526C2.34908 36.0626 2.07207 36.2646 1.63107 36.3976ZM15.1021 24.0316C14.2621 24.4586 12.6401 26.0336 12.0841 27.1236L15.1021 30.1156C16.0771 29.1166 17.1931 28.1806 17.8941 27.0426C17.4761 26.0606 16.0141 24.5526 15.1021 24.0316ZM5.35608 26.7686C5.75408 27.4036 5.91507 27.5366 6.36607 28.0456C7.25107 29.0446 7.25507 29.2726 8.50307 30.0836L11.2961 27.0426C11.0181 26.3326 9.07806 24.4176 8.42306 24.0256C7.06906 24.7126 6.80408 25.9486 5.35608 26.7686Z" fill="#2198CA"/>
<path fill-rule="evenodd" clip-rule="evenodd" d="M42.082 48.5787C41.156 49.1777 39.616 50.6147 39.123 51.6307C39.621 52.5947 41.272 54.2127 42.082 54.6767C42.806 54.2727 44.509 52.5717 45.002 51.6307C44.523 50.8057 43.027 49.2087 42.082 48.5787Z" fill="#C43025"/>
</svg>
