<svg width="42" height="61" viewBox="0 0 42 61" fill="none" xmlns="http://www.w3.org/2000/svg">
<path fill-rule="evenodd" clip-rule="evenodd" d="M40.2919 25.3214C40.3399 26.2474 39.3159 28.6604 38.7779 29.7174C33.1589 29.7204 34.6359 27.9014 34.1109 26.6334L33.4119 27.5394C32.4059 29.2294 32.6909 29.6574 30.8439 30.0724C29.9729 30.6564 27.0279 30.8414 25.8649 30.2024C24.7429 29.5854 24.3199 27.8204 23.7679 26.6094C19.5359 28.0624 23.5979 35.4234 23.5999 38.3314C23.6029 42.5354 14.0929 45.7354 9.99391 45.7434C6.27191 45.7504 2.71192 42.7014 2.55092 39.3364C2.35392 35.2174 5.93492 32.3594 6.33192 29.5754C4.55792 30.6714 0.881898 36.8084 0.668898 40.1194C0.0838983 49.2384 7.0029 52.5264 14.5789 49.6524C19.1639 47.9114 21.5439 46.7294 23.8039 41.7434C24.8799 39.3704 24.9659 37.4674 25.8139 35.2514C28.0069 35.7684 31.8079 34.3994 32.5549 33.0064C36.4029 34.2144 38.8979 36.6174 40.3989 31.6344C40.9869 29.6854 41.1899 27.8014 41.0139 25.6184L40.2919 25.3214Z" fill="#2198CA"/>
<path fill-rule="evenodd" clip-rule="evenodd" d="M32.8138 9.72241C32.0088 10.2244 31.6888 10.6814 30.9958 11.3664C30.4298 11.9254 30.0698 12.0894 30.0798 12.5894C30.0928 13.3124 32.1818 15.1184 32.8138 15.6114C34.1728 15.0764 34.5968 13.8344 35.9238 12.9594C35.5968 11.8324 33.9078 10.1074 32.8138 9.72241Z" fill="#2198CA"/>
<path fill-rule="evenodd" clip-rule="evenodd" d="M36.5609 13.7435C35.4549 13.9585 33.6659 16.0145 33.3059 16.8055C33.9409 17.6775 35.2779 19.0755 36.1849 19.7135C37.0559 19.3935 39.0239 17.6925 39.1009 16.2885C38.4969 16.0495 36.6259 13.8785 36.6389 13.8735C36.6769 13.8575 36.5789 13.7905 36.5609 13.7435Z" fill="#2198CA"/>
<path fill-rule="evenodd" clip-rule="evenodd" d="M29.756 13.5444C29.053 14.0374 28.382 14.5894 27.791 15.2964L26.51 16.4764C26.861 17.1984 28.911 19.2644 29.444 19.6294C30.548 19.2334 32.197 17.5664 32.555 16.5464C31.513 15.3354 30.43 14.5814 29.756 13.5444Z" fill="#2198CA"/>
</svg>
