<svg width="35" height="62" viewBox="0 0 35 62" fill="none" xmlns="http://www.w3.org/2000/svg">
<path fill-rule="evenodd" clip-rule="evenodd" d="M19.8379 24.1694C20.9619 23.4984 21.5269 23.3344 21.9619 21.7104C22.2679 20.5704 22.7409 19.3494 22.8319 18.1954C19.9629 19.6874 11.6729 26.6824 6.72386 22.5314C5.78486 21.7444 3.77586 19.4764 3.62486 18.0694C7.42786 15.3994 13.0729 15.2164 18.4399 15.4284C17.9159 14.2414 16.3369 13.3824 14.8999 12.8204C8.38288 10.2744 1.70686 14.1214 0.547863 20.4734C-0.174137 24.4224 5.32987 28.1994 6.80387 28.5334C6.07088 29.9804 5.07989 29.9904 3.36589 34.2274C1.48389 38.8734 -0.442117 44.6254 2.94288 49.2804C8.98088 57.5884 29.4399 54.6844 33.6789 48.9254C24.8929 48.9064 12.1659 52.1704 5.95387 46.0184C4.40387 44.4844 3.21988 43.4594 3.17488 40.5374C3.03188 31.4724 13.0979 27.8964 19.8379 24.1694ZM4.70488 3.1994C4.04088 3.6994 2.80188 4.92242 1.99488 5.87442C2.53988 6.89042 4.25887 8.15941 4.68287 9.34241C6.13887 8.26141 6.94087 7.4394 8.09687 6.5704C7.72187 5.6354 5.58888 3.4814 4.70488 3.1994Z" fill="#211D21"/>
</svg>
