<svg width="45" height="62" viewBox="0 0 45 62" fill="none" xmlns="http://www.w3.org/2000/svg">
<path fill-rule="evenodd" clip-rule="evenodd" d="M24.7396 29.928C26.2407 31.005 27.3006 30.423 27.9116 32.225C27.0186 33.308 22.8786 34.545 21.1906 34.497C17.8956 34.403 17.4086 32.922 15.0626 31.7C14.4566 32.592 13.6136 35.085 13.6946 36.308C15.0906 39.173 20.2656 39.338 23.7826 38.421C28.2246 37.264 34.0126 33.456 33.8666 28.904C33.8006 26.882 32.4127 26.168 30.9727 25.263C26.0937 22.194 25.1316 25.745 24.7396 29.928Z" fill="#C43025"/>
<path fill-rule="evenodd" clip-rule="evenodd" d="M11.3347 24.056C11.7017 25.948 12.0377 28.107 11.8567 30.199C11.5037 34.28 5.60567 35.59 3.26367 34.573C0.957671 33.571 2.68967 30.984 2.16467 29.344C1.00867 29.983 0.31666 33.178 0.0206599 34.523C-0.53334 42.596 10.2167 39.404 12.7627 36.046C14.3467 33.956 14.6617 30.945 14.3327 27.866C14.1977 26.596 13.7207 20.436 13.2237 19.308L13.0207 19C12.2337 20.206 11.2717 22.363 11.3347 24.056Z" fill="#211D21"/>
<path fill-rule="evenodd" clip-rule="evenodd" d="M40.3377 21.825C39.7757 22.468 39.5457 23.442 39.1687 24.421C38.5317 26.076 38.5187 25.984 39.4147 27.279C40.2067 28.422 41.7217 30.945 41.6717 32.78C38.1657 33.538 37.5637 33.43 32.9347 32.975C32.0897 33.672 31.7747 34.084 30.9277 34.797C28.7867 36.598 29.2807 35.727 28.9167 36.949C31.3947 37.496 34.1647 37.865 37.0187 37.955C40.9467 38.079 41.9567 38.27 43.2237 35.063C45.1927 30.079 43.3777 24.369 40.3377 21.825Z" fill="#211D21"/>
<path fill-rule="evenodd" clip-rule="evenodd" d="M37.0197 41.6429C36.2577 42.3289 34.6487 43.7609 34.1907 44.7309C34.8067 45.7479 36.1277 47.0419 37.0197 47.8909C38.0207 47.5489 39.6477 45.8739 40.1677 44.9869C39.9067 44.0529 39.3437 43.6489 38.7267 43.0229C38.2927 42.5819 37.7437 41.9459 37.0197 41.6429Z" fill="#211D21"/>
</svg>
