<svg width="29" height="61" viewBox="0 0 29 61" fill="none" xmlns="http://www.w3.org/2000/svg">
<path fill-rule="evenodd" clip-rule="evenodd" d="M8.08671 11.7398L6.8447 12.8319C5.2417 14.4429 3.36971 17.1058 6.12971 18.6278L5.7727 20.5208C8.7957 18.7498 12.7057 17.3549 13.0107 14.6099C11.5647 14.9509 10.6237 16.1008 9.32671 16.3398C6.43471 16.8718 5.64071 13.4169 8.06871 13.8289C8.48071 13.8989 8.9977 14.2698 9.4957 14.4598C11.3237 11.2058 9.79871 10.1258 8.08671 11.7398Z" fill="#2198CA"/>
<path fill-rule="evenodd" clip-rule="evenodd" d="M1.89854 30.4088L2.00655 30.4558C0.938545 34.2248 -1.45545 38.6078 1.22855 42.4528C3.41655 45.5858 7.00255 47.2138 12.3345 46.1048C14.7505 45.6028 20.9505 42.7588 22.7125 41.4588C25.0305 39.7478 28.8595 36.4838 28.0295 31.7308C25.4095 28.7108 19.8065 31.1178 16.6725 27.6468C16.7285 25.7788 19.1645 23.5728 20.5925 22.4958C25.0595 19.1298 25.1715 22.0678 27.0235 22.6918C32.2565 17.8698 25.5735 11.2448 17.2285 23.2118C15.9715 25.0148 13.0235 30.3978 14.7765 32.4848C16.8525 34.9548 21.8315 34.3818 25.0195 35.4818C24.4955 36.6158 22.9916 37.3118 21.8006 37.9978C17.9806 40.1958 13.0835 42.3228 8.29054 41.4818C6.51454 41.1698 5.47455 40.5988 4.47455 39.7308C-0.900453 35.0638 3.93454 30.7068 4.05354 26.8518C3.03154 27.7418 2.97654 29.3698 1.89854 30.4088Z" fill="#2198CA"/>
</svg>
