<svg width="61" height="60" viewBox="0 0 61 60" fill="none" xmlns="http://www.w3.org/2000/svg">
<path fill-rule="evenodd" clip-rule="evenodd" d="M27.5679 42.5868L25.5879 45.8398L25.9978 46.4288C26.4078 47.0158 26.0879 46.6688 26.5779 47.2088C28.0879 48.8768 29.9278 49.2068 32.2778 48.9938C33.1978 48.0548 34.1679 46.9948 35.0979 45.9798C35.1779 45.2678 35.2479 44.6548 35.4579 44.1288C35.5079 43.9868 35.7679 43.5578 35.8379 43.4398L36.1779 43.0018C35.5379 42.0848 35.8878 42.6258 35.6578 41.4938C35.0178 42.9688 33.9178 44.6718 32.0278 44.8368C29.9578 45.0168 28.1079 43.7708 27.5679 42.5868Z" fill="#C43025"/>
<path fill-rule="evenodd" clip-rule="evenodd" d="M50.5276 21.1668C47.1676 22.3408 41.7276 24.2328 38.7676 26.2288C38.2276 26.5928 37.6776 27.1458 37.1376 28.1748C36.5876 34.2018 43.1176 36.6388 45.8176 42.4278C43.6376 44.2088 39.1076 43.8938 36.1776 43.0018L35.8376 43.4398C35.7676 43.5578 35.5076 43.9868 35.4576 44.1288C35.2476 44.6548 35.1777 45.2688 35.0977 45.9798C37.0077 48.2308 42.2877 48.5448 45.5977 46.9958C48.5777 45.6028 48.4577 42.8568 47.7177 40.1488C47.0177 37.5938 46.6776 36.8928 45.1576 34.8588C44.5876 34.0958 43.9576 33.4838 43.3976 32.8098C42.6276 31.8998 40.0676 29.7048 39.7876 28.9538C41.9876 27.7768 53.5177 23.6648 57.2177 22.3338C59.3177 21.5808 60.2776 19.9638 60.6276 17.7168C59.1676 17.8498 52.6176 20.4388 50.5276 21.1668Z" fill="#35388A"/>
<path fill-rule="evenodd" clip-rule="evenodd" d="M25.5877 45.8398L27.5676 42.5878L28.0777 40.7998C26.7277 41.5928 26.8076 42.7608 21.4176 44.2248C16.8076 45.4738 7.73764 46.6398 3.80764 44.0628C0.217636 41.7148 4.54761 36.1348 3.27761 36.5328C3.13761 36.5758 2.96766 37.0048 2.45766 37.6518C-0.80234 41.8348 -1.83233 48.3248 5.83767 49.6558C8.63767 50.1428 14.2676 49.6828 17.0076 49.1888C21.3876 48.3978 22.4677 47.4728 25.5877 45.8398Z" fill="#35388A"/>
<path fill-rule="evenodd" clip-rule="evenodd" d="M10.3774 33.0998L12.9575 35.5768C13.6675 35.0778 15.3675 33.7358 15.9575 32.7548C15.1175 31.5428 14.0874 30.9118 13.3574 30.1878C11.8574 31.1598 11.3474 31.9518 10.3774 33.0998Z" fill="#35388A"/>
<path fill-rule="evenodd" clip-rule="evenodd" d="M16.6875 32.7548C17.3075 33.7908 18.4575 34.7338 19.2675 35.4328C20.3375 34.9728 21.6175 33.6528 22.0475 32.7548L19.3774 30.0898C18.2274 30.8948 17.3575 31.7438 16.6875 32.7548Z" fill="#35388A"/>
<path fill-rule="evenodd" clip-rule="evenodd" d="M27.6577 32.7548C28.0377 33.5548 29.3777 34.9918 30.3177 35.4048C31.1677 34.6478 32.2577 33.8878 32.8177 32.7548L30.3977 30.2748C29.1677 30.9128 28.3677 32.0228 27.6577 32.7548Z" fill="#C43025"/>
<path fill-rule="evenodd" clip-rule="evenodd" d="M27.7075 23.9878C28.6875 23.7798 29.9874 23.0688 31.2274 23.7718C30.6274 24.6078 29.5375 24.8968 28.6575 25.4988C28.8375 25.5988 28.6575 25.6928 29.2875 25.7128C29.5775 25.7228 30.1274 25.6178 30.3574 25.5518C31.8574 25.1208 34.0474 23.2398 33.8674 21.6118C30.4674 21.2038 28.6375 21.3878 27.7075 23.9878Z" fill="#C43025"/>
<path fill-rule="evenodd" clip-rule="evenodd" d="M42.8378 18.7288C42.3978 18.1348 42.4677 18.1168 42.4277 17.7448C42.8077 16.6038 42.8878 15.1498 42.7178 14.2578C42.2078 11.6478 38.1378 13.4598 38.1978 16.4088C38.2178 17.7938 38.8277 18.0838 39.7277 18.6518C39.1277 20.6838 35.7477 23.2488 34.1277 24.9148C37.9577 23.9228 40.1277 21.3978 41.1577 19.4048C41.1577 19.4048 42.1478 19.3858 42.8378 18.7288ZM41.0577 16.8248C40.6477 16.7178 39.4378 15.6228 40.2078 15.2918C40.8578 15.0138 41.9677 16.0488 41.0577 16.8248ZM15.3478 18.7288C14.9078 18.1348 14.9777 18.1168 14.9377 17.7448C15.3177 16.6038 15.4077 15.1498 15.2277 14.2578C14.7177 11.6478 10.6478 13.4598 10.7078 16.4088C10.7278 17.7938 11.3377 18.0838 12.2377 18.6518C11.6377 20.6838 8.2577 23.2488 6.6377 24.9148C10.4677 23.9228 12.6377 21.3978 13.6677 19.4048C13.6677 19.4048 14.6578 19.3858 15.3478 18.7288ZM13.5677 16.8248C13.1577 16.7178 11.9478 15.6228 12.7178 15.2918C13.3678 15.0138 14.4777 16.0488 13.5677 16.8248Z" fill="#35388A"/>
</svg>
