<svg width="55" height="60" viewBox="0 0 55 60" fill="none" xmlns="http://www.w3.org/2000/svg">
<path fill-rule="evenodd" clip-rule="evenodd" d="M40.7256 42.809C41.2956 44.003 42.5057 45.12 43.5757 45.616L46.3057 42.974C45.3657 41.624 44.7457 40.994 43.5757 40.342L40.7256 42.809Z" fill="#35388A"/>
<path fill-rule="evenodd" clip-rule="evenodd" d="M54.8656 27.782C50.9456 27.994 47.1157 27.235 43.6857 25.967C42.0257 25.353 40.6056 24.657 38.9856 24.149C38.1256 23.883 37.3557 23.787 36.6257 23.775C32.7557 23.712 30.6557 25.001 28.8757 28.696C30.9857 28.066 31.5357 26.676 34.7457 27.304C36.6757 27.681 38.3456 28.747 39.9556 29.399C38.7556 30.585 33.8957 31.718 31.6857 31.857C29.9357 31.968 28.2457 31.742 26.7957 31.135C24.4857 30.171 24.7456 29.777 23.7256 28.555C20.2156 29.731 19.1057 35.592 14.6657 33.632C14.4857 33.236 14.5057 33.595 14.5357 32.864C14.6257 30.749 17.2556 28.617 12.7056 26.904C8.43561 25.292 7.81563 27.651 7.34563 31.52C9.04563 31.751 9.64566 32.268 10.2557 33.599C3.48566 36.376 3.07567 32.257 2.88567 25.916C2.77567 22.221 3.06561 12.323 1.95561 9.72699C-1.07439 12.185 0.235721 16.468 0.565721 20.738C0.895721 25.058 1.04569 29.347 1.40569 33.688C1.64569 36.569 1.46562 37.307 3.71562 38.337C5.66562 39.233 7.18566 39.128 9.00566 38.151C12.7057 36.165 10.0957 37.266 13.7657 38.05C16.5857 38.657 18.0256 37.815 18.9756 35.973C19.3156 36.701 18.6257 37.192 22.0457 37.965C23.5757 38.312 25.5357 38.57 27.1857 38.387C28.1957 37.088 27.8457 36.981 28.5657 35.754C33.5557 35.307 36.1757 34.43 40.5257 33.065C46.0857 31.317 47.1756 31.469 53.0956 31.819L54.8656 27.782ZM21.3656 33.234C21.3656 33.839 24.3956 34.626 24.4756 34.086C24.7456 32.271 21.3656 31.762 21.3656 33.234Z" fill="#35388A"/>
<path fill-rule="evenodd" clip-rule="evenodd" d="M35.0459 14.611C38.0759 13.864 41.8759 12.504 45.8959 11.237C47.7259 10.658 48.9859 10.052 49.3959 8.237L38.8759 11.716C36.8459 12.295 35.7559 12.828 35.0459 14.611Z" fill="#35388A"/>
<path fill-rule="evenodd" clip-rule="evenodd" d="M21.9658 11.067C23.1058 12.198 24.0259 9.95597 28.2959 11.294C26.9559 12.1 25.5359 12.796 24.2659 13.659C26.8659 13.437 30.6758 12.473 31.2358 9.41598C30.3158 9.08698 27.0559 8.72697 25.7759 8.83697C23.4659 9.03697 22.8358 10.346 21.9658 11.067Z" fill="#35388A"/>
<path fill-rule="evenodd" clip-rule="evenodd" d="M5.55566 15.722C8.58566 14.975 12.3856 13.616 16.4056 12.348C18.2356 11.769 19.4956 11.162 19.9056 9.34802L9.38562 12.827C7.35562 13.406 6.26566 13.939 5.55566 15.722Z" fill="#35388A"/>
<path fill-rule="evenodd" clip-rule="evenodd" d="M4.91553 12.374C7.94553 11.627 11.7455 10.268 15.7655 9C17.5955 8.42 18.8555 7.815 19.2655 6L8.74548 9.47897C6.72548 10.058 5.63553 10.591 4.91553 12.374Z" fill="#35388A"/>
</svg>
