<svg width="54" height="60" viewBox="0 0 54 60" fill="none" xmlns="http://www.w3.org/2000/svg">
<path fill-rule="evenodd" clip-rule="evenodd" d="M27.5469 33.208C27.5469 33.988 27.5669 34.724 27.6169 35.364C27.7469 36.977 28.2269 38.26 28.8669 39.413C30.8669 43.052 34.5769 40.659 37.3469 40.926C41.6669 42.578 44.6469 41.119 45.7869 39.822C47.2169 40.324 48.0869 40.568 50.4069 40.352C52.0269 38.558 52.6268 35.514 52.3868 32.397C51.3868 32.786 51.2469 34.562 50.1869 35.728C49.4569 36.241 48.3868 36.039 47.8868 35.235C47.7868 34.585 47.6969 33.934 47.5969 33.285C46.5569 34.651 46.257 36.944 41.497 37.054C39.567 37.098 40.1968 36.578 40.3768 34.548C39.2368 35.725 38.6369 36.419 36.8569 36.804C35.5169 37.096 32.8769 37.272 31.7069 36.528C29.1469 34.891 29.4269 30.494 29.2169 27.061C29.0269 24.149 28.2069 19.034 28.8469 16.415L28.6368 15.895C28.6068 15.807 28.5669 15.711 28.5469 15.61C28.5269 15.501 28.5069 15.412 28.4869 15.299C28.4169 14.932 28.4068 14.23 28.3768 13.839C25.9168 15.479 26.3869 18.405 26.6669 21.397C27.0269 25.143 27.5169 29.534 27.5469 33.208Z" fill="#35388A"/>
<path fill-rule="evenodd" clip-rule="evenodd" d="M17.6069 27.8411C17.0669 33.3741 20.2469 35.004 19.8069 40.446C17.3569 42.204 13.8869 45.4311 8.55687 44.4441C6.81687 44.1221 4.51682 42.3311 4.00682 40.9821C3.16682 38.7621 4.74686 36.8291 5.17686 34.7421C4.69686 35.1241 4.92684 34.8891 4.40684 35.4791C4.12684 35.8061 4.08688 35.898 3.81688 36.278C3.41688 36.843 3.18683 37.1641 2.89683 37.7701C-1.14317 45.982 5.87684 51.22 14.4068 47.882C17.7068 46.595 17.8668 46.066 19.7768 44.222C20.8868 43.148 21.4468 39.5 21.7768 37.817C22.0868 36.283 22.0369 34.673 21.1069 31.144C20.5969 29.37 19.9268 27.495 18.8868 26.144C18.4168 26.764 18.2069 26.9311 17.6069 27.8411Z" fill="#35388A"/>
<path fill-rule="evenodd" clip-rule="evenodd" d="M37.2969 18.5799C40.3769 17.5589 45.0369 15.7219 48.1169 14.5319C49.7269 13.9079 50.4269 13.1579 50.9769 11.5869C48.9869 11.8849 41.6269 14.7189 39.5769 15.8579C38.5869 16.4019 37.8069 17.1679 37.2969 18.5799Z" fill="#35388A"/>
<path fill-rule="evenodd" clip-rule="evenodd" d="M42.4468 21.7719C43.1368 23.0359 44.1567 23.8449 45.1467 24.8509C46.2667 24.0209 47.2168 23.0939 48.1168 21.9629C47.1968 21.1869 46.5067 19.9159 45.2567 19.0969C44.4667 19.5399 42.9468 21.0509 42.4468 21.7719Z" fill="#35388A"/>
<path fill-rule="evenodd" clip-rule="evenodd" d="M11.2769 23.214C10.3969 23.791 9.01686 25.089 8.52686 26.162L11.4069 28.709L13.9269 26.112C13.5569 24.97 12.3069 23.982 11.2769 23.214Z" fill="#35388A"/>
<path fill-rule="evenodd" clip-rule="evenodd" d="M24.2869 13.962C26.0169 13.969 29.347 12.266 30.367 11.256C29.487 10.154 27.957 12.378 26.437 11.313C25.377 10.577 25.957 9.99303 26.837 10.166C27.727 10.343 28.337 11.437 28.617 9.18303C27.137 7.94703 22.377 9.72803 25.097 12.994L24.2869 13.962Z" fill="#35388A"/>
<path fill-rule="evenodd" clip-rule="evenodd" d="M23.7666 6.067C25.2266 5.773 26.2567 5.32998 27.8267 6.07398C26.3967 7.30898 25.6867 6.564 25.1067 8.011C27.5867 7.7 30.1967 6.35699 30.2067 4.13999C27.2467 3.97699 24.6666 3.515 23.7666 6.067Z" fill="#35388A"/>
<path fill-rule="evenodd" clip-rule="evenodd" d="M39.4668 25.467C40.1668 26.732 41.1867 27.541 42.1667 28.546C43.2867 27.715 44.2367 26.79 45.1467 25.658C44.2167 24.882 43.5367 23.611 42.2867 22.792C41.4867 23.235 39.9768 24.746 39.4668 25.467Z" fill="#35388A"/>
<path fill-rule="evenodd" clip-rule="evenodd" d="M45.7871 25.467C46.4871 26.732 47.4972 27.541 48.4872 28.546C49.6072 27.715 50.5572 26.79 51.4672 25.658C50.5372 24.882 49.8472 23.611 48.5972 22.792C47.8072 23.235 46.2871 24.746 45.7871 25.467Z" fill="#35388A"/>
<path fill-rule="evenodd" clip-rule="evenodd" d="M2.04688 14.347C-0.00312495 19.39 4.30693 19.178 4.97693 17.916C5.39693 17.144 3.14692 17.488 2.96692 15.503C2.77692 13.355 8.19688 8.98401 9.67688 9.19101C10.4869 9.30401 11.2269 10.041 12.1069 11.615C14.4569 6.03403 11.1968 5.42403 7.26685 8.46103C5.45685 9.85703 3.32687 12.304 2.04688 14.347ZM6.24695 15.98C6.63695 17.199 7.7269 16.959 8.4469 17.152C7.9269 19.15 2.15689 23.351 0.316895 24.666C2.29689 24.26 7.92694 20.541 9.86694 17.048C10.0069 16.95 10.9869 17.006 11.0869 16.745C10.8669 16.361 10.4768 15.53 10.5068 15.18C11.1568 8.93203 6.68695 11.502 6.24695 15.98ZM8.84692 15.29C8.32692 15.594 7.16693 14.515 8.22693 14.107C8.80693 13.884 9.18692 15.091 8.84692 15.29Z" fill="#35388A"/>
</svg>
