<svg width="87" height="60" viewBox="0 0 87 60" fill="none" xmlns="http://www.w3.org/2000/svg">
<path fill-rule="evenodd" clip-rule="evenodd" d="M40.7201 36.0159C41.5601 33.9777 45.04 31.3582 47.13 30.9238C50.29 30.2684 53.6701 31.3425 55.3401 33.4974L53.9801 34.2796C50.0801 35.5625 44.7401 36.1124 40.7201 36.0159ZM21.8601 33.4985C21.4401 32.7252 21.4301 32.8666 20.9601 31.9451C22.2901 29.4075 25.7801 27.4502 25.9801 32.3548C24.8701 33.0922 23.5901 33.8206 21.8601 33.4985ZM21.4801 27.2751C19.9601 29.1056 18.65 33.3369 18.4 35.7948C14.09 36.9721 9.14009 38.4974 5.21009 35.8823C3.51009 34.7521 2.24012 33.1326 2.61012 30.109C2.76012 28.8957 3.22008 28.0989 3.82008 27.2134C4.03008 26.8969 5.4001 24.5803 5.2201 24.3312C5.0401 24.0798 3.98008 25.293 3.45008 26.0338C0.950084 29.5545 -1.6499 33.6825 1.3401 38.2651C3.4401 41.4749 7.00009 42.2348 10.4601 42.1046C13.3501 41.9968 15.8901 41.1517 18.2901 40.3964C23.7401 38.6758 21.58 40.1439 26.03 40.3863C29.78 40.5906 31.1 38.9744 33 37.6523C33.68 39.1865 34.3201 38.9923 34.4901 40.971C36.9101 39.8274 40.33 40.943 43.28 40.751C45.75 40.5894 49.1501 39.5535 51.2101 39.6164C54.3801 39.714 56.05 40.1472 59.5 39.6927C63.72 39.1371 79.56 34.8363 83.75 32.7723C85.14 32.0865 86.1 30.9451 86.39 28.5613C83.66 28.8823 78.5501 30.8699 75.5601 31.7622C71.5901 32.9474 67.3701 30.0764 66.7201 26.4266C72.3801 23.33 73.55 24.4793 80.12 24.1157C76.13 17.0685 67.9801 20.7756 64.6701 26.5478C62.8001 29.806 65.1 31.5489 65.89 34.412L57.6701 36.283C59.2501 31.8251 61.25 31.3705 56.51 27.962C46.52 20.7677 41.06 34.9699 37 35.3537C35.89 35.4592 33.96 33.9743 33.77 32.916C33.74 32.7779 33.6601 32.7521 33.6001 32.6814C31.4001 33.9755 29.9201 35.9104 26.8001 35.6343C27.0401 31.5613 30.0301 28.4771 26.3201 24.2549C24.0601 24.8261 23.2001 25.219 21.4801 27.2751Z" fill="#35388A"/>
<path fill-rule="evenodd" clip-rule="evenodd" d="M68.0078 15.4445C70.0478 14.9439 77.1078 12.5006 81.2478 10.6386C83.0678 9.81821 82.9178 8.9192 83.2478 8C79.2078 9.05051 75.0079 10.6835 70.9579 12.11C69.2579 12.706 68.4978 13.4478 68.0078 15.4445Z" fill="#35388A"/>
<path fill-rule="evenodd" clip-rule="evenodd" d="M50.2903 14.3277C53.1003 14.4546 56.5203 11.8563 56.2903 9.25027C52.8703 8.99887 49.9404 8.59593 48.8604 11.7643C50.6104 11.6173 51.4404 10.8215 53.6104 11.9248L50.2903 14.3277Z" fill="#35388A"/>
<path fill-rule="evenodd" clip-rule="evenodd" d="M21.6299 15.7835C22.6599 16.4244 23.36 17.4165 24.72 18.3952L27.3199 15.2717C26.4799 14.2291 25.29 13.1202 24.2 12.1011C22.86 13.2504 22.3399 14.1247 21.6299 15.7835Z" fill="#35388A"/>
<path fill-rule="evenodd" clip-rule="evenodd" d="M11.4102 53.8691C13.2202 53.1744 15.5102 52.0284 17.4702 51.1968C19.5202 50.3258 20.2501 50.3517 20.8701 47.8511C18.6001 48.7961 14.9702 49.85 12.9102 51.3449C11.9102 52.0722 11.8002 52.7445 11.4102 53.8691Z" fill="#35388A"/>
<path fill-rule="evenodd" clip-rule="evenodd" d="M11.4102 48.961C13.2202 48.2652 15.5102 47.1193 17.4702 46.2887C19.5202 45.4167 20.2501 45.4425 20.8701 42.943C18.6001 43.8869 14.9702 44.9408 12.9102 46.4358C11.9102 47.1642 11.8002 47.8353 11.4102 48.961Z" fill="#35388A"/>
</svg>
