<svg width="49" height="60" viewBox="0 0 49 60" fill="none" xmlns="http://www.w3.org/2000/svg">
<path fill-rule="evenodd" clip-rule="evenodd" d="M23.5848 41.7497C23.987 40.4202 25.9421 38.5561 27.7103 38.2082C29.8354 37.7902 32.9072 38.1012 34.5097 38.9675C32.8909 40.7995 26.84 42.1811 23.5848 41.7497ZM20.6024 40.8282C19.6352 40.9852 19.2606 44.9067 19.6352 45.9787C23.8935 49.2721 32.8713 44.0691 37.0727 42.3637C40.4565 40.9897 42.1047 40.5338 46.0787 40.3018L48.3284 36.1094C43.859 35.8357 42.9739 36.049 38.825 34.872C36.2959 34.1541 32.6198 33.1498 29.7627 33.5477C25.4157 34.178 24.4057 38.5796 22.2992 41.6893C21.1602 41.4946 21.3979 41.5757 20.6024 40.8282Z" fill="#211D21"/>
<path fill-rule="evenodd" clip-rule="evenodd" d="M3.40177 36.4711C6.1299 35.5982 5.12096 37.3819 7.07919 37.0237C12.6127 36.0103 8.12332 27.7942 2.30039 34.5303C-2.07828 39.596 0.754377 42.0465 2.92647 43.1672C2.46873 44.1412 1.47219 44.4635 1.2466 45.7009C4.69324 44.0307 13.3443 41.4346 13.9549 38.2738C11.5438 38.1398 10.946 39.8914 7.6987 39.4887C6.25754 39.3099 3.16549 38.1547 3.40177 36.4711Z" fill="#211D21"/>
<path fill-rule="evenodd" clip-rule="evenodd" d="M19.6345 45.9787C19.2599 44.9067 19.6345 40.9852 20.6017 40.8282C18.6297 36.8828 18.8601 32.3135 18.8921 27.156C18.9401 19.5829 18.887 20.1407 18.2681 12.9193C17.7918 13.1084 16.9225 15.0757 16.522 15.7408C15.6169 17.2428 15.9695 18.0419 16.1719 19.8014C16.5386 22.985 16.7163 25.5912 16.9901 28.9235C17.4365 34.3474 16.3551 42.5653 19.6345 45.9787Z" fill="#C43025"/>
<path fill-rule="evenodd" clip-rule="evenodd" d="M28.7143 22.8711C30.5097 22.185 39.3867 18.6625 44.2759 16.5882C47.2097 15.3432 47.1903 14.5484 47.2711 13.3269C45.8044 13.5347 36.3882 16.9671 31.1734 19.4197C28.7574 20.5559 28.5004 21.9216 28.7143 22.8711Z" fill="#211D21"/>
<path fill-rule="evenodd" clip-rule="evenodd" d="M13.5479 11.1377C14.2909 10.7811 14.6644 10.0484 15.4016 9.87893C16.9938 9.51342 23.9792 10.8878 28.8046 8.45591C30.0915 7.80739 30.8373 6.66048 31.3706 5C30.2481 5.7638 28.0937 7.13677 27.0778 7.48778C25.6429 7.98444 24.2696 8.05278 22.4156 8.22155C19.2446 8.51009 15.2356 6.15208 13.5479 11.1377Z" fill="#C43025"/>
<path fill-rule="evenodd" clip-rule="evenodd" d="M33.8278 50.2416L32.6506 51.3409C32.6388 52.1513 32.4453 51.2498 32.4888 52.5044C33.7513 53.0818 34.7581 54.0961 36.3218 54.2466C37.4632 53.5843 38.5987 52.3421 38.7429 50.7793C38.1927 50.0086 36.7353 48.7388 35.2728 48.5121C34.7844 49.1496 34.2514 49.6959 33.8278 50.2416Z" fill="#211D21"/>
<path fill-rule="evenodd" clip-rule="evenodd" d="M0.0332031 27.0035C0.449201 27.0508 7.64811 24.5105 8.764 23.9279C9.78812 23.3937 10.5887 22.6399 10.8526 21.3915C8.5553 22.186 5.31287 23.3819 2.66718 24.3828C1.43988 24.847 1.01352 25.1021 0.0332031 27.0035Z" fill="#211D21"/>
</svg>
