<svg width="52" height="60" viewBox="0 0 52 60" fill="none" xmlns="http://www.w3.org/2000/svg">
<path fill-rule="evenodd" clip-rule="evenodd" d="M45.7755 33.1308C44.6741 33.1574 43.6393 32.9444 42.7545 32.6055C40.6732 31.8082 41.1423 31.6253 41.0695 31.2311C41.9308 29.9034 43.8666 30.2961 45.4171 32.5979C45.4526 32.6503 45.5147 33.2495 45.6503 32.9499C45.6703 32.9068 45.7334 33.0711 45.7755 33.1308ZM17.7177 15.8785C17.5739 17.2501 18.6473 33.3841 18.0437 34.6432C15.8861 36.6188 10.0911 38.7942 6.39469 38.2693C4.3968 37.9856 2.31163 36.5898 1.98463 34.8503C1.48412 32.1861 3.38819 30.8408 3.87248 28.7392C1.15849 29.8516 -1.26057 38.4653 0.733189 40.7802C4.41784 45.0617 11.841 43.0668 15.6298 40.259C16.4656 39.6395 17.6322 38.3632 18.0409 38.1802C18.4545 39.118 17.9954 45.6104 22.0981 45.7312C26.6544 45.8652 26.3512 41.1505 27.6099 39.5881C28.534 40.0167 28.5923 40.5534 29.6903 40.9579C33.1279 42.2243 36.4801 39.108 38.3662 36.7503C39.9191 36.8946 41.2061 37.6615 42.8863 38.0563C44.8825 38.5254 46.2871 38.4477 48.3767 38.7042C49.3905 37.2028 51.268 34.5352 50.525 32.4716C50.031 31.101 48.1083 27.9851 47.2553 27.0653C42.4775 21.913 40.4155 30.3082 38.666 33.128C37.4411 35.1023 35.9744 36.01 33.1269 36.2412C29.4457 36.5398 29.1584 34.9297 28.6361 32.037C27.6951 26.8302 27.9248 20.9852 27.8207 15.328L27.4116 11.2426L26.4502 12.4933C26.3581 12.6773 25.8721 13.7017 25.8007 13.9747C25.5385 14.9732 26.1825 24.4567 26.237 25.9808C26.3357 28.7723 26.4488 31.2881 26.5185 34.1182C26.5885 36.9847 26.6147 39.5128 24.4578 40.3916C23.4948 40.7836 21.8332 40.7032 21.0943 40.102C20.1758 39.3544 20.2572 38.204 20.2147 36.7458C20.0085 29.6573 20.5755 22.4165 20.3337 15.7401L20.044 12.8544C19.8725 12.3463 19.9388 12.5106 19.7397 12.2479C19.2817 12.9234 19.0316 13.3272 18.6356 14.1542C18.3103 14.8341 17.9585 15.6134 17.7177 15.8785Z" fill="#35388A"/>
<path fill-rule="evenodd" clip-rule="evenodd" d="M8.90423 24.8477C9.78452 25.1366 10.6562 25.2805 11.0342 25.9815C10.6776 26.824 9.73174 27.2775 8.8856 27.7428C8.38474 28.0189 8.1281 28.1359 7.69796 28.3675C6.90736 28.7924 6.90288 28.6198 6.55518 29.4143C13.0118 29.0944 14.147 26.0364 14.3988 24.5454C14.4295 21.9572 13.7527 22.4266 11.2836 20.4696C11.7565 18.8243 13.7465 17.6412 13.9773 16.0142C12.4126 16.2706 9.68241 19.0821 8.43958 21.5509C7.71555 22.9891 7.30887 24.3245 8.90423 24.8477Z" fill="#35388A"/>
<path fill-rule="evenodd" clip-rule="evenodd" d="M38.5918 16.2838C40.5459 15.3778 45.2674 13.407 48.077 11.809C50.464 10.4509 51.1038 9.52622 51.3939 8C49.713 8.34342 44.1119 11.3134 40.6507 13.1288C38.915 14.039 38.6622 15.0464 38.5918 16.2838Z" fill="#35388A"/>
<path fill-rule="evenodd" clip-rule="evenodd" d="M32.4205 17.5243C32.5829 18.0772 32.8499 18.6422 33.1345 19.4132C34.1252 22.0933 33.4325 21.9835 33.4053 24.3784C35.2628 23.158 34.9513 19.4008 34.6615 17.682C34.398 16.115 34.0289 15.5532 33.6909 14.3662C32.1045 14.7397 31.9927 16.0688 32.4205 17.5243Z" fill="#35388A"/>
<path fill-rule="evenodd" clip-rule="evenodd" d="M4.39648 52.8188C5.85386 52.5037 8.41332 51.1218 10.0932 50.3818C10.9317 50.0128 12.4771 49.6421 12.9603 49.3426C13.5857 48.956 14.536 47.8301 14.5698 46.8734C13.9417 46.9117 10.0994 48.518 8.68342 48.9712C6.94871 49.5269 4.53722 50.818 4.39648 52.8188Z" fill="#35388A"/>
<path fill-rule="evenodd" clip-rule="evenodd" d="M24.1562 52.1338C25.6136 51.8186 28.1731 50.4367 29.8529 49.6967C30.6915 49.3278 32.2368 48.9571 32.7201 48.6575C33.3455 48.2709 34.2958 47.1451 34.3296 46.1884C33.7015 46.2267 29.8592 47.8329 28.4432 48.2861C26.7085 48.8418 24.297 50.133 24.1562 52.1338Z" fill="#35388A"/>
</svg>
