<svg width="111" height="60" viewBox="0 0 111 60" fill="none" xmlns="http://www.w3.org/2000/svg">
<path fill-rule="evenodd" clip-rule="evenodd" d="M44.813 41.0076C44.97 39.3526 45.912 38.6966 47.4708 39.4017C48.4097 39.8262 49.23 40.9379 49.538 41.6544C47.3245 41.905 46.4194 41.7252 44.813 41.0076ZM63.9183 39.2319C65.0048 38.0894 66.8854 36.4183 68.6157 36.0438C70.6287 35.6079 75.2909 36.5995 76.1916 38.6337C71.9133 39.7544 67.8351 41.3075 62.691 40.7035L63.9183 39.2319ZM59.9459 40.1769C57.3772 40.1089 57.5469 39.6395 57.3775 37.6169C55.9615 37.8382 55.0095 40.5772 52.757 40.8547C52.2569 39.9004 52.1285 38.5378 51.4756 37.2241C49.3152 32.8774 46.288 32.4374 44.0645 37.2228C40.3981 45.1135 42.2253 47.0203 49.8319 47.0414C49.4677 48.7826 46.4774 51.6211 44.7754 52.2934C44.7468 52.3314 44.6961 52.3828 44.6778 52.3987C39.3647 54.4985 39.7134 54.0841 34.2051 54.3909C37.9253 58.2437 45.8955 57.6504 49.448 52.8332C52.5073 48.6839 50.2024 48.2211 53.7608 44.827C54.4134 44.2047 55.006 43.7953 55.9049 43.0267C56.9591 44.0069 56.6673 44.3396 58.4854 45.1652C62.4699 46.9737 74.5893 45.2387 77.6169 41.9222C78.7055 40.7301 80.8448 36.4838 79.801 34.6246C79.1432 33.4531 75.2302 31.4506 73.4817 30.9792C68.4794 29.6293 62.7917 36.6146 59.9459 40.1769Z" fill="#211D21"/>
<path fill-rule="evenodd" clip-rule="evenodd" d="M86.8753 39.6203C88.0233 40.0213 88.3748 40.4555 88.5669 41.5189C86.7418 41.5365 85.5042 41.4985 84.4956 40.4009C84.8933 39.3724 85.6825 39.2033 86.8753 39.6203ZM99.6774 36.2016C100.669 33.6738 103.731 36.6562 104.363 37.47C102.95 37.6008 100.557 36.9664 99.6774 36.2016ZM84.7073 35.6162C83.1217 37.5207 82.7988 39.8805 82.3818 42.2565C81.9423 44.7577 81.9502 45.1156 83.9813 46.1883C85.7822 47.1392 87.0091 46.9549 89.2978 46.8969C88.2226 50.0422 83.9671 53.77 80.5453 53.9588C78.2521 54.0859 77.01 53.4004 75.1035 53.31C82.8843 60.413 88.7228 55.426 91.9777 47.6341C92.5306 46.3105 92.1319 46.3695 93.3795 45.8366C97.5312 44.0633 97.297 43.4379 98.1421 41.2956C100.479 41.7287 102.836 43.6477 106.275 43.2577C107.693 41.5872 108.787 37.5356 107.794 34.9149C107.084 33.0453 104.613 30.1333 102.34 30.0536C98.3842 32.0143 98.0676 41.7508 92.633 40.6049C90.79 37.1853 88.5031 31.0535 84.7073 35.6162Z" fill="#211D21"/>
<path fill-rule="evenodd" clip-rule="evenodd" d="M11.1295 38.0387C11.384 37.4468 16.7106 33.9888 16.9127 33.9747L17.1877 38.6406C15.1563 38.876 12.8193 39.2581 11.1295 38.0387ZM8.81871 37.8989C8.12055 38.8004 6.8698 40.6811 6.83496 42.0106C9.2699 43.7097 12.9032 44.1615 15.6485 42.392C16.4353 41.885 17.1007 40.9848 17.8655 40.7098C21.2814 47.0369 22.3055 47.8107 29.9853 44.8867L39.8002 40.3056C40.5812 39.7672 40.6826 38.9116 41.0976 37.9182C41.4946 36.9677 41.8709 36.2202 41.9716 35.2072C40.8823 35.4598 38.9286 36.8269 37.6357 37.3581C35.8945 38.0739 34.3053 38.5543 32.7234 39.2187C30.1216 40.3111 29.9104 40.1113 28.3413 38.3196C24.5456 33.9857 26.6746 32.3891 31.5631 31.5152C32.6396 31.3226 33.8093 31.2546 34.909 31.2332C35.6009 31.2194 36.1318 31.2774 36.782 31.3001C37.1511 31.3129 37.6392 31.4931 37.6878 31.258C37.9296 30.0873 32.542 25.9087 27.3872 29.9762C25.0613 31.8116 23.6408 35.1802 23.8736 38.292C23.974 39.6267 24.4952 40.2252 24.6242 41.3752C18.1973 40.5941 19.4512 29.7484 19.2156 25.4065C17.5737 26.0816 17.0148 30.0521 16.7365 31.6839C15.8231 32.1078 14.9869 32.4326 13.9394 33.069C12.0001 34.2466 10.2012 36.1142 8.81871 37.8989Z" fill="#211D21"/>
<path fill-rule="evenodd" clip-rule="evenodd" d="M101.488 18.8209C100.416 19.2924 99.2037 19.7545 98.372 20.4224C98.1375 20.6112 96.7353 21.3477 97.094 22.749C99.3372 22.0915 105.051 19.3342 108.119 18.091C109.392 17.575 110.401 17.0728 110.506 15.2231C107.615 16.2075 104.271 17.597 101.488 18.8209Z" fill="#211D21"/>
<path fill-rule="evenodd" clip-rule="evenodd" d="M82.1495 23.3402C83.4334 24.0957 85.56 22.6865 86.3658 22.0518C87.3713 21.2593 88.8438 19.9174 88.6869 18.3532C85.8304 16.9619 82.4445 16.6768 81.6846 20.0941C82.6007 20.0023 83.5752 19.9202 84.4989 20.0085C85.5079 20.1048 85.6024 20.2373 86.0619 20.7154C85.0453 21.8129 82.7187 22.2768 82.1495 23.3402Z" fill="#211D21"/>
<path fill-rule="evenodd" clip-rule="evenodd" d="M27.6904 19.829C28.7528 19.7811 35.4468 17.2011 38.7786 15.1365C40.3584 14.1577 40.051 13.5419 40.1286 12.9069C38.8979 13.0798 34.3992 15.1965 33.3295 15.6956C30.4213 17.0541 27.8291 17.8752 27.6904 19.829Z" fill="#211D21"/>
<path fill-rule="evenodd" clip-rule="evenodd" d="M64.6953 24.4118L68.2196 25.9798C69.51 25.1818 70.6183 23.4795 70.8829 22.3899L67.4786 20.1006C66.5804 20.8464 64.9109 22.9991 64.6953 24.4118Z" fill="#211D21"/>
<path fill-rule="evenodd" clip-rule="evenodd" d="M10.2095 22.4031L13.7334 23.9711C15.0242 23.1731 16.1324 21.4709 16.397 20.3813L12.9928 18.0919C12.0949 18.8378 10.4247 20.9904 10.2095 22.4031Z" fill="#211D21"/>
<path fill-rule="evenodd" clip-rule="evenodd" d="M16.7803 20.577L20.3042 22.145C21.595 21.3471 22.7033 19.6448 22.9678 18.5552L19.5636 16.2659C18.6657 17.0117 16.9955 19.1644 16.7803 20.577Z" fill="#211D21"/>
<path fill-rule="evenodd" clip-rule="evenodd" d="M65.1506 12.5521C64.1399 12.492 63.7901 12.3105 63.7149 11.3555C64.8746 10.8474 65.144 11.4356 65.1506 12.5521ZM58.9751 20.6619C59.9892 19.9447 61.3638 19.4943 62.4259 18.7402C63.8439 17.7323 64.3182 17.0396 65.1026 15.7371C66.995 15.5424 65.9236 16.1989 67.1095 15.0392C66.748 13.7753 65.7766 14.0831 66.6687 12.2549C67.8394 9.85515 67.4165 9.84067 66.8573 9.0496C63.4728 7.49991 61.2948 12.6525 61.9433 13.6821C62.6146 14.1577 63.5173 14.5477 64.3251 14.9077C63.9598 16.3666 62.8377 17.0855 61.8378 17.8756C60.1517 19.2078 59.3238 19.32 58.9751 20.6619Z" fill="#211D21"/>
<path fill-rule="evenodd" clip-rule="evenodd" d="M3.07391 18.3215C3.42609 17.8417 3.82829 17.3523 3.94247 16.6441C1.42923 15.7578 0.372678 14.7216 3.21947 11.5536C4.30189 10.349 10.2911 5.02763 9.80507 11.4911C12.8571 10.3221 11.9941 1.82816 4.72686 8.58328C1.26469 11.8014 -2.02052 19.0214 3.07391 18.3215ZM5.89621 17.0424C4.42159 19.5522 0.97322 20.8531 0.000488281 22.6123C2.22259 21.8685 5.45986 19.1215 6.45708 17.2712C7.11557 17.665 7.14972 17.6802 7.81028 17.8776C8.49327 17.2829 8.67505 17.0741 8.87684 16.1464C8.32148 15.4865 7.93964 15.715 7.97999 14.6074C8.00345 13.9748 8.4874 13.3283 8.62883 12.6874C9.41081 9.14553 4.87932 10.6545 4.12287 13.8115C3.74723 15.3802 5.37432 15.9566 5.89621 17.0424ZM6.68647 12.6163C6.41465 12.4503 5.90552 12.413 5.90552 12.8375C5.89793 13.4871 6.32911 13.8995 6.63197 13.7653C6.94931 13.6248 7.13075 12.9128 6.68647 12.6163Z" fill="#211D21"/>
</svg>
