<svg width="99" height="60" viewBox="0 0 99 60" fill="none" xmlns="http://www.w3.org/2000/svg">
<path fill-rule="evenodd" clip-rule="evenodd" d="M70.4776 32.4295C71.688 29.9763 74.7948 32.1117 75.4695 33.4439C73.3937 33.71 71.3065 33.9357 70.4776 32.4295ZM88.6328 28.7548C89.9808 25.8988 93.7959 28.8539 94.2554 30.434C92.4089 30.747 89.3348 30.1209 88.6328 28.7548ZM89.2668 24.91C88.956 25.4021 88.7453 25.9278 88.4531 26.4524C86.8971 29.248 83.3269 32.3056 79.9921 32.8668C79.415 32.2007 79.1145 31.3179 78.6592 30.6227C78.217 29.9473 77.7451 29.2104 77.2025 28.6582C70.0795 21.4085 67.7943 36.0332 67.8132 36.1043C69.8267 39.5264 73.2792 38.3253 77.048 38.3094C76.6765 41.5444 70.9087 44.9472 67.1385 45.5705L63.3076 46.2977C64.1696 47.252 69.2316 48.4514 71.0615 48.2136C74.7062 47.7387 77.9631 42.3997 79.1863 38.9614C79.4964 38.0885 79.7251 37.6319 80.08 37.5149C82.9351 36.5727 85.1731 35.5666 86.0258 33.2883C88.0464 34.0528 88.0485 34.8165 92.0481 35.3574C99.4984 36.3645 99.9827 31.6005 96.5533 26.364C94.6448 23.449 91.6466 21.1382 89.2668 24.91Z" fill="#211D21"/>
<path fill-rule="evenodd" clip-rule="evenodd" d="M10.4822 28.9554L10.5636 33.4795C8.96342 34.33 5.67613 34.3766 3.94832 33.4795L10.4822 28.9554ZM0.000488281 36.892C1.25573 38.1728 3.92832 38.842 6.16008 38.3361C8.39185 37.8301 9.40596 35.6864 10.9961 35.1718C11.9571 37.4452 11.3111 38.93 14.3169 40.625C18.1937 42.8112 20.3661 39.3124 23.3264 37.6658C26.7679 40.6288 36.7739 40.6592 41.0801 39.4246C44.851 38.3436 45.3177 37.9864 46.5091 34.0912C47.4281 31.0881 46.7237 27.2639 44.5764 26.0531C44.1039 26.6267 42.7762 29.08 42.8763 30.0026C43.0056 31.1989 44.465 31.7331 44.484 33.9193C39.5576 35.6891 33.6608 35.7747 28.367 35.169C25.5758 34.8494 25.8169 34.8404 25.2843 32.3247C24.5571 32.6885 25.1594 32.3368 24.6837 32.6943C24.4743 32.8517 24.2815 33.0416 24.098 33.2176C21.6362 35.5832 17.4562 38.082 14.7832 34.9402C11.3628 30.9196 13.7136 25.7832 12.7785 20.7863C11.4208 23.0231 11.091 23.7348 10.645 26.5826C9.39563 27.2532 8.32355 27.8185 7.19836 28.6168C4.70409 30.386 0.329217 33.8209 0.000488281 36.892Z" fill="#211D21"/>
<path fill-rule="evenodd" clip-rule="evenodd" d="M59.1592 37.0366C58.8667 38.199 56.2258 40.5367 55.2141 41.2404C51.3442 43.9336 48.5978 44.7764 42.6807 44.7578C44.257 46.7434 49.2318 47.0934 52.3625 46.7223C55.0934 46.3989 56.993 44.3881 58.4621 42.3732C60.3792 39.7367 61.6141 36.1123 61.0063 32.8117C60.5255 30.2014 58.727 26.7952 56.6442 26.7593L55.1348 31.0884C56.7242 32.2805 59.6887 34.9333 59.1592 37.0366Z" fill="#211D21"/>
<path fill-rule="evenodd" clip-rule="evenodd" d="M22.6673 10.7909C21.657 10.7308 21.3072 10.5493 21.232 9.59429C22.3917 9.08624 22.6608 9.67436 22.6673 10.7909ZM16.4922 18.9007C17.5063 18.1835 18.8809 17.7331 19.9426 16.979C21.361 15.9711 21.8353 15.2784 22.6197 13.9758C24.5121 13.7812 23.4407 14.4377 24.6266 13.278C24.2651 12.0141 23.2937 12.3219 24.1858 10.4937C25.3561 8.09394 24.9339 8.07944 24.3744 7.28837C20.9899 5.73868 18.8119 10.8913 19.4604 11.9209C20.132 12.3965 21.0344 12.7865 21.8426 13.1465C21.4773 14.6054 20.3552 15.3243 19.3545 16.1143C17.6688 17.4466 16.8409 17.5588 16.4922 18.9007Z" fill="#211D21"/>
<path fill-rule="evenodd" clip-rule="evenodd" d="M85.0059 18.7288C86.0179 18.6153 90.4142 16.5917 91.6888 16.0505C93.6146 15.2329 97.3744 14.3507 96.9915 11.7449C95.3058 12.1521 92.0188 13.7943 90.369 14.4377C87.9116 15.3965 85.2242 16.0302 85.0059 18.7288Z" fill="#211D21"/>
<path fill-rule="evenodd" clip-rule="evenodd" d="M52.7373 18.5182C53.1419 19.4028 55.204 21.2428 55.8566 21.6845C56.789 21.3504 58.7161 19.4297 59.1256 18.5182C58.6413 17.6087 56.8728 15.9828 56.1191 15.4364C55.106 15.7298 53.353 17.6936 52.7373 18.5182Z" fill="#211D21"/>
<path fill-rule="evenodd" clip-rule="evenodd" d="M32.4554 49.9279C33.0394 49.3857 35.0363 47.4415 35.3657 46.8658C35.0059 46.2069 33.255 44.437 32.5089 43.7737C31.9922 43.9373 29.4355 46.2221 29.0205 46.8658C29.4072 47.5454 32.0687 49.7464 32.4554 49.9279Z" fill="#211D21"/>
<path fill-rule="evenodd" clip-rule="evenodd" d="M18.0391 22.9807L20.9252 25.9893C21.8638 25.6065 23.6378 23.7386 24.1462 22.9807C23.7834 21.9007 22.09 20.5384 21.228 19.8523C20.2701 20.2005 18.355 22.2893 18.0391 22.9807Z" fill="#211D21"/>
<path fill-rule="evenodd" clip-rule="evenodd" d="M36.085 46.8657C36.5282 47.6665 38.2415 49.3141 39.067 49.8433C40.0404 49.3442 41.5799 47.8059 42.219 46.8657C41.8279 46.1658 40.058 44.1753 39.067 43.7939L36.085 46.8657Z" fill="#211D21"/>
<path fill-rule="evenodd" clip-rule="evenodd" d="M71.5371 15.4134C72.9234 15.119 78.3431 12.4797 80.3724 11.5423C81.62 10.9655 82.0347 10.6142 82.4231 8.97852C80.5393 9.28742 78.0737 10.6414 76.2997 11.4132C74.041 12.3951 71.9779 12.9701 71.5371 15.4134Z" fill="#211D21"/>
<path fill-rule="evenodd" clip-rule="evenodd" d="M53.6865 50.4179C51.5727 50.8066 49.1295 51.9966 48.5869 53.9059C49.7028 53.8234 52.4285 52.8394 53.551 52.4374L56.8393 50.731C56.92 50.6671 57.1835 50.4449 57.2477 50.3958C57.5764 50.1439 57.4391 50.2312 57.6375 50.1325C57.9069 49.4356 58.0069 49.4978 58.1887 48.7554L53.6865 50.4179Z" fill="#211D21"/>
<path fill-rule="evenodd" clip-rule="evenodd" d="M64.0892 19.4118C65.9488 20.9501 65.3379 24.396 65.3755 26.8482C66.9443 24.6327 68.0495 17.2695 65.0388 16.4908C63.8785 16.72 63.8084 17.8621 64.0892 19.4118Z" fill="#211D21"/>
<path fill-rule="evenodd" clip-rule="evenodd" d="M6.42526 44.5955C5.9037 47.4447 3.4684 47.5182 1.62158 48.1781C7.08202 48.7856 8.14167 44.2797 7.06407 42.4753C6.55494 41.6228 5.14276 41.1244 4.2773 42.5133C3.55189 43.6785 4.04997 44.7567 4.6005 45.0425C5.07548 45.2886 5.66707 45.2068 6.42526 44.5955Z" fill="#211D21"/>
<path fill-rule="evenodd" clip-rule="evenodd" d="M9.70804 10.7909C8.69702 10.7308 8.34793 10.5493 8.27204 9.59429C9.43173 9.08624 9.70114 9.67436 9.70804 10.7909ZM3.53223 18.9007C4.54635 18.1835 5.92094 17.7331 6.98301 16.979C8.40106 15.9711 8.87603 15.2784 9.66042 13.9758C11.5528 13.7812 10.4807 14.4377 11.6673 13.278C11.3051 12.0141 10.3345 12.3219 11.2258 10.4937C12.3968 8.09394 11.9739 8.07944 11.4151 7.28837C8.0299 5.73868 5.85194 10.8913 6.50043 11.9209C7.17203 12.3965 8.07509 12.7865 8.88259 13.1465C8.51764 14.6054 7.39521 15.3243 6.39523 16.1143C4.70882 17.4466 3.88096 17.5588 3.53223 18.9007Z" fill="#211D21"/>
</svg>
